,date,data_value
40194,20100101,-128
146778,20100102,-150
254318,20100103,-189
363284,20100104,-144
473206,20100105,-144
583268,20100106,-133
693978,20100107,-100
804791,20100108,-139
914212,20100109,-144
1021996,20100110,-139
1130314,20100111,-100
1240159,20100112,-61
1349955,20100113,-56
1459489,20100114,-28
1568900,20100115,-11
1677767,20100116,-22
1785400,20100117,11
1893360,20100118,22
2003021,20100119,0
2113620,20100120,-61
2223072,20100121,-33
2331906,20100122,-17
2440160,20100123,6
2547248,20100124,17
2654880,20100125,6
2763661,20100126,-56
2872722,20100127,-128
2982630,20100128,-128
3092420,20100129,-150
3201230,20100130,-128
3309102,20100131,-78
3418121,20100201,-94
3528307,20100202,-100
3638046,20100203,-67
3748246,20100204,-61
3858254,20100205,-28
3967034,20100206,-6
4075272,20100207,-44
4184914,20100208,6
4296318,20100209,-44
4406931,20100210,-39
4516970,20100211,-61
4626563,20100212,-33
4735684,20100213,-28
4844270,20100214,-33
4953330,20100215,-50
5063157,20100216,-22
5172828,20100217,11
5282366,20100218,22
5391938,20100219,17
5501337,20100220,17
5609901,20100221,0
5719516,20100222,-17
5829601,20100223,-6
5938929,20100224,-56
6048228,20100225,-78
6157578,20100226,-22
6266240,20100227,-6
6373514,20100228,33
6482136,20100301,22
6592290,20100302,44
6701949,20100303,44
6811659,20100304,44
6921185,20100305,44
7030511,20100306,56
7139025,20100307,50
7248308,20100308,83
7358615,20100309,22
7468469,20100310,33
7578307,20100311,44
7687600,20100312,61
7795666,20100313,44
7902513,20100314,67
8010791,20100315,167
8120216,20100316,144
8229415,20100317,94
8338596,20100318,133
8448099,20100319,161
8558040,20100320,0
8666698,20100321,28
8774662,20100322,94
8883385,20100323,128
8992550,20100324,139
9102020,20100325,117
9210374,20100326,17
9317914,20100327,100
9425248,20100328,106
9532787,20100329,106
9641709,20100330,144
9750757,20100331,228
9860232,20100401,233
9970056,20100402,261
10079078,20100403,194
10187002,20100404,156
10295348,20100405,194
10405255,20100406,156
10515374,20100407,111
10625184,20100408,122
10733597,20100409,106
10841462,20100410,183
10949110,20100411,172
11057535,20100412,206
11167156,20100413,189
11276840,20100414,194
11386671,20100415,228
11496451,20100416,206
11605047,20100417,150
11712167,20100418,183
11820310,20100419,189
11929786,20100420,194
12039179,20100421,217
12148586,20100422,150
12257995,20100423,178
12366302,20100424,194
12473266,20100425,139
12580675,20100426,156
12689110,20100427,167
12797369,20100428,150
12906033,20100429,200
13015480,20100430,211
13124081,20100501,200
13231461,20100502,167
13339563,20100503,178
13448619,20100504,144
13557857,20100505,261
13667726,20100506,122
13777616,20100507,117
13886797,20100508,78
13994569,20100509,106
14103666,20100510,144
14214235,20100511,139
14324038,20100512,67
14434726,20100513,111
14544740,20100514,111
14653589,20100515,206
14761245,20100516,228
14869747,20100517,233
14978614,20100518,244
15087420,20100519,244
15196657,20100520,261
15305899,20100521,278
15414165,20100522,183
15521972,20100523,256
15631097,20100524,300
15741997,20100525,344
15852161,20100526,311
15961917,20100527,256
16071438,20100528,267
16179887,20100529,289
16287350,20100530,317
16395276,20100531,261
16504167,20100601,250
16613815,20100602,272
16723411,20100603,211
16832463,20100604,239
16941014,20100605,261
17048597,20100606,200
17156468,20100607,228
17265934,20100608,233
17375676,20100609,194
17484021,20100610,211
17592444,20100611,178
17701495,20100612,217
17809831,20100613,156
17918498,20100614,183
18028190,20100615,194
18137578,20100616,239
18246677,20100617,256
18355730,20100618,300
18464348,20100619,289
18572481,20100620,222
18681413,20100621,267
18791855,20100622,256
18902115,20100623,311
19012063,20100624,250
19121554,20100625,272
19230297,20100626,283
19338180,20100627,283
19446599,20100628,272
19555721,20100629,222
19663922,20100630,222
19772599,20100701,250
19881105,20100702,294
19988552,20100703,294
20095881,20100704,317
20204191,20100705,283
20313664,20100706,278
20423933,20100707,294
20533725,20100708,289
20643035,20100709,278
20751383,20100710,289
20859060,20100711,294
20967649,20100712,278
21077190,20100713,250
21186271,20100714,278
21295512,20100715,322
21405305,20100716,283
21514516,20100717,311
21622587,20100718,328
21731275,20100719,278
21840661,20100720,256
21949813,20100721,283
22058940,20100722,300
22167635,20100723,228
22275799,20100724,289
22383009,20100725,272
22490946,20100726,278
22599901,20100727,289
22708917,20100728,328
22817454,20100729,261
22925342,20100730,278
23032601,20100731,222
23139581,20100801,283
23248049,20100802,294
23358409,20100803,294
23468798,20100804,328
23579051,20100805,300
23688610,20100806,256
23797137,20100807,278
23905131,20100808,306
24014213,20100809,333
24124406,20100810,328
24234701,20100811,300
24345219,20100812,322
24455221,20100813,322
24564140,20100814,283
24671817,20100815,283
24780016,20100816,233
24889708,20100817,239
24999149,20100818,244
25108608,20100819,244
25218270,20100820,250
25327350,20100821,289
25435301,20100822,272
25543932,20100823,300
25654240,20100824,306
25763883,20100825,233
25873371,20100826,222
25983048,20100827,250
26092068,20100828,300
26200169,20100829,306
26308954,20100830,328
26418573,20100831,317
26528378,20100901,283
26638702,20100902,233
26748654,20100903,211
26857277,20100904,150
26964700,20100905,189
27072876,20100906,217
27181990,20100907,206
27291467,20100908,161
27400280,20100909,189
27509194,20100910,178
27617729,20100911,206
27724955,20100912,206
27832863,20100913,250
27942739,20100914,217
28052900,20100915,194
28162612,20100916,172
28271720,20100917,128
28379956,20100918,172
28487640,20100919,144
28596037,20100920,167
28705690,20100921,256
28815281,20100922,206
28924488,20100923,172
29033002,20100924,217
29140767,20100925,150
29247472,20100926,150
29354530,20100927,178
29462814,20100928,228
29571349,20100929,172
29680035,20100930,222
29788480,20101001,211
29896192,20101002,189
30003350,20101003,122
30111236,20101004,150
30220467,20101005,178
30329457,20101006,228
30438475,20101007,206
30547301,20101008,228
30655479,20101009,300
30763246,20101010,272
30871657,20101011,244
30981044,20101012,250
31090010,20101013,206
31198895,20101014,178
31307522,20101015,194
31415209,20101016,156
31522664,20101017,178
31631056,20101018,139
31740784,20101019,122
31850152,20101020,150
31959422,20101021,178
32068292,20101022,106
32176304,20101023,194
32283534,20101024,178
32391506,20101025,150
32500438,20101026,161
32608796,20101027,100
32717091,20101028,50
32825201,20101029,39
32932862,20101030,111
33039915,20101031,100
33147893,20101101,89
33257346,20101102,111
33366612,20101103,128
33475423,20101104,122
33583473,20101105,67
33690987,20101106,61
33798550,20101107,133
33907265,20101108,144
34017408,20101109,161
34127875,20101110,194
34238077,20101111,189
34348035,20101112,106
34457067,20101113,50
34565023,20101114,0
34673656,20101115,6
34783339,20101116,39
34892253,20101117,11
35000909,20101118,22
35110065,20101119,17
35219432,20101120,28
35328341,20101121,-17
35438156,20101122,0
35548531,20101123,-22
35657548,20101124,-56
35765119,20101125,-6
35871424,20101126,-111
35977369,20101127,-50
36083723,20101128,-6
36191855,20101129,67
36301401,20101130,-11
36409825,20101201,-44
36518527,20101202,-78
36627886,20101203,-94
36737574,20101204,-72
36846324,20101205,-56
36955671,20101206,-94
37066191,20101207,-72
37176261,20101208,-100
37286093,20101209,-89
37395904,20101210,-17
37505380,20101211,-56
37613479,20101212,-61
37722246,20101213,-139
37832144,20101214,-156
37941977,20101215,-122
38051866,20101216,-83
38161585,20101217,-78
38270493,20101218,-106
38378272,20101219,-94
38486422,20101220,-94
38596246,20101221,-17
38705496,20101222,-17
38813873,20101223,-11
38921306,20101224,-39
39027725,20101225,-44
39133955,20101226,-78
39241396,20101227,-33
39349932,20101228,-67
39458300,20101229,11
39566772,20101230,17
39674894,20101231,50
38361,20110101,-50
139416,20110102,-139
240793,20110103,-100
343906,20110104,-78
447507,20110105,-111
550766,20110106,-50
654234,20110107,-89
758322,20110108,-106
861981,20110109,-128
967909,20110110,-94
1076195,20110111,-67
1183037,20110112,-56
1288983,20110113,-67
1393738,20110114,-94
1497229,20110115,-83
1599313,20110116,-100
1701986,20110117,-72
1805905,20110118,-50
1910009,20110119,-128
2014507,20110120,-117
2120325,20110121,-139
2224275,20110122,-156
2326588,20110123,-167
2429833,20110124,-111
2533903,20110125,-44
2636981,20110126,-83
2740576,20110127,-39
2844283,20110128,-33
2946816,20110129,6
3048373,20110130,-33
3151051,20110131,-72
3256108,20110201,-72
3361680,20110202,-111
3466055,20110203,-128
3569556,20110204,-72
3672222,20110205,11
3774569,20110206,-28
3878126,20110207,-22
3982998,20110208,-122
4087850,20110209,-156
4192527,20110210,-139
4296503,20110211,-106
4398726,20110212,-11
4499807,20110213,28
4601755,20110214,83
4705062,20110215,28
4807799,20110216,50
4910758,20110217,106
5013730,20110218,67
5115380,20110219,-50
5216432,20110220,-33
5318517,20110221,-39
5421752,20110222,-61
5524576,20110223,-33
5627695,20110224,0
5731561,20110225,-39
5834980,20110226,-128
5937052,20110227,-128
6039623,20110228,-33
6142237,20110301,-39
6243898,20110302,28
6345898,20110303,-72
6448144,20110304,-11
6549339,20110305,-22
6649056,20110306,-33
6750741,20110307,-22
6854700,20110308,-22
6957882,20110309,28
7059882,20110310,17
7161217,20110311,6
7262063,20110312,56
7362277,20110313,-56
7463577,20110314,-17
7565750,20110315,33
7666629,20110316,56
7767655,20110317,111
7868645,20110318,100
7969577,20110319,33
8069197,20110320,83
8170140,20110321,61
8273301,20110322,56
8376075,20110323,17
8478937,20110324,-28
8581041,20110325,-11
8682399,20110326,-6
8782737,20110327,-17
8884141,20110328,11
8986621,20110329,28
9087995,20110330,56
9188631,20110331,72
9289683,20110401,72
9390466,20110402,72
9490270,20110403,106
9592011,20110404,117
9694450,20110405,72
9795401,20110406,122
9896884,20110407,133
9998777,20110408,172
10100224,20110409,172
10200472,20110410,150
10301375,20110411,233
10402856,20110412,161
10503444,20110413,194
10604670,20110414,156
10706650,20110415,89
10807627,20110416,83
10906689,20110417,44
11006819,20110418,83
11109339,20110419,94
11211519,20110420,67
11313240,20110421,61
11414035,20110422,89
11513632,20110423,61
11612439,20110424,83
11711993,20110425,156
11813043,20110426,178
11913804,20110427,72
12013766,20110428,44
12112944,20110429,128
12211680,20110430,167
12310748,20110501,150
12410563,20110502,39
12511440,20110503,33
12611662,20110504,139
12711755,20110505,178
12811946,20110506,156
12911429,20110507,200
13009597,20110508,206
13109482,20110509,178
13211534,20110510,189
13313449,20110511,300
13415178,20110512,244
13516143,20110513,139
13615753,20110514,117
13713431,20110515,106
13811672,20110516,167
13911478,20110517,200
14011578,20110518,194
14112004,20110519,228
14212586,20110520,211
14312423,20110521,222
14411240,20110522,211
14511020,20110523,194
14612015,20110524,228
14712928,20110525,189
14813705,20110526,167
14914025,20110527,167
15013085,20110528,167
15111225,20110529,200
15210123,20110530,189
15310161,20110531,300
15411281,20110601,217
15512989,20110602,233
15614130,20110603,250
15714569,20110604,317
15814319,20110605,278
15914942,20110606,278
16017235,20110607,350
16119475,20110608,383
16221686,20110609,244
16323009,20110610,183
16422907,20110611,150
16521709,20110612,189
16621086,20110613,194
16721636,20110614,239
16822581,20110615,256
16923500,20110616,211
17024155,20110617,233
17123989,20110618,261
17222850,20110619,211
17322657,20110620,239
17424098,20110621,239
17524891,20110622,244
17624955,20110623,189
17724395,20110624,161
17823163,20110625,233
17921541,20110626,200
18021031,20110627,244
18121343,20110628,233
18221102,20110629,250
18320650,20110630,289
18420258,20110701,339
18519550,20110702,361
18618544,20110703,278
18717685,20110704,294
18817470,20110705,306
18918182,20110706,289
19019082,20110707,283
19119290,20110708,306
19218195,20110709,306
19316483,20110710,294
19416074,20110711,317
19517206,20110712,283
19617418,20110713,239
19717233,20110714,233
19816855,20110715,217
19916004,20110716,233
20014315,20110717,294
20113745,20110718,328
20214505,20110719,344
20314563,20110720,344
20414641,20110721,344
20515026,20110722,294
20614559,20110723,317
20713069,20110724,289
20812243,20110725,272
20912327,20110726,294
21012526,20110727,278
21112585,20110728,300
21212634,20110729,300
21311806,20110730,306
21409440,20110731,311
21508138,20110801,322
21608630,20110802,289
21709258,20110803,294
21809582,20110804,289
21909708,20110805,289
22009096,20110806,289
22107315,20110807,289
22206373,20110808,272
22307221,20110809,272
22407335,20110810,228
22507350,20110811,256
22607665,20110812,272
22707642,20110813,244
22806105,20110814,256
22905028,20110815,272
23005588,20110816,278
23105927,20110817,278
23206551,20110818,256
23307309,20110819,278
23406939,20110820,267
23505354,20110821,244
23604329,20110822,244
23704540,20110823,283
23804599,20110824,306
23904526,20110825,256
24004013,20110826,278
24102378,20110827,289
24199838,20110828,244
24298292,20110829,244
24398098,20110830,267
24497750,20110831,206
24597723,20110901,283
24698399,20110902,322
24798082,20110903,256
24896630,20110904,250
24994571,20110905,194
25092978,20110906,211
25192208,20110907,222
25291464,20110908,239
25390830,20110909,278
25489766,20110910,300
25587825,20110911,289
25686992,20110912,300
25787587,20110913,306
25888213,20110914,200
25988196,20110915,139
26087130,20110916,144
26185274,20110917,150
26282800,20110918,189
26381272,20110919,133
26481134,20110920,222
26580480,20110921,211
26679453,20110922,144
26778232,20110923,111
26876186,20110924,144
26973448,20110925,156
27071594,20110926,183
27170947,20110927,206
27269919,20110928,183
27368913,20110929,256
27467913,20110930,178
27565561,20111001,161
27662734,20111002,172
27760818,20111003,256
27860397,20111004,272
27959834,20111005,278
28059331,20111006,300
28159141,20111007,278
28258391,20111008,278
28356422,20111009,278
28455259,20111010,278
28554873,20111011,239
28653993,20111012,233
28752446,20111013,194
28850082,20111014,139
28947112,20111015,122
29044042,20111016,144
29142387,20111017,133
29242083,20111018,133
29340982,20111019,67
29438779,20111020,83
29536827,20111021,111
29634813,20111022,150
29732531,20111023,144
29831292,20111024,128
29931190,20111025,150
30031005,20111026,122
30131120,20111027,128
30229984,20111028,106
30327791,20111029,122
30425220,20111030,111
30524156,20111031,94
30624282,20111101,100
30725694,20111102,122
30828007,20111103,94
30928240,20111104,111
31027163,20111105,122
31126197,20111106,139
31226176,20111107,122
31327066,20111108,89
31427470,20111109,72
31527659,20111110,83
31627187,20111111,28
31726014,20111112,100
31824864,20111113,178
31924434,20111114,83
32024899,20111115,106
32124790,20111116,94
32224513,20111117,22
32324489,20111118,28
32425099,20111119,83
32524985,20111120,-6
32624574,20111121,-44
32724739,20111122,11
32824090,20111123,22
32922374,20111124,100
33020401,20111125,133
33118850,20111126,100
33216591,20111127,83
33315012,20111128,6
33414869,20111129,28
33514611,20111130,33
33615651,20111201,39
33717935,20111202,-11
33819194,20111203,0
33919691,20111204,-6
34021303,20111205,-44
34123900,20111206,-72
34225468,20111207,-78
34327141,20111208,-22
34429564,20111209,-56
34531972,20111210,-94
34632199,20111211,-28
34733112,20111212,33
34835128,20111213,33
34936916,20111214,28
35038463,20111215,28
35138845,20111216,-6
35238346,20111217,-50
35338197,20111218,11
35439485,20111219,72
35541742,20111220,6
35643360,20111221,0
35744393,20111222,-17
35845062,20111223,-33
35944467,20111224,22
36042200,20111225,44
36139771,20111226,44
36238314,20111227,94
36337867,20111228,6
36437453,20111229,33
36537862,20111230,22
36637544,20111231,-11
37178,20120101,50
135593,20120102,-28
235822,20120103,-83
337313,20120104,-28
438300,20120105,28
539097,20120106,78
639305,20120107,72
738375,20120108,11
838072,20120109,39
938313,20120110,89
1038858,20120111,106
1140077,20120112,28
1242296,20120113,-106
1344206,20120114,-117
1444653,20120115,-56
1545464,20120116,28
1647279,20120117,-11
1749320,20120118,-100
1850606,20120119,-44
1952719,20120120,-167
2054455,20120121,-128
2154952,20120122,-56
2256332,20120123,-39
2358374,20120124,-33
2459391,20120125,-50
2560079,20120126,0
2660235,20120127,33
2759590,20120128,11
2858432,20120129,-33
2958237,20120130,-50
3059173,20120131,56
3159457,20120201,78
3259805,20120202,11
3360765,20120203,6
3461863,20120204,6
3561375,20120205,11
3661201,20120206,-17
3762807,20120207,61
3864622,20120208,-28
3966099,20120209,-6
4067263,20120210,28
4167862,20120211,-94
4267868,20120212,-72
4369521,20120213,-11
4473583,20120214,-11
4576148,20120215,0
4677136,20120216,28
4776988,20120217,44
4875852,20120218,44
4973844,20120219,22
5072748,20120220,61
5173789,20120221,56
5275083,20120222,11
5375885,20120223,6
5477015,20120224,28
5577224,20120225,-28
5675626,20120226,-22
5775241,20120227,28
5912735,20120228,-17
5912736,20120229,0
6073881,20120301,6
6175340,20120302,22
6275645,20120303,22
6373922,20120304,-39
6474001,20120305,-28
6576602,20120306,11
6678031,20120307,139
6778795,20120308,89
6878601,20120309,17
6976793,20120310,56
7074552,20120311,178
7173039,20120312,183
7272924,20120313,106
7372778,20120314,178
7472949,20120315,211
7572837,20120316,161
7671506,20120317,256
7769304,20120318,261
7868380,20120319,256
7969267,20120320,250
8069590,20120321,167
8169574,20120322,178
8269115,20120323,194
8367487,20120324,211
8464349,20120325,200
8562396,20120326,133
8662063,20120327,89
8761845,20120328,194
8861499,20120329,117
8960306,20120330,150
9058548,20120331,100
9155601,20120401,100
9254127,20120402,183
9354377,20120403,206
9454603,20120404,172
9553967,20120405,167
9653077,20120406,150
9751409,20120407,156
9849104,20120408,139
9947256,20120409,156
10047535,20120410,83
10147988,20120411,56
10247818,20120412,117
10347430,20120413,172
10446504,20120414,111
10544299,20120415,228
10643324,20120416,228
10742936,20120417,39
10842081,20120418,139
10941289,20120419,161
11040328,20120420,78
11138312,20120421,139
11234896,20120422,106
11332719,20120423,117
11432162,20120424,172
11531404,20120425,217
11630298,20120426,217
11728998,20120427,128
11826816,20120428,128
11923911,20120429,72
12021911,20120430,133
12121064,20120501,161
12219006,20120502,228
12317226,20120503,261
12415294,20120504,244
12512538,20120505,217
12608939,20120506,150
12706241,20120507,161
12804182,20120508,178
12901490,20120509,144
12998729,20120510,178
13095861,20120511,222
13192995,20120512,206
13288827,20120513,200
13385746,20120514,233
13483800,20120515,294
13581317,20120516,222
13679369,20120517,206
13777537,20120518,278
13875031,20120519,328
13971599,20120520,300
14068970,20120521,156
14167042,20120522,233
14265017,20120523,294
14363230,20120524,300
14461642,20120525,172
14559342,20120526,200
14656005,20120527,194
14752993,20120528,317
14850678,20120529,250
14948537,20120530,178
15045695,20120531,156
15142802,20120601,172
15239091,20120602,211
15334771,20120603,233
15431981,20120604,250
15529908,20120605,278
15627283,20120606,272
15725091,20120607,267
15822889,20120608,272
15919854,20120609,306
16015934,20120610,322
16113152,20120611,333
16211391,20120612,222
16309072,20120613,194
16407137,20120614,228
16505652,20120615,200
16603807,20120616,256
16700719,20120617,267
16798045,20120618,256
16896835,20120619,306
16995484,20120620,328
17094284,20120621,267
17192631,20120622,239
17290088,20120623,261
17386658,20120624,256
17483983,20120625,278
17582281,20120626,250
17680424,20120627,267
17778719,20120628,333
17877186,20120629,300
17974730,20120630,317
18071391,20120701,317
18169360,20120702,333
18267938,20120703,356
18366048,20120704,339
18463981,20120705,372
18562879,20120706,328
18661057,20120707,372
18758607,20120708,278
18856570,20120709,317
18955610,20120710,283
19054144,20120711,294
19152487,20120712,311
19250646,20120713,311
19348024,20120714,306
19444089,20120715,322
19541212,20120716,333
19639806,20120717,361
19738589,20120718,322
19836765,20120719,267
19934247,20120720,283
20031101,20120721,306
20127419,20120722,294
20224882,20120723,317
20323518,20120724,344
20421819,20120725,267
20520322,20120726,328
20618975,20120727,283
20715993,20120728,261
20811786,20120729,289
20909044,20120730,283
21007876,20120731,311
21106554,20120801,300
21205844,20120802,328
21305222,20120803,311
21403893,20120804,317
21501285,20120805,250
21598748,20120806,244
21697402,20120807,300
21796557,20120808,300
21895942,20120809,267
21994659,20120810,244
22092113,20120811,244
22188645,20120812,250
22286322,20120813,200
22385301,20120814,278
22484090,20120815,256
22583123,20120816,278
22682082,20120817,211
22779619,20120818,228
22876395,20120819,250
22974261,20120820,239
23073450,20120821,250
23172777,20120822,267
23272211,20120823,267
23371513,20120824,289
23470485,20120825,311
23568500,20120826,233
23667163,20120827,294
23766315,20120828,294
23864839,20120829,278
23963754,20120830,328
24062589,20120831,328
24160685,20120901,283
24258272,20120902,289
24355500,20120903,300
24453945,20120904,322
24553424,20120905,322
24652701,20120906,278
24751950,20120907,267
24850367,20120908,206
24947098,20120909,250
25045014,20120910,228
25145335,20120911,278
25245429,20120912,344
25345770,20120913,167
25445849,20120914,233
25544153,20120915,233
25641445,20120916,289
25740168,20120917,256
25839357,20120918,167
25937557,20120919,156
26036666,20120920,228
26136417,20120921,178
26235219,20120922,161
26332306,20120923,144
26430864,20120924,156
26531223,20120925,239
26630964,20120926,183
26729848,20120927,172
26828458,20120928,194
26926199,20120929,239
27022654,20120930,267
27120177,20121001,244
27219796,20121002,211
27319463,20121003,217
27419290,20121004,250
27519145,20121005,94
27618468,20121006,72
27716351,20121007,56
27814620,20121008,111
27914264,20121009,167
28014413,20121010,94
28114683,20121011,117
28214564,20121012,94
28313451,20121013,111
28411445,20121014,106
28509890,20121015,133
28609523,20121016,156
28709572,20121017,178
28809556,20121018,161
28908951,20121019,89
29007183,20121020,100
29105038,20121021,122
29204612,20121022,211
29305703,20121023,161
29406125,20121024,167
29507194,20121025,144
29608458,20121026,39
29707604,20121027,28
29805829,20121028,56
29904803,20121029,72
30004884,20121030,61
30104642,20121031,89
30204711,20121101,94
30305604,20121102,67
30406128,20121103,28
30505736,20121104,50
30605993,20121105,61
30706940,20121106,56
30806794,20121107,56
30907460,20121108,72
31009240,20121109,111
31110868,20121110,111
31211504,20121111,194
31312321,20121112,17
31413185,20121113,-44
31514078,20121114,56
31615172,20121115,100
31716620,20121116,100
31817474,20121117,61
31917191,20121118,122
32017196,20121119,133
32118645,20121120,144
32220084,20121121,117
32320535,20121122,156
32419518,20121123,122
32518539,20121124,-39
32617915,20121125,-17
32719198,20121126,-22
32821786,20121127,-72
32923544,20121128,28
33025141,20121129,11
33126660,20121130,39
33227827,20121201,22
33328408,20121202,72
33428860,20121203,89
33530145,20121204,117
33630696,20121205,-6
33731141,20121206,61
33832214,20121207,61
33932608,20121208,-17
34032441,20121209,6
34133641,20121210,-17
34235815,20121211,-100
34337312,20121212,-67
34439114,20121213,44
34540784,20121214,28
34641599,20121215,28
34741084,20121216,17
34841527,20121217,-6
34943355,20121218,-50
35045267,20121219,-22
35148005,20121220,-6
35250288,20121221,-39
35351031,20121222,-78
35450711,20121223,-17
35550004,20121224,-89
35649257,20121225,-89
35749004,20121226,-128
35851015,20121227,-89
35953639,20121228,-44
36055024,20121229,-44
36155486,20121230,-89
36256618,20121231,-56
38097,20130101,-111
138999,20130102,-78
240334,20130103,-67
341462,20130104,-78
441789,20130105,-6
540863,20130106,-33
640841,20130107,-22
742119,20130108,22
843008,20130109,6
943363,20130110,6
1043450,20130111,33
1143145,20130112,44
1241957,20130113,-89
1341806,20130114,-139
1442831,20130115,-106
1543442,20130116,-17
1644157,20130117,11
1744403,20130118,-61
1844338,20130119,44
1943280,20130120,22
2043084,20130121,-139
2144150,20130122,-206
2245402,20130123,-139
2346656,20130124,-100
2447750,20130125,-94
2547871,20130126,-83
2647082,20130127,-39
2746962,20130128,-6
2848811,20130129,0
2950651,20130130,11
3051469,20130131,-67
3152361,20130201,-172
3253878,20130202,-167
3354289,20130203,-122
3455704,20130204,-111
3557972,20130205,-50
3659354,20130206,-28
3760529,20130207,-44
3860632,20130208,-33
3959936,20130209,-39
4059202,20130210,-11
4159241,20130211,0
4259697,20130212,-39
4359255,20130213,11
4458996,20130214,28
4559424,20130215,-22
4659267,20130216,-89
4758115,20130217,-72
4857738,20130218,-17
4958199,20130219,0
5058132,20130220,-139
5158843,20130221,-100
5261668,20130222,-67
5362717,20130223,-39
5461514,20130224,-11
5562247,20130225,11
5664407,20130226,22
5765006,20130227,11
5865738,20130228,22
5966465,20130301,-22
6066599,20130302,-17
6165828,20130303,-6
6266218,20130304,-11
6368260,20130305,-44
6469251,20130306,-22
6570065,20130307,-33
6670701,20130308,-11
6770645,20130309,28
6869549,20130310,17
6969406,20130311,6
7069874,20130312,-22
7169447,20130313,-28
7269669,20130314,-6
7369686,20130315,39
7469121,20130316,0
7567450,20130317,-56
7666928,20130318,-33
7767766,20130319,-28
7867888,20130320,-67
7968081,20130321,-72
8068559,20130322,-28
8168497,20130323,28
8267336,20130324,39
8367891,20130325,-6
8470063,20130326,22
8571094,20130327,28
8671369,20130328,61
8770713,20130329,56
8869069,20130330,78
8966360,20130331,100
9063808,20130401,28
9163145,20130402,0
9262743,20130403,17
9361820,20130404,67
9460076,20130405,89
9557827,20130406,50
9655074,20130407,100
9753729,20130408,72
9853827,20130409,61
9953852,20130410,56
10054246,20130411,33
10153131,20130412,6
10250659,20130413,11
10347645,20130414,11
10446142,20130415,22
10546097,20130416,28
10646258,20130417,61
10746004,20130418,39
10844926,20130419,-6
10941606,20130420,17
11037860,20130421,44
11136427,20130422,83
11237418,20130423,50
11337651,20130424,44
11436248,20130425,94
11534119,20130426,94
11631587,20130427,206
11727573,20130428,222
11823731,20130429,261
11921681,20130430,222
12019777,20130501,206
12118786,20130502,39
12217052,20130503,67
12313233,20130504,11
12408101,20130505,78
12503760,20130506,172
12601052,20130507,228
12698412,20130508,244
12795568,20130509,239
12891785,20130510,133
12986474,20130511,183
13079954,20130512,100
13175267,20130513,133
13273445,20130514,200
13371180,20130515,344
13467877,20130516,250
13563884,20130517,267
13659335,20130518,150
13753340,20130519,256
13848410,20130520,267
13944629,20130521,211
14040310,20130522,156
14135937,20130523,117
14231011,20130524,161
14325800,20130525,189
14419755,20130526,161
14514118,20130527,144
14610019,20130528,150
14706487,20130529,150
14802246,20130530,228
14897549,20130531,244
14992200,20130601,244
15086292,20130602,217
15181060,20130603,183
15277619,20130604,194
15374536,20130605,167
15471241,20130606,139
15566676,20130607,133
15661306,20130608,172
15755384,20130609,206
15850385,20130610,189
15945864,20130611,233
16041913,20130612,233
16138579,20130613,233
16234802,20130614,239
16329927,20130615,250
16424450,20130616,228
16519704,20130617,283
16615569,20130618,261
16710743,20130619,228
16806563,20130620,283
16903191,20130621,317
16999148,20130622,256
17094200,20130623,261
17189572,20130624,272
17286146,20130625,267
17381754,20130626,278
17477085,20130627,300
17571972,20130628,294
17665940,20130629,222
17758167,20130630,233
17851455,20130701,261
17946666,20130702,272
18041427,20130703,267
18135411,20130704,278
18229820,20130705,300
18324355,20130706,300
18417909,20130707,311
18512744,20130708,311
18608676,20130709,289
18704633,20130710,283
18800327,20130711,250
18895406,20130712,278
18989729,20130713,300
19083227,20130714,256
19177415,20130715,283
19273086,20130716,294
19368879,20130717,317
19464953,20130718,322
19560999,20130719,328
19656360,20130720,272
19750182,20130721,250
19844435,20130722,261
19940116,20130723,283
20035709,20130724,222
20131581,20130725,244
20227201,20130726,256
20321755,20130727,200
20414427,20130728,150
20508341,20130729,211
20604344,20130730,244
20700049,20130731,211
20795079,20130801,250
20889869,20130802,261
20984179,20130803,233
21077508,20130804,239
21172066,20130805,233
21268001,20130806,256
21363448,20130807,278
21458574,20130808,228
21553321,20130809,233
21647052,20130810,228
21739655,20130811,228
21834296,20130812,250
21930370,20130813,250
22025719,20130814,228
22121243,20130815,239
22217042,20130816,250
22312222,20130817,261
22406328,20130818,267
22501012,20130819,272
22597170,20130820,294
22693494,20130821,311
22789240,20130822,289
22883706,20130823,283
22977804,20130824,294
23071570,20130825,317
23166467,20130826,344
23262480,20130827,344
23358579,20130828,339
23454822,20130829,322
23550417,20130830,333
23645441,20130831,283
23739202,20130901,306
23833189,20130902,228
23928111,20130903,189
24024499,20130904,244
24120932,20130905,289
24217483,20130906,272
24313369,20130907,322
24407838,20130908,328
24503445,20130909,239
24600530,20130910,328
24697060,20130911,267
24793564,20130912,283
24889225,20130913,222
24983524,20130914,206
25077486,20130915,217
25172329,20130916,183
25268272,20130917,183
25364128,20130918,189
25460226,20130919,228
25555920,20130920,250
25650107,20130921,178
25743208,20130922,167
25837345,20130923,217
25933796,20130924,222
26030093,20130925,233
26126091,20130926,222
26222133,20130927,267
26317544,20130928,283
26411632,20130929,194
26506148,20130930,239
26602594,20131001,256
26699958,20131002,233
26797134,20131003,239
26894216,20131004,144
26990315,20131005,144
27084602,20131006,150
27179096,20131007,111
27274505,20131008,183
27370472,20131009,239
27467281,20131010,233
27563811,20131011,244
27659079,20131012,222
27752844,20131013,122
27847383,20131014,144
27943743,20131015,117
28039842,20131016,111
28135267,20131017,117
28230847,20131018,139
28325546,20131019,100
28418753,20131020,67
28513621,20131021,56
28610642,20131022,33
28706839,20131023,39
28803270,20131024,28
28900349,20131025,50
28996594,20131026,139
29091627,20131027,78
29187226,20131028,133
29284284,20131029,61
29381029,20131030,61
29476939,20131031,106
29571814,20131101,94
29666123,20131102,106
29760294,20131103,89
29856079,20131104,117
29953647,20131105,78
30050650,20131106,61
30147107,20131107,28
30242740,20131108,11
30338992,20131109,61
30434713,20131110,56
30531181,20131111,50
30629865,20131112,-39
30729073,20131113,-28
30827816,20131114,89
30926222,20131115,100
31022963,20131116,128
31117561,20131117,89
31213335,20131118,56
31310401,20131119,6
31408356,20131120,61
31506819,20131121,56
31604991,20131122,22
31701394,20131123,0
31797053,20131124,-89
31894959,20131125,-17
31993716,20131126,22
32091110,20131127,-61
32187574,20131128,0
32283220,20131129,-22
32379258,20131130,-6
32475239,20131201,28
32572808,20131202,11
32671867,20131203,17
32771103,20131204,6
32870360,20131205,-17
32968953,20131206,-139
33067215,20131207,-172
33164569,20131208,-178
33263252,20131209,-122
33363768,20131210,-122
33463451,20131211,-111
33563363,20131212,-128
33662829,20131213,-72
33761134,20131214,-100
33858437,20131215,-111
33956919,20131216,-167
34057080,20131217,-6
34156749,20131218,-28
34256078,20131219,11
34354978,20131220,-89
34452480,20131221,-83
34548260,20131222,-67
34644920,20131223,-83
34741749,20131224,-189
34836961,20131225,-106
34932395,20131226,-56
35029107,20131227,-44
35125152,20131228,33
35220234,20131229,67
35315535,20131230,-183
35412162,20131231,-178
36325,20140101,-200
133562,20140102,-189
232087,20140103,-172
329992,20140104,6
427357,20140105,-50
525128,20140106,-217
623231,20140107,-250
720903,20140108,-172
818435,20140109,-167
915608,20140110,-67
1011321,20140111,-17
1105687,20140112,-17
1201228,20140113,39
1298480,20140114,-22
1395010,20140115,-67
1491909,20140116,6
1589821,20140117,6
1687108,20140118,-111
1783387,20140119,-28
1880012,20140120,22
1977802,20140121,-56
2076301,20140122,-150
2175233,20140123,-156
2273703,20140124,-89
2370516,20140125,-6
2466527,20140126,-150
2563311,20140127,-100
2661172,20140128,-228
2759265,20140129,-189
2857127,20140130,-6
2954574,20140131,-72
3051983,20140201,-133
3148085,20140202,-78
3244283,20140203,-111
3341817,20140204,-106
3439951,20140205,-133
3538276,20140206,-167
3636075,20140207,-167
3732576,20140208,-117
3827980,20140209,-111
3924823,20140210,-156
4022889,20140211,-161
4119933,20140212,-106
4217219,20140213,-50
4315151,20140214,-22
4411565,20140215,-106
4506451,20140216,-83
4602362,20140217,-67
4699345,20140218,-33
4796155,20140219,50
4892471,20140220,39
4988678,20140221,6
5083501,20140222,-100
5177348,20140223,-106
5273141,20140224,-94
5370182,20140225,-122
5466495,20140226,-161
5562072,20140227,-83
5657535,20140228,-178
5752629,20140301,-111
5847503,20140302,-194
5944189,20140303,-167
6041916,20140304,-133
6138715,20140305,-83
6235381,20140306,-56
6331418,20140307,-33
6426820,20140308,-6
6521086,20140309,-33
6616083,20140310,56
6712839,20140311,94
6809393,20140312,50
6905254,20140313,-33
7000884,20140314,94
7095860,20140315,44
7189225,20140316,-17
7283526,20140317,-50
7379955,20140318,6
7475904,20140319,17
7571649,20140320,11
7667106,20140321,61
7762598,20140322,50
7857030,20140323,-72
7952045,20140324,-44
8048404,20140325,-17
8144700,20140326,-56
8240134,20140327,39
8334880,20140328,28
8428220,20140329,17
8520157,20140330,44
8614248,20140331,133
8710527,20140401,128
8806721,20140402,17
8903346,20140403,39
8999213,20140404,6
9093535,20140405,39
9186538,20140406,83
9280366,20140407,150
9374937,20140408,133
9468936,20140409,100
9563682,20140410,206
9659406,20140411,139
9754271,20140412,161
9848489,20140413,117
9944167,20140414,50
10040891,20140415,17
10136478,20140416,22
10232450,20140417,11
10327946,20140418,39
10421705,20140419,94
10514271,20140420,178
10607633,20140421,228
10702687,20140422,189
10797167,20140423,133
10891968,20140424,78
10986850,20140425,61
11080148,20140426,156
11172508,20140427,122
11266167,20140428,61
11361147,20140429,61
11455427,20140430,22
11549320,20140501,61
11643012,20140502,89
11735951,20140503,144
11828180,20140504,133
11921709,20140505,139
12016872,20140506,172
12112045,20140507,172
12207592,20140508,183
12301877,20140509,200
12393733,20140510,128
12484361,20140511,200
12577357,20140512,194
12673107,20140513,161
12767077,20140514,106
12860245,20140515,139
12953063,20140516,83
13044956,20140517,117
13136369,20140518,183
13229500,20140519,217
13324384,20140520,133
13419072,20140521,244
13513639,20140522,172
13607727,20140523,206
13700128,20140524,239
13791398,20140525,239
13882586,20140526,261
13975542,20140527,283
14068630,20140528,228
14161231,20140529,272
14253792,20140530,289
14345829,20140531,306
14437379,20140601,306
14530511,20140602,239
14625021,20140603,272
14719094,20140604,256
14813167,20140605,272
14906493,20140606,272
14999341,20140607,294
15091172,20140608,172
15183264,20140609,222
15276413,20140610,217
15369106,20140611,256
15461149,20140612,278
15552707,20140613,167
15643839,20140614,233
15735153,20140615,183
15828359,20140616,250
15923188,20140617,300
16017515,20140618,294
16111283,20140619,283
16204378,20140620,261
16296906,20140621,239
16388459,20140622,294
16480775,20140623,278
16574193,20140624,272
16666687,20140625,289
16759242,20140626,206
16851645,20140627,272
16943385,20140628,272
17033729,20140629,294
17125384,20140630,289
17219316,20140701,289
17313638,20140702,256
17407545,20140703,244
17500462,20140704,256
17592574,20140705,261
17684830,20140706,300
17778196,20140707,328
17872438,20140708,300
17965724,20140709,239
18059202,20140710,261
18152867,20140711,294
18245026,20140712,267
18335387,20140713,267
18427334,20140714,244
18520083,20140715,183
18612555,20140716,211
18705487,20140717,244
18799051,20140718,261
18891827,20140719,261
18983385,20140720,261
19076190,20140721,300
19170125,20140722,322
19263896,20140723,283
19357230,20140724,272
19449876,20140725,272
19542057,20140726,267
19633180,20140727,294
19725004,20140728,244
19818296,20140729,250
19911852,20140730,261
20005164,20140731,267
20098225,20140801,278
20190529,20140802,289
20281725,20140803,300
20374355,20140804,300
20468590,20140805,300
20562301,20140806,267
20656335,20140807,283
20749809,20140808,278
20842630,20140809,278
20934471,20140810,267
21026914,20140811,278
21120106,20140812,250
21212528,20140813,256
21305583,20140814,289
21399242,20140815,283
21492299,20140816,261
21584437,20140817,272
21677478,20140818,256
21771871,20140819,294
21865649,20140820,267
21959195,20140821,278
22052703,20140822,278
22145423,20140823,244
22237466,20140824,250
22330765,20140825,311
22425724,20140826,261
22519956,20140827,233
22614375,20140828,244
22708585,20140829,217
22801248,20140830,239
22891834,20140831,239
22983154,20140901,294
23076809,20140902,244
23171890,20140903,250
23266301,20140904,244
23361008,20140905,289
23454263,20140906,178
23546366,20140907,233
23639205,20140908,239
23733610,20140909,239
23827670,20140910,233
23921951,20140911,111
24015708,20140912,128
24108273,20140913,117
24199679,20140914,150
24292646,20140915,167
24386964,20140916,156
24480425,20140917,189
24574331,20140918,228
24668572,20140919,222
24761966,20140920,244
24854217,20140921,239
24946972,20140922,183
25040891,20140923,217
25135267,20140924,233
25229708,20140925,178
25323618,20140926,250
25416545,20140927,272
25508713,20140928,283
25601801,20140929,272
25695762,20140930,133
25790070,20141001,139
25886008,20141002,133
25981648,20141003,144
26075075,20141004,72
26167359,20141005,89
26261578,20141006,89
26357028,20141007,156
26451773,20141008,144
26546634,20141009,133
26641565,20141010,117
26735011,20141011,106
26826921,20141012,133
26919726,20141013,167
27013590,20141014,133
27107404,20141015,172
27201194,20141016,178
27295321,20141017,217
27389024,20141018,122
27482148,20141019,117
27576258,20141020,194
27671828,20141021,167
27766414,20141022,133
27861027,20141023,150
27956014,20141024,194
28050627,20141025,189
28144494,20141026,167
28239339,20141027,172
28335357,20141028,189
28430641,20141029,83
28525203,20141030,50
28619418,20141031,78
28713232,20141101,33
28806219,20141102,56
28900567,20141103,133
28996466,20141104,122
29091140,20141105,111
29185577,20141106,56
29279625,20141107,56
29373410,20141108,72
29467306,20141109,50
29562329,20141110,28
29659215,20141111,-22
29755902,20141112,-44
29852730,20141113,-56
29949886,20141114,-50
30046142,20141115,-67
30142353,20141116,-61
30239585,20141117,-100
30337465,20141118,-100
30434801,20141119,-72
30532536,20141120,-56
30629455,20141121,-94
30724766,20141122,17
30817992,20141123,94
30911772,20141124,83
31007329,20141125,-50
31103017,20141126,-50
31197927,20141127,-44
31292424,20141128,-117
31387210,20141129,-44
31481621,20141130,33
31577115,20141201,-106
31673822,20141202,-100
31770206,20141203,-61
31866424,20141204,-67
31961718,20141205,-11
32056118,20141206,-11
32149608,20141207,-6
32244537,20141208,11
32341759,20141209,11
32438106,20141210,0
32534760,20141211,-33
32631837,20141212,0
32727916,20141213,39
32823236,20141214,89
32919882,20141215,94
33017371,20141216,67
33113213,20141217,-50
33208811,20141218,-78
33305211,20141219,-56
33399978,20141220,-17
33493672,20141221,0
33587853,20141222,33
33682727,20141223,28
33776324,20141224,22
33867910,20141225,22
33959598,20141226,17
34053499,20141227,6
34146526,20141228,-39
34239657,20141229,-44
34334822,20141230,-133
34430214,20141231,-156
35899,20150101,-83
131362,20150102,-11
226846,20150103,-28
321772,20150104,6
418172,20150105,-189
515900,20150106,-178
614896,20150107,-128
713871,20150108,-150
812463,20150109,-106
909525,20150110,-156
1004831,20150111,-100
1100606,20150112,-117
1197331,20150113,-161
1293844,20150114,-83
1390746,20150115,-44
1487100,20150116,11
1582755,20150117,-22
1677116,20150118,22
1771790,20150119,28
1868121,20150120,11
1965679,20150121,-17
2063419,20150122,-22
2160415,20150123,-17
2255711,20150124,33
2350402,20150125,56
2446155,20150126,-28
2543771,20150127,50
2641477,20150128,-6
2738591,20150129,6
2835373,20150130,-11
2931340,20150131,-33
3026556,20150201,-33
3122941,20150202,-94
3220082,20150203,-89
3317001,20150204,-89
3414263,20150205,-106
3510485,20150206,-78
3605803,20150207,-11
3700334,20150208,11
3796053,20150209,-28
3892612,20150210,0
3988787,20150211,-22
4085582,20150212,-83
4182144,20150213,-100
4277565,20150214,-22
4372562,20150215,-161
4468939,20150216,-128
4567169,20150217,-78
4665127,20150218,-133
4762348,20150219,-178
4859398,20150220,-133
4955625,20150221,-50
5051205,20150222,-78
5147794,20150223,-183
5244788,20150224,-22
5341236,20150225,-11
5438120,20150226,-100
5535789,20150227,-128
5631857,20150228,-89
5727031,20150301,-67
5823594,20150302,-28
5920904,20150303,-33
6017287,20150304,-33
6113794,20150305,-128
6210407,20150306,-94
6305975,20150307,17
6400661,20150308,56
6495758,20150309,72
6591791,20150310,128
6687120,20150311,172
6782303,20150312,133
6877358,20150313,150
6971502,20150314,144
7064271,20150315,150
7158897,20150316,150
7255686,20150317,156
7351424,20150318,61
7446498,20150319,61
7540992,20150320,94
7634696,20150321,117
7727920,20150322,28
7822025,20150323,6
7918155,20150324,-6
8014284,20150325,22
8109884,20150326,17
8204522,20150327,6
8298238,20150328,17
8391529,20150329,44
8486010,20150330,106
8581766,20150331,128
8678786,20150401,172
8777598,20150402,267
8876298,20150403,172
8973492,20150404,50
9069549,20150405,106
9167001,20150406,106
9265592,20150407,44
9360400,20150408,50
9449604,20150409,78
9538661,20150410,33
9626231,20150411,122
9712505,20150412,183
9800348,20150413,233
9888922,20150414,156
9976404,20150415,211
10064640,20150416,200
10153487,20150417,217
10241670,20150418,228
10328605,20150419,217
10415903,20150420,139
10504232,20150421,50
10591939,20150422,39
10679919,20150423,83
10767994,20150424,117
10855219,20150425,94
10940795,20150426,156
11027490,20150427,161
11115925,20150428,200
11207240,20150429,178
11304340,20150430,189
11401352,20150501,189
11498031,20150502,172
11594060,20150503,261
11691062,20150504,272
11788959,20150505,206
11886384,20150506,211
11983938,20150507,233
12081279,20150508,228
12177436,20150509,139
12272740,20150510,183
12369791,20150511,144
12466841,20150512,117
12562870,20150513,122
12659234,20150514,178
12755591,20150515,117
12850449,20150516,172
12943866,20150517,233
13038779,20150518,222
13135167,20150519,72
13231764,20150520,128
13327912,20150521,150
13423290,20150522,217
13518406,20150523,222
13612963,20150524,211
13707785,20150525,167
13803184,20150526,211
13898858,20150527,144
13994700,20150528,278
14090897,20150529,283
14186348,20150530,211
14280519,20150531,161
14372740,20150601,161
14462646,20150602,200
14554972,20150603,239
14651670,20150604,194
14748750,20150605,233
14845254,20150606,239
14940615,20150607,256
15036666,20150608,278
15133473,20150609,261
15229644,20150610,328
15326336,20150611,250
15423286,20150612,167
15519069,20150613,250
15613359,20150614,200
15708873,20150615,289
15805338,20150616,239
15901015,20150617,211
15997035,20150618,250
16093090,20150619,239
16187982,20150620,250
16282223,20150621,261
16377523,20150622,283
16474561,20150623,261
16571104,20150624,256
16667608,20150625,267
16763724,20150626,261
16858451,20150627,267
16951654,20150628,272
17045991,20150629,261
17141517,20150630,267
17237193,20150701,233
17332876,20150702,228
17428422,20150703,244
17523024,20150704,250
17617281,20150705,283
17712815,20150706,300
17809981,20150707,217
17906323,20150708,206
18002032,20150709,222
18097786,20150710,267
18193561,20150711,289
18288705,20150712,272
18384609,20150713,311
18481706,20150714,283
18577743,20150715,272
18673911,20150716,267
18770341,20150717,211
18866071,20150718,306
18960853,20150719,283
19056061,20150720,267
19152699,20150721,250
19248445,20150722,256
19344075,20150723,272
19439677,20150724,283
19534836,20150725,289
19629309,20150726,300
19724551,20150727,300
19821083,20150728,294
19917293,20150729,278
20013313,20150730,261
20108710,20150731,272
20203828,20150801,261
20299310,20150802,294
20395343,20150803,272
20492577,20150804,244
20589858,20150805,256
20686866,20150806,261
20783365,20150807,217
20878928,20150808,267
20974161,20150809,256
21069958,20150810,261
21166836,20150811,261
21262891,20150812,261
21359251,20150813,289
21455961,20150814,272
21552103,20150815,328
21646895,20150816,317
21743031,20150817,272
21840584,20150818,211
21937252,20150819,178
22033291,20150820,172
22129066,20150821,217
22224605,20150822,261
22319523,20150823,261
22415191,20150824,194
22512160,20150825,178
22609233,20150826,217
22706271,20150827,233
22803047,20150828,239
22899061,20150829,239
22993743,20150830,228
23088881,20150831,267
23186085,20150901,289
23283784,20150902,289
23381140,20150903,239
23478297,20150904,283
23574133,20150905,306
23668134,20150906,306
23762836,20150907,278
23859170,20150908,261
23956221,20150909,244
24052591,20150910,200
24148394,20150911,200
24243236,20150912,167
24336893,20150913,194
24431661,20150914,228
24528519,20150915,272
24625380,20150916,294
24722172,20150917,272
24818582,20150918,222
24914018,20150919,150
25008854,20150920,200
25104631,20150921,211
25202076,20150922,256
25299315,20150923,222
25396781,20150924,233
25493876,20150925,189
25589645,20150926,239
25684090,20150927,244
25778992,20150928,267
25874930,20150929,228
25969817,20150930,156
26064830,20151001,161
26160689,20151002,161
26256084,20151003,156
26350171,20151004,144
26445164,20151005,139
26542169,20151006,161
26639534,20151007,211
26737394,20151008,167
26835115,20151009,172
26931465,20151010,122
27026503,20151011,222
27123170,20151012,283
27221196,20151013,144
27318766,20151014,144
27416696,20151015,194
27514536,20151016,150
27611019,20151017,78
27706979,20151018,122
27804030,20151019,167
27902010,20151020,222
27999359,20151021,194
28096545,20151022,167
28193813,20151023,167
28290196,20151024,111
28384941,20151025,122
28480159,20151026,128
28576582,20151027,139
28672225,20151028,117
28767343,20151029,72
28862500,20151030,78
28957743,20151031,106
29052338,20151101,100
29147997,20151102,122
29245705,20151103,206
29343539,20151104,206
29441613,20151105,161
29538787,20151106,172
29634458,20151107,78
29729032,20151108,89
29824955,20151109,144
29922199,20151110,161
30019369,20151111,150
30116989,20151112,111
30214298,20151113,50
30310959,20151114,56
30406903,20151115,128
30503834,20151116,161
30602547,20151117,111
30700973,20151118,139
30798396,20151119,133
30895486,20151120,0
30992780,20151121,-22
31089691,20151122,-39
31186746,20151123,0
31285225,20151124,56
31383522,20151125,61
31480426,20151126,94
31575971,20151127,6
31671757,20151128,-39
31766835,20151129,-11
31863200,20151130,0
31961691,20151201,6
32059887,20151202,0
32158108,20151203,17
32256254,20151204,11
32354266,20151205,72
32451729,20151206,56
32550145,20151207,28
32649347,20151208,67
32748046,20151209,39
32846719,20151210,72
32945200,20151211,67
33043022,20151212,22
33140243,20151213,33
33238506,20151214,33
33337187,20151215,11
33436063,20151216,17
33535158,20151217,39
33633194,20151218,-28
33730706,20151219,-67
33827917,20151220,-22
33925467,20151221,33
34023389,20151222,-6
34120283,20151223,17
34216302,20151224,11
34311058,20151225,-33
34405442,20151226,-22
34501044,20151227,-11
34596950,20151228,-72
34694566,20151229,-72
34792285,20151230,-39
34889656,20151231,-50
36656,20160101,-72
133607,20160102,-44
230987,20160103,-33
329797,20160104,-28
430131,20160105,-33
530050,20160106,-11
629441,20160107,-11
728620,20160108,-6
826796,20160109,0
924003,20160110,-144
1022349,20160111,-194
1122742,20160112,-150
1223207,20160113,-156
1323307,20160114,-50
1422791,20160115,-33
1520708,20160116,-44
1617287,20160117,-178
1715017,20160118,-200
1814530,20160119,-172
1914782,20160120,-100
2015543,20160121,-61
2115747,20160122,-61
2214967,20160123,-56
2313481,20160124,-39
2412810,20160125,-22
2513429,20160126,-22
2612417,20160127,-33
2710594,20160128,39
2808681,20160129,17
2906218,20160130,6
3003579,20160131,50
3102373,20160201,33
3202142,20160202,11
3301066,20160203,-22
3399648,20160204,-67
3497726,20160205,-39
3595541,20160206,-28
3692084,20160207,22
3789648,20160208,33
3889655,20160209,-100
3989752,20160210,-100
4089309,20160211,-117
4188300,20160212,-94
4286659,20160213,-133
4383606,20160214,-128
4481082,20160215,-78
4579610,20160216,-11
4677835,20160217,-6
4775289,20160218,-33
4872609,20160219,33
4969082,20160220,67
5062831,20160221,39
5158007,20160222,6
5255871,20160223,6
5353131,20160224,28
5450497,20160225,17
5548343,20160226,-6
5645233,20160227,44
5778079,20160228,139
5778080,20160229,28
5935763,20160301,-6
6034405,20160302,-44
6132652,20160303,-6
6231627,20160304,-6
6329856,20160305,17
6427020,20160306,28
6525008,20160307,144
6624138,20160308,167
6722347,20160309,200
6820448,20160310,44
6918120,20160311,78
7014818,20160312,172
7110533,20160313,200
7206776,20160314,111
7304709,20160315,128
7403098,20160316,111
7501728,20160317,67
7600615,20160318,44
7698826,20160319,11
7795486,20160320,39
7892828,20160321,50
7991947,20160322,100
8089968,20160323,106
8187575,20160324,6
8285925,20160325,67
8382659,20160326,83
8478792,20160327,94
8574924,20160328,44
8672505,20160329,139
8771052,20160330,167
8869596,20160331,67
8967511,20160401,100
9064430,20160402,39
9161079,20160403,11
9259233,20160404,167
9358867,20160405,39
9556761,20160407,44
9654275,20160408,50
9751687,20160409,11
9848689,20160410,50
9946013,20160411,139
10043916,20160412,56
10141075,20160413,78
10238427,20160414,200
10336123,20160415,233
10433700,20160416,239
10530985,20160417,256
10629401,20160418,256
10728783,20160419,250
10827365,20160420,139
10925381,20160421,183
11022410,20160422,161
11117889,20160423,139
11212633,20160424,206
11309224,20160425,133
11407454,20160426,111
11505537,20160427,83
11603022,20160428,111
11700113,20160429,50
11796284,20160430,144
11891459,20160501,133
11987313,20160502,161
12084022,20160503,189
12180228,20160504,217
12276258,20160505,183
12372203,20160506,250
12467730,20160507,328
12562222,20160508,200
12657738,20160509,222
12754651,20160510,189
12851044,20160511,128
12947644,20160512,122
13044093,20160513,128
13139182,20160514,83
13232776,20160515,94
13327684,20160516,178
13423923,20160517,172
13519095,20160518,172
13614120,20160519,200
13709460,20160520,222
13803663,20160521,233
13896868,20160522,256
13991365,20160523,283
14087716,20160524,272
14183957,20160525,283
14280391,20160526,228
14376194,20160527,256
14470439,20160528,189
14563740,20160529,189
14656964,20160530,239
14751648,20160531,283
14847697,20160601,222
14943989,20160602,178
15039998,20160603,222
15135213,20160604,194
15229234,20160605,217
15323736,20160606,261
15419707,20160607,200
15516071,20160608,206
15612658,20160609,250
15709258,20160610,272
15805132,20160611,311
15900255,20160612,317
15996016,20160613,250
16092844,20160614,244
16189147,20160615,233
16284957,20160616,228
16380713,20160617,256
16476028,20160618,289
16570606,20160619,306
16666389,20160620,328
16763488,20160621,250
16859755,20160622,272
16955924,20160623,278
17051565,20160624,239
17146531,20160625,267
17240794,20160626,344
17336255,20160627,300
17432720,20160628,228
17528614,20160629,233
17624263,20160630,261
17719974,20160701,244
17814912,20160702,228
17908766,20160703,250
18003106,20160704,250
18098354,20160705,256
18194438,20160706,311
18290710,20160707,289
18386709,20160708,272
18481365,20160709,250
18575383,20160710,267
18670701,20160711,267
18767661,20160712,306
18864131,20160713,283
18959850,20160714,278
19055545,20160715,206
19150570,20160716,250
19244794,20160717,261
19339878,20160718,267
19436184,20160719,294
19531888,20160720,300
19627964,20160721,322
19724104,20160722,333
19819418,20160723,344
19913906,20160724,261
20009257,20160725,278
20105883,20160726,289
20201930,20160727,311
20298072,20160728,261
20393988,20160729,239
20488601,20160730,244
20582228,20160731,267
20677124,20160801,278
20773507,20160802,278
20869832,20160803,300
20966285,20160804,311
21062488,20160805,272
21157628,20160806,244
21251719,20160807,261
21347202,20160808,267
21444123,20160809,267
21540352,20160810,289
21636429,20160811,311
21732478,20160812,272
21827648,20160813,256
21921587,20160814,261
22016691,20160815,261
22113100,20160816,267
22209197,20160817,283
22304996,20160818,283
22401005,20160819,278
22495830,20160820,239
22589467,20160821,189
22684072,20160822,217
22780805,20160823,272
22877813,20160824,272
22974585,20160825,261
23070882,20160826,217
23166459,20160827,217
23260833,20160828,189
23356475,20160829,278
23453566,20160830,289
23550052,20160831,250
23646333,20160901,244
23742184,20160902,233
23836957,20160903,233
23931299,20160904,233
24026483,20160905,256
24122907,20160906,261
24219884,20160907,256
24316338,20160908,239
24412446,20160909,239
24507990,20160910,222
24602434,20160911,211
24697920,20160912,256
24795154,20160913,261
24891538,20160914,172
24987880,20160915,200
25084184,20160916,228
25180083,20160917,233
25274191,20160918,211
25369271,20160919,272
25465790,20160920,244
25562231,20160921,256
25658739,20160922,200
25754797,20160923,200
25849671,20160924,211
25943766,20160925,194
26038964,20160926,178
26134784,20160927,172
26229841,20160928,133
26325123,20160929,183
26419952,20160930,150
26514262,20161001,206
26607954,20161002,217
26702936,20161003,222
26799941,20161004,233
26897108,20161005,233
26994264,20161006,172
27090825,20161007,189
27186241,20161008,78
27280080,20161009,100
27374924,20161010,144
27471876,20161011,228
27569289,20161012,211
27666110,20161013,89
27762555,20161014,117
27858269,20161015,178
27952975,20161016,194
28048984,20161017,194
28146471,20161018,200
28243862,20161019,178
28341115,20161020,106
28437765,20161021,94
28533109,20161022,111
28627446,20161023,178
28723540,20161024,117
28821014,20161025,122
28918090,20161026,100
29015211,20161027,67
29111996,20161028,78
29207804,20161029,211
29302573,20161030,122
29398662,20161031,67
29496344,20161101,139
29594523,20161102,156
29692099,20161103,156
29789096,20161104,172
29885304,20161105,194
29981219,20161106,217
30077980,20161107,206
30175941,20161108,172
30272879,20161109,139
30369529,20161110,144
30466555,20161111,189
30563217,20161112,83
30659009,20161113,111
30755782,20161114,156
30853790,20161115,89
30951427,20161116,122
31049306,20161117,150
31148039,20161118,128
31245963,20161119,72
31341612,20161120,-22
31438446,20161121,-17
31536328,20161122,22
31632819,20161123,6
31727746,20161124,6
31821764,20161125,17
31916363,20161126,11
32011286,20161127,61
32107635,20161128,94
32204606,20161129,111
32301242,20161130,22
32397851,20161201,28
32494861,20161202,22
32591823,20161203,-6
32687657,20161204,-6
32784352,20161205,22
32882501,20161206,33
32979881,20161207,-44
33078305,20161208,-72
33177354,20161209,-61
33275580,20161210,-83
33372560,20161211,-100
33470822,20161212,-78
33569424,20161213,-139
33667223,20161214,-111
33765483,20161215,-106
33863963,20161216,-111
33961952,20161217,-94
34059316,20161218,-156
34156958,20161219,-133
34254697,20161220,-6
34352189,20161221,17
34449252,20161222,39
34545965,20161223,22
34640976,20161224,22
34734289,20161225,6
34827856,20161226,56
34922583,20161227,-33
35017850,20161228,-50
35113632,20161229,11
35209459,20161230,-11
35304921,20161231,-11
35728,20170101,-33
130354,20170102,-6
226821,20170103,-11
324210,20170104,-39
422172,20170105,-167
522590,20170106,-178
622655,20170107,-150
720993,20170108,-139
820000,20170109,-83
919711,20170110,-39
1018131,20170111,-39
1115624,20170112,-133
1212691,20170113,-111
1308859,20170114,-133
1404210,20170115,-56
1500586,20170116,0
1598468,20170117,-11
1695940,20170118,11
1792658,20170119,44
1889516,20170120,28
1985430,20170121,17
2080070,20170122,22
2175785,20170123,33
2273338,20170124,6
2371123,20170125,-6
2468517,20170126,-22
2565478,20170127,-28
2662399,20170128,-17
2758104,20170129,-39
2854909,20170130,-33
2953846,20170131,39
3052786,20170201,22
3152283,20170202,-89
3250773,20170203,-89
3348149,20170204,0
3444019,20170205,6
3540946,20170206,-44
3639860,20170207,-11
3737678,20170208,-44
3835826,20170209,-111
3934291,20170210,-72
4031905,20170211,67
4128108,20170212,61
4225105,20170213,28
4323662,20170214,72
4421092,20170215,44
4518197,20170216,11
4615203,20170217,39
4711230,20170218,161
4806105,20170219,139
4901565,20170220,133
4998482,20170221,117
5095130,20170222,161
5191710,20170223,133
5289321,20170224,17
5386350,20170225,-39
5481574,20170226,-11
5575258,20170227,17
5667376,20170228,61
5758790,20170301,61
5850335,20170302,11
5941612,20170303,-28
6035353,20170304,-17
6131742,20170305,44
6228795,20170306,133
6326739,20170307,161
6423956,20170308,72
6521054,20170309,-6
6618828,20170310,-28
6715640,20170311,-89
6811565,20170312,-67
6908651,20170313,-22
7007226,20170314,-17
7105129,20170315,0
7203268,20170316,-11
7300706,20170317,44
7397296,20170318,56
7492617,20170319,44
7589132,20170320,111
7687243,20170321,117
7784532,20170322,6
7881907,20170323,33
7979185,20170324,33
8075370,20170325,56
8169828,20170326,44
8264861,20170327,50
8361472,20170328,133
8457924,20170329,161
8554636,20170330,89
8650756,20170331,78
8746189,20170401,122
8841855,20170402,172
8938470,20170403,117
9035860,20170404,94
9133067,20170405,150
9230001,20170406,111
9326549,20170407,111
9423016,20170408,144
9518782,20170409,206
9615803,20170410,211
9714162,20170411,61
9811319,20170412,100
9908278,20170413,122
10004801,20170414,111
10100561,20170415,167
10195524,20170416,211
10290912,20170417,167
10387220,20170418,133
10483444,20170419,167
10579848,20170420,100
10675855,20170421,89
10771181,20170422,156
10865363,20170423,194
10960601,20170424,189
11057417,20170425,211
11153778,20170426,150
11250006,20170427,33
11345820,20170428,17
11441307,20170429,89
11536535,20170430,117
11632238,20170501,72
11728507,20170502,39
11824002,20170503,156
11920206,20170504,178
12015881,20170505,194
12110124,20170506,250
12203527,20170507,189
12298595,20170508,183
12395550,20170509,206
12492085,20170510,211
12588198,20170511,189
12683553,20170512,189
12777988,20170513,239
12871372,20170514,267
12966262,20170515,283
13063095,20170516,206
13159521,20170517,272
13256110,20170518,206
13352481,20170519,117
13447671,20170520,117
13541320,20170521,100
13635214,20170522,100
13730219,20170523,178
13824622,20170524,156
13918831,20170525,161
14013033,20170526,211
14107013,20170527,267
14200282,20170528,222
14293611,20170529,228
14387900,20170530,178
14482446,20170531,150
14576885,20170601,228
14671904,20170602,261
14766207,20170603,311
14859868,20170604,317
14954044,20170605,306
15048895,20170606,289
15143685,20170607,267
15238813,20170608,300
15334170,20170609,272
15429076,20170610,283
15523345,20170611,339
15618765,20170612,228
15715428,20170613,267
15811701,20170614,311
15907052,20170615,283
16002050,20170616,289
16095811,20170617,283
16188511,20170618,278
16282380,20170619,217
16377332,20170620,217
16471551,20170621,228
16566194,20170622,267
16660875,20170623,211
16754502,20170624,211
16846971,20170625,178
16940836,20170626,189
17036446,20170627,206
17131666,20170628,239
17227307,20170629,261
17322041,20170630,233
17415630,20170701,250
17508575,20170702,233
17602548,20170703,256
17697764,20170704,272
17792573,20170705,294
17888061,20170706,322
17983055,20170707,328
18077379,20170708,267
18170757,20170709,267
18265214,20170710,278
18361302,20170711,283
18456864,20170712,289
18552183,20170713,289
18647192,20170714,200
18741501,20170715,239
18834983,20170716,328
18929597,20170717,278
19025536,20170718,322
19121012,20170719,256
19216539,20170720,267
19311785,20170721,300
19406247,20170722,278
19499678,20170723,306
19593534,20170724,239
19688416,20170725,250
19783520,20170726,278
19878907,20170727,272
19973879,20170728,272
20067752,20170729,278
20160935,20170730,283
20255491,20170731,289
20351955,20170801,294
20448191,20170802,294
20543968,20170803,256
20639031,20170804,156
20733023,20170805,233
20826004,20170806,239
20919990,20170807,222
21014734,20170808,250
21109187,20170809,261
21204474,20170810,194
21299367,20170811,211
21393178,20170812,244
21485897,20170813,250
21579915,20170814,200
21674971,20170815,228
21769216,20170816,244
21864242,20170817,244
21958913,20170818,211
22052545,20170819,222
22145819,20170820,256
22239995,20170821,283
22335371,20170822,256
22430653,20170823,222
22525585,20170824,222
22620434,20170825,217
22714774,20170826,200
22808281,20170827,183
22902513,20170828,217
22997673,20170829,217
23092331,20170830,256
23187125,20170831,267
23281870,20170901,206
23375573,20170902,211
23468386,20170903,256
23561862,20170904,283
23657043,20170905,228
23752359,20170906,167
23846543,20170907,183
23940657,20170908,183
24034651,20170909,189
24127775,20170910,222
24222019,20170911,256
24317071,20170912,261
24411320,20170913,283
24505602,20170914,289
24599848,20170915,306
24693763,20170916,267
24787068,20170917,233
24881295,20170918,178
24976483,20170919,144
25071014,20170920,250
25165629,20170921,228
25260587,20170922,267
25354968,20170923,328
25448266,20170924,300
25542817,20170925,306
25638799,20170926,156
25734012,20170927,167
25828672,20170928,178
25922854,20170929,167
26016205,20170930,167
26108506,20171001,194
26203247,20171002,161
26299828,20171003,206
26395861,20171004,206
26491463,20171005,139
26586790,20171006,172
26681323,20171007,144
26774286,20171008,183
26867628,20171009,200
26963148,20171010,122
27058412,20171011,100
27153532,20171012,117
27248579,20171013,167
27343219,20171014,144
27437013,20171015,133
27531353,20171016,106
27626709,20171017,178
27722707,20171018,217
27819195,20171019,211
27915523,20171020,217
28010565,20171021,244
28104251,20171022,189
28198429,20171023,161
28293501,20171024,144
28388349,20171025,94
28484022,20171026,128
28580288,20171027,128
28675846,20171028,0
28769515,20171029,-6
28863604,20171030,50
28959366,20171031,22
29055578,20171101,6
29152230,20171102,17
29248634,20171103,28
29344171,20171104,6
29438722,20171105,50
29533813,20171106,11
29630385,20171107,-6
29726956,20171108,6
29822774,20171109,39
29918225,20171110,-67
30013509,20171111,-17
30108588,20171112,56
30203647,20171113,6
30300120,20171114,61
30396584,20171115,67
30492738,20171116,44
30588715,20171117,17
30684836,20171118,22
30779339,20171119,17
30874534,20171120,39
30972005,20171121,72
31068363,20171122,-28
31162647,20171123,-6
31256535,20171124,78
31351170,20171125,144
31445789,20171126,28
31541707,20171127,89
31639116,20171128,144
31736181,20171129,100
31832902,20171130,67
31929037,20171201,78
32024542,20171202,89
32120160,20171203,72
32216898,20171204,106
32314720,20171205,128
32411025,20171206,-72
32507392,20171207,-83
32604686,20171208,-56
32701955,20171209,-11
32798889,20171210,-56
32896899,20171211,-28
32995596,20171212,6
33093463,20171213,-28
33191806,20171214,-33
33290526,20171215,-61
33387865,20171216,-22
33483999,20171217,-28
33579886,20171218,-33
33676812,20171219,50
33773508,20171220,0
33870233,20171221,-78
33967382,20171222,-61
34063686,20171223,-44
34158159,20171224,-67
34252401,20171225,-67
34347353,20171226,-178
34443221,20171227,-189
34538838,20171228,-156
34635063,20171229,-122
34731247,20171230,-178
34827097,20171231,-222
36333,20180101,-222
133081,20180102,-178
230455,20180103,-111
328474,20180104,-156
426764,20180105,-156
523831,20180106,-172
619893,20180107,-106
716316,20180108,-11
813433,20180109,17
909926,20180110,50
1006539,20180111,22
1102840,20180112,-83
1198609,20180113,-167
1294392,20180114,-161
1391517,20180115,-100
1490430,20180116,-156
1589334,20180117,-144
1688087,20180118,-39
1786105,20180119,44
1882726,20180120,50
1978721,20180121,44
2075789,20180122,22
2173059,20180123,-11
2269093,20180124,-33
2365770,20180125,-44
2463083,20180126,11
2559160,20180127,72
2653513,20180128,-11
2748538,20180129,-78
2845908,20180130,-106
2943370,20180131,-11
3040840,20180201,-28
3138584,20180202,-156
3234846,20180203,-111
3330487,20180204,-94
3427525,20180205,-172
3526201,20180206,-117
3624526,20180207,-133
3722060,20180208,-106
3819657,20180209,-111
3917132,20180210,-133
4013028,20180211,-106
4109498,20180212,-72
4206537,20180213,-122
4302821,20180214,-17
4399070,20180215,44
4495078,20180216,17
4590483,20180217,-50
4685117,20180218,11
4781095,20180219,61
4878532,20180220,-67
4975392,20180221,-78
5071383,20180222,-78
5168135,20180223,-22
5264817,20180224,-11
5359631,20180225,-28
5455011,20180226,-22
5551896,20180227,61
5648105,20180228,61
5743694,20180301,72
5839342,20180302,39
5935198,20180303,33
6030621,20180304,61
6124908,20180305,39
6217332,20180306,11
6309300,20180307,0
6401239,20180308,-33
6493130,20180309,-28
6584003,20180310,17
6673644,20180311,0
6763669,20180312,11
6855337,20180313,33
6947376,20180314,11
7039405,20180315,61
7130957,20180316,11
7221625,20180317,22
7311087,20180318,89
7401489,20180319,39
7493393,20180320,50
7584752,20180321,-22
7676626,20180322,28
7768296,20180323,44
7858873,20180324,33
7948433,20180325,28
8038856,20180326,44
8130800,20180327,11
8221594,20180328,78
8311874,20180329,94
8401892,20180330,28
8490845,20180331,28
8580073,20180401,-50
8671126,20180402,-28
8763598,20180403,0
8855357,20180404,-22
8946478,20180405,-22
9037924,20180406,33
9129180,20180407,-72
9218897,20180408,-22
9309075,20180409,-11
9400924,20180410,11
9491490,20180411,39
9582422,20180412,72
9674161,20180413,72
9765164,20180414,33
9854658,20180415,-22
9945070,20180416,-33
10036888,20180417,17
10128771,20180418,50
10220292,20180419,44
10311875,20180420,100
10402873,20180421,111
10492644,20180422,150
10582594,20180423,167
10673707,20180424,194
10764457,20180425,156
10855033,20180426,144
10945146,20180427,167
11034530,20180428,150
11123009,20180429,128
11212775,20180430,194
11303626,20180501,272
11394113,20180502,200
11484683,20180503,189
11574777,20180504,228
11663508,20180505,244
11751204,20180506,267
11839687,20180507,233
11929834,20180508,294
12020244,20180509,206
12110192,20180510,172
12199842,20180511,144
12288931,20180512,100
12377139,20180513,156
12466285,20180514,211
12559193,20180515,228
12654386,20180516,239
12749210,20180517,300
12844007,20180518,283
12937789,20180519,283
13030283,20180520,161
13123823,20180521,217
13218832,20180522,206
13313828,20180523,233
13408863,20180524,278
13504328,20180525,322
13598694,20180526,311
13691403,20180527,333
13784356,20180528,322
13878314,20180529,378
13972930,20180530,339
14067627,20180531,233
14161788,20180601,294
14255948,20180602,272
14349555,20180603,211
14443454,20180604,206
14538287,20180605,300
14633633,20180606,267
14729044,20180607,256
14824615,20180608,256
14919366,20180609,233
15012817,20180610,222
15106494,20180611,250
15201338,20180612,228
15295995,20180613,272
15390570,20180614,267
15484938,20180615,272
15578848,20180616,344
15671721,20180617,306
15765996,20180618,322
15861732,20180619,261
15956873,20180620,222
16051608,20180621,267
16145640,20180622,261
16238932,20180623,283
16331466,20180624,289
16425388,20180625,278
16520519,20180626,289
16615262,20180627,222
16709987,20180628,278
16804484,20180629,311
16898830,20180630,372
16992601,20180701,317
17087250,20180702,250
17183218,20180703,322
17278721,20180704,317
17374018,20180705,294
17469396,20180706,289
17563247,20180707,294
17655630,20180708,311
17749197,20180709,333
17845180,20180710,328
17940741,20180711,311
18036140,20180712,328
18131607,20180713,350
18226306,20180714,289
18319991,20180715,317
18414173,20180716,317
18509017,20180717,300
18603537,20180718,278
18698269,20180719,289
18793045,20180720,239
18886620,20180721,278
18978838,20180722,283
19071433,20180723,283
19165481,20180724,294
19259300,20180725,294
19353352,20180726,283
19447385,20180727,222
19540506,20180728,261
19632798,20180729,278
19726277,20180730,289
19820712,20180731,294
19914112,20180801,306
20007554,20180802,267
20100803,20180803,233
20193535,20180804,289
20285414,20180805,261
20378902,20180806,306
20473973,20180807,289
20568356,20180808,278
20662097,20180809,317
20755871,20180810,311
20848938,20180811,306
20940931,20180812,317
21033901,20180813,317
21128366,20180814,328
21222668,20180815,328
21316010,20180816,294
21409305,20180817,300
21502341,20180818,289
21594423,20180819,300
21687283,20180820,300
21781197,20180821,267
21874104,20180822,239
21967229,20180823,283
22061453,20180824,278
22155200,20180825,217
22247861,20180826,272
22341374,20180827,306
22436679,20180828,294
22531587,20180829,200
22625886,20180830,239
22719603,20180831,256
22812575,20180901,300
22904316,20180902,317
22996545,20180903,283
23090797,20180904,261
23185427,20180905,256
23279694,20180906,239
23373357,20180907,244
23465892,20180908,256
23557265,20180909,244
23649670,20180910,244
23743367,20180911,272
23836677,20180912,294
23929915,20180913,300
24023280,20180914,306
24115749,20180915,311
24207126,20180916,339
24296844,20180917,328
24384805,20180918,261
24476692,20180919,189
24570583,20180920,194
24664510,20180921,211
24757378,20180922,167
24848830,20180923,211
24938953,20180924,256
25028183,20180925,256
25121081,20180926,144
25214001,20180927,172
25306613,20180928,161
25398999,20180929,128
25490599,20180930,78
25583399,20181001,117
25677939,20181002,94
25771961,20181003,144
25866041,20181004,256
25959904,20181005,89
26052733,20181006,106
26144451,20181007,83
26236720,20181008,111
26330546,20181009,122
26424494,20181010,100
26518127,20181011,117
26611205,20181012,44
26703885,20181013,83
26795642,20181014,133
26889118,20181015,44
26984155,20181016,61
27078088,20181017,117
27172387,20181018,83
27266728,20181019,206
27359298,20181020,172
27450867,20181021,50
27544227,20181022,133
27638539,20181023,144
27731484,20181024,78
27825071,20181025,106
27918420,20181026,111
28010207,20181027,83
28101470,20181028,106
28194125,20181029,117
28288176,20181030,72
28382145,20181031,106
28475826,20181101,106
28568779,20181102,94
28660609,20181103,67
28751673,20181104,67
28844118,20181105,22
28937243,20181106,56
29030391,20181107,44
29124437,20181108,-11
29218935,20181109,-39
29313043,20181110,-61
29406216,20181111,-39
29500846,20181112,-28
29596279,20181113,-72
29691184,20181114,-67
29785737,20181115,50
29880987,20181116,56
29973023,20181117,-11
30058847,20181118,-33
30145064,20181119,-33
30231504,20181120,-39
30317306,20181121,-6
30402247,20181122,-33
30489433,20181123,39
30581871,20181124,67
30674106,20181125,22
30768526,20181126,-33
30864504,20181127,-56
30959992,20181128,-50
31055584,20181129,-39
31150517,20181130,-17
31243996,20181201,-17
31336877,20181202,0
31431260,20181203,-11
31527303,20181204,-39
31623123,20181205,-39
31719052,20181206,-28
31814468,20181207,-83
31908576,20181208,-50
32002013,20181209,-44
32096700,20181210,-22
32192981,20181211,-50
32288869,20181212,-39
32384392,20181213,-28
32479032,20181214,-11
32572103,20181215,39
32664302,20181216,56
32757974,20181217,61
32854038,20181218,22
32949342,20181219,56
33043776,20181220,44
33136964,20181221,17
33229193,20181222,-44
33320964,20181223,-11
33412643,20181224,-39
33503931,20181225,-39
33595284,20181226,-33
33688590,20181227,17
33781706,20181228,17
33874117,20181229,-56
33965796,20181230,-72
34057590,20181231,-11
35286,20190101,-17
129034,20190102,-128
223250,20190103,-39
316819,20190104,50
409639,20190105,83
502160,20190106,67
596160,20190107,44
691058,20190108,50
785415,20190109,-11
880134,20190110,-100
974879,20190111,-44
1069393,20190112,6
1163939,20190113,-11
1258927,20190114,17
1354597,20190115,-6
1449730,20190116,0
1544590,20190117,-50
1639028,20190118,-50
1733227,20190119,-133
1826679,20190120,-122
1920201,20190121,-117
2014928,20190122,-83
2110178,20190123,-67
2204404,20190124,-44
2298014,20190125,-128
2391571,20190126,-150
2485146,20190127,-122
2579562,20190128,-156
2675240,20190129,-106
2770108,20190130,-217
2865056,20190131,-250
2959654,20190201,-161
3053617,20190202,-78
3146475,20190203,44
3240078,20190204,22
3335184,20190205,-28
3429886,20190206,-111
3524631,20190207,-67
3619133,20190208,-72
3712582,20190209,-189
3805144,20190210,-139
3898686,20190211,-89
3993192,20190212,-50
4086994,20190213,-56
4180962,20190214,-72
4274881,20190215,-61
4368151,20190216,-111
4460031,20190217,-72
4552637,20190218,-50
4646979,20190219,-78
4741886,20190220,-67
4836695,20190221,-33
4930550,20190222,-67
5023609,20190223,-28
5115569,20190224,-11
5208117,20190225,-89
5302476,20190226,-172
5396326,20190227,-144
5489972,20190228,-122
5583306,20190301,-61
5675929,20190302,-83
5768346,20190303,-89
5862038,20190304,-194
5956962,20190305,-139
6050964,20190306,-106
6144999,20190307,-72
6239084,20190308,-67
6331869,20190309,0
6423295,20190310,22
6515773,20190311,-28
6609195,20190312,-11
6701671,20190313,17
6794346,20190314,61
6887816,20190315,61
6979733,20190316,6
7070374,20190317,-6
7162814,20190318,28
7256584,20190319,39
7349727,20190320,83
7442143,20190321,89
7534531,20190322,94
7626668,20190323,156
7718251,20190324,128
7810201,20190325,100
7903402,20190326,72
7995626,20190327,100
8088028,20190328,178
8179991,20190329,106
8271740,20190330,78
8362282,20190331,22
8450681,20190401,22
8536756,20190402,67
8622539,20190403,94
8707971,20190404,94
8876269,20190406,100
8959391,20190407,111
9043429,20190408,161
9128280,20190409,194
9212815,20190410,128
9297810,20190411,0
9383193,20190412,6
9467259,20190413,0
9550064,20190414,128
9633240,20190415,194
9717846,20190416,111
9802288,20190417,194
9886609,20190418,100
9970002,20190419,111
10052135,20190420,167
10133307,20190421,244
10215541,20190422,228
10299569,20190423,72
10383118,20190424,178
10711266,20190428,100
10793963,20190429,128
10877770,20190430,128
10957746,20190501,67
11030662,20190502,67
11243843,20190505,211
11314694,20190506,161
11387089,20190507,139
11459616,20190508,167
11532088,20190509,83
11673873,20190511,150
11743002,20190512,172
11812552,20190513,161
11883055,20190514,189
11952900,20190515,222
12018286,20190516,233
12077509,20190517,261
12136530,20190518,200
12194868,20190519,78
12257279,20190520,56
12326054,20190521,156
12394932,20190522,150
12462719,20190523,167
12595456,20190525,222
12661456,20190526,183
12727825,20190527,222
12795028,20190528,122
12862687,20190529,194
12929389,20190530,228
12992726,20190531,272
