,date,data_value
8660,20100101,51
114911,20100102,16
222286,20100103,9
330514,20100104,37
440611,20100105,56
550384,20100106,15
661061,20100107,22
772013,20100108,25
882215,20100109,70
990108,20100110,63
1097704,20100111,83
1207507,20100112,69
1317380,20100113,52
1426982,20100114,33
1536340,20100115,56
1645745,20100116,83
1753502,20100117,49
1861010,20100118,-25
1970189,20100119,-13
2080967,20100120,-20
2190851,20100121,-18
2299668,20100122,-15
2408326,20100123,-6
2515632,20100124,-49
2622731,20100125,16
2731263,20100126,29
2840298,20100127,5
2949948,20100128,34
3059929,20100129,46
3169283,20100130,94
3277162,20100131,20
3385298,20100201,7
3495903,20100202,45
3605364,20100203,27
3715431,20100204,22
3825824,20100205,15
3934869,20100206,17
4043132,20100207,-1
4151711,20100208,21
4263385,20100209,-5
4374373,20100210,15
4484389,20100211,-18
4594112,20100212,11
4703525,20100213,9
4811980,20100214,5
4920774,20100215,18
5030627,20100216,33
5140333,20100217,38
5249998,20100218,15
5359443,20100219,-13
5469200,20100220,-24
5577625,20100221,-28
5686685,20100222,-32
5797085,20100223,10
5906421,20100224,27
6015838,20100225,14
6125025,20100226,19
6234375,20100227,29
6341728,20100228,18
6449231,20100301,59
6559721,20100302,64
6669256,20100303,68
6779093,20100304,39
6888602,20100305,4
6998311,20100306,74
7106870,20100307,30
7215367,20100308,-11
7325977,20100309,30
7435794,20100310,25
7545702,20100311,8
7655402,20100312,72
7764018,20100313,50
7870686,20100314,10
7978243,20100315,63
8087809,20100316,110
8196870,20100317,126
8306347,20100318,108
8415417,20100319,12
8525572,20100320,-1
8634716,20100321,98
8742444,20100322,90
8851175,20100323,51
8959829,20100324,32
9069696,20100325,62
9178356,20100326,12
9286010,20100327,14
9393457,20100328,80
9500624,20100329,111
9609276,20100330,113
9718294,20100331,31
9827613,20100401,13
9937367,20100402,-20
10046989,20100403,31
10155034,20100404,62
10262729,20100405,65
10372633,20100406,-23
10482577,20100407,45
10592910,20100408,79
10701579,20100409,91
10809518,20100410,95
10917251,20100411,100
11024925,20100412,98
11134701,20100413,16
11244275,20100414,88
11354028,20100415,116
11464014,20100416,107
11573273,20100417,96
11680302,20100418,106
11787736,20100419,104
11897212,20100420,105
12006678,20100421,92
12116043,20100422,62
12225481,20100423,34
12334505,20100424,64
12441638,20100425,90
12548512,20100426,85
12656801,20100427,115
12765232,20100428,99
12873467,20100429,17
12982926,20100430,8
13092121,20100501,43
13199565,20100502,42
13307191,20100503,80
13416164,20100504,105
13525218,20100505,114
13635038,20100506,93
13744873,20100507,78
13854851,20100508,99
13962457,20100509,118
14070603,20100510,65
14181669,20100511,64
14291178,20100512,51
14401950,20100513,37
14512154,20100514,77
14621464,20100515,76
14729269,20100516,120
14837234,20100517,145
14946356,20100518,77
15054924,20100519,83
15164107,20100520,139
15273528,20100521,149
15382293,20100522,130
15489931,20100523,139
15598061,20100524,49
15709133,20100525,119
15819515,20100526,147
15929247,20100527,169
16039002,20100528,179
16148033,20100529,135
16255297,20100530,143
16363024,20100531,164
16471635,20100601,153
16581198,20100602,141
16691010,20100603,172
16799953,20100604,198
16909068,20100605,214
17016707,20100606,237
17124045,20100607,213
17233207,20100608,207
17343271,20100609,209
17452124,20100610,175
17559892,20100611,155
17669316,20100612,95
17777871,20100613,98
17885865,20100614,111
17995563,20100615,162
18105162,20100616,174
18214227,20100617,168
18323249,20100618,181
18432252,20100619,181
18540329,20100620,179
18648585,20100621,178
18759128,20100622,184
18869284,20100623,204
18979564,20100624,219
19088962,20100625,198
19198243,20100626,198
19306069,20100627,203
19414070,20100628,198
19523337,20100629,200
19631710,20100630,192
19740203,20100701,192
19848954,20100702,189
19956868,20100703,184
20063740,20100704,176
20171862,20100705,188
20280891,20100706,204
20391210,20100707,192
20501181,20100708,155
20610740,20100709,176
20719561,20100710,189
20826960,20100711,205
20935113,20100712,210
21044808,20100713,228
21154008,20100714,218
21262914,20100715,234
21372729,20100716,245
21482311,20100717,256
21590506,20100718,249
21698717,20100719,255
21808312,20100720,233
21917410,20100721,187
22026668,20100722,168
22135443,20100723,178
22244047,20100724,212
22351271,20100725,199
22458512,20100726,201
22567566,20100727,193
22676465,20100728,200
22785453,20100729,168
22893263,20100730,201
23000936,20100731,180
23107739,20100801,171
23215461,20100802,152
23325718,20100803,149
23435958,20100804,188
23546476,20100805,162
23656208,20100806,200
23765188,20100807,160
23873042,20100808,174
23981534,20100809,175
24091758,20100810,175
24201882,20100811,167
24312506,20100812,177
24422671,20100813,185
24532155,20100814,205
24640012,20100815,214
24747554,20100816,167
24857075,20100817,197
24966766,20100818,201
25075861,20100819,172
25185692,20100820,179
25295179,20100821,190
25403308,20100822,187
25511182,20100823,187
25621577,20100824,182
25731418,20100825,201
25840726,20100826,204
25950557,20100827,189
26059894,20100828,133
26168131,20100829,154
26276291,20100830,131
26386100,20100831,153
26495563,20100901,172
26605845,20100902,197
26716122,20100903,189
26825414,20100904,194
26932690,20100905,181
27040577,20100906,164
27149476,20100907,173
27258956,20100908,120
27368003,20100909,128
27476629,20100910,121
27585767,20100911,161
27693293,20100912,163
27800188,20100913,184
27910095,20100914,179
28020063,20100915,183
28130146,20100916,184
28239412,20100917,194
28347965,20100918,198
28455672,20100919,204
28563355,20100920,162
28673143,20100921,170
28782706,20100922,97
28892254,20100923,124
29000754,20100924,163
29109020,20100925,192
29215798,20100926,192
29322297,20100927,213
29430591,20100928,213
29538951,20100929,222
29647694,20100930,203
29756354,20101001,198
29864439,20101002,182
29971449,20101003,176
30078758,20101004,119
30188027,20101005,120
30297004,20101006,112
30406061,20101007,129
30514949,20101008,90
30623512,20101009,101
30731187,20101010,111
30839128,20101011,129
30948666,20101012,139
31057674,20101013,134
31166501,20101014,151
31275392,20101015,149
31383319,20101016,136
31490687,20101017,130
31598416,20101018,83
31708371,20101019,111
31817542,20101020,140
31927003,20101021,72
32035907,20101022,29
32144329,20101023,63
32251697,20101024,68
32358987,20101025,31
32468112,20101026,10
32576507,20101027,8
32684812,20101028,108
32793038,20101029,112
32900941,20101030,102
33007999,20101031,81
33115230,20101101,72
33224838,20101102,140
33334076,20101103,141
33443191,20101104,122
33551364,20101105,122
33659077,20101106,136
33766410,20101107,83
33874445,20101108,85
33984543,20101109,-2
34094952,20101110,-3
34205321,20101111,-4
34315239,20101112,24
34424999,20101113,33
34533012,20101114,23
34640926,20101115,-17
34750898,20101116,34
34859890,20101117,53
34968613,20101118,92
35077389,20101119,74
35187082,20101120,59
35295884,20101121,-12
35405147,20101122,-52
35515902,20101123,-21
35625189,20101124,-63
35733549,20101125,-42
35839957,20101126,44
35945805,20101127,40
36051955,20101128,-42
36158964,20101129,-46
36269143,20101130,-4
36377459,20101201,39
36486147,20101202,73
36595181,20101203,59
36705073,20101204,84
36814014,20101205,72
36922858,20101206,39
37033453,20101207,26
37143609,20101208,87
37253472,20101209,74
37363241,20101210,35
37473086,20101211,1
37581501,20101212,64
37689585,20101213,99
37799543,20101214,84
37909371,20101215,17
38019182,20101216,-3
38128911,20101217,5
38238375,20101218,-12
38346315,20101219,12
38453814,20101220,7
38563656,20101221,-5
38673250,20101222,17
38781674,20101223,38
38889626,20101224,62
38996253,20101225,55
39102077,20101226,23
39209082,20101227,30
39317724,20101228,16
39425962,20101229,-55
39534656,20101230,-56
39642653,20101231,-120
8223,20110101,-92
109503,20110102,-2
210121,20110103,6
313076,20110104,-30
416672,20110105,8
520010,20110106,82
623026,20110107,82
727472,20110108,48
831004,20110109,-24
935258,20110110,-101
1044405,20110111,-21
1151409,20110112,24
1257629,20110113,67
1362647,20110114,47
1466810,20110115,74
1568984,20110116,53
1671067,20110117,29
1774933,20110118,59
1879094,20110119,-5
1982939,20110120,18
2089005,20110121,14
2193777,20110122,19
2296272,20110123,22
2398573,20110124,-28
2503276,20110125,34
2606050,20110126,20
2709607,20110127,73
2813497,20110128,112
2916656,20110129,80
3018102,20110130,27
3119934,20110131,0
3224384,20110201,-77
3330407,20110202,-148
3435147,20110203,7
3538645,20110204,44
3641959,20110205,-24
3743969,20110206,-68
3846736,20110207,-7
3951821,20110208,-35
4056497,20110209,-38
4161360,20110210,-3
4265826,20110211,38
4368526,20110212,61
4469754,20110213,102
4570848,20110214,84
4674462,20110215,95
4777024,20110216,16
4880029,20110217,11
4983143,20110218,27
5085372,20110219,15
5186170,20110220,-34
5287710,20110221,3
5391046,20110222,22
5493994,20110223,32
5596847,20110224,-13
5700588,20110225,-36
5804549,20110226,1
5906699,20110227,-4
6008933,20110228,63
6112137,20110301,85
6213420,20110302,73
6315521,20110303,56
6417709,20110304,12
6519713,20110305,43
6619290,20110306,21
6719687,20110307,11
6823697,20110308,13
6927242,20110309,41
7029633,20110310,88
7131069,20110311,100
7232245,20110312,89
7332406,20110313,57
7432961,20110314,101
7535757,20110315,84
7636639,20110316,117
7737735,20110317,64
7838409,20110318,63
7939903,20110319,66
8039579,20110320,57
8139535,20110321,44
8242690,20110322,-7
8345284,20110323,47
8448549,20110324,0
8550613,20110325,-7
8652401,20110326,49
8752765,20110327,29
8853515,20110328,60
8956172,20110329,69
9057994,20110330,64
9158649,20110331,106
9259477,20110401,121
9360937,20110402,131
9460452,20110403,60
9561167,20110404,40
9664475,20110405,112
9765313,20110406,77
9866511,20110407,42
9968382,20110408,47
10070536,20110409,24
10170693,20110410,5
10270885,20110411,90
10373000,20110412,77
10473324,20110413,76
10574317,20110414,30
10676175,20110415,62
10778058,20110416,96
10877245,20110417,111
10976308,20110418,106
11078810,20110419,62
11181160,20110420,100
11282979,20110421,86
11384187,20110422,60
11484241,20110423,59
11583022,20110424,41
11681887,20110425,62
11783117,20110426,23
11883901,20110427,28
11984166,20110428,87
12083552,20110429,86
12182335,20110430,12
12281094,20110501,0
12380467,20110502,45
12481592,20110503,98
12581799,20110504,103
12681786,20110505,128
12782013,20110506,142
12882175,20110507,141
12980211,20110508,116
13078954,20110509,53
13181177,20110510,56
13283025,20110511,17
13384925,20110512,71
13486301,20110513,154
13586555,20110514,129
13684506,20110515,124
13781959,20110516,112
13881693,20110517,59
13981603,20110518,36
14081999,20110519,34
14182567,20110520,66
14283080,20110521,91
14381775,20110522,131
14480942,20110523,100
14581957,20110524,72
14682803,20110525,124
14783823,20110526,130
14884266,20110527,133
14983887,20110528,144
15081993,20110529,132
15180480,20110530,65
15280323,20110531,140
15380974,20110601,161
15482758,20110602,148
15584188,20110603,140
15684853,20110604,167
15784775,20110605,184
15884496,20110606,172
15986871,20110607,161
16088997,20110608,156
16191424,20110609,154
16293057,20110610,168
16393504,20110611,166
16492398,20110612,160
16591294,20110613,156
16691676,20110614,158
16792662,20110615,195
16893599,20110616,178
16994226,20110617,148
17094611,20110618,161
17193521,20110619,136
17292380,20110620,100
17393946,20110621,165
17495072,20110622,203
17595348,20110623,220
17694918,20110624,204
17793820,20110625,200
17892106,20110626,195
17990973,20110627,211
18091617,20110628,219
18191382,20110629,208
18291163,20110630,173
18390654,20110701,209
18490184,20110702,232
18589081,20110703,213
18688150,20110704,228
18787637,20110705,207
18888243,20110706,209
18989239,20110707,197
19089709,20110708,203
19189188,20110709,183
19287135,20110710,198
19386092,20110711,165
19487369,20110712,157
19587600,20110713,181
19687694,20110714,194
19787238,20110715,194
19886899,20110716,195
19985006,20110717,216
20083798,20110718,196
20184736,20110719,191
20284898,20110720,213
20384818,20110721,213
20485300,20110722,213
20585372,20110723,223
20683933,20110724,219
20782440,20110725,215
20882719,20110726,164
20982808,20110727,189
21082878,20110728,209
21182915,20110729,209
21282721,20110730,201
21380444,20110731,179
21478326,20110801,158
21578780,20110802,195
21679480,20110803,200
21780003,20110804,188
21880086,20110805,201
21980113,20110806,204
22078430,20110807,204
22176593,20110808,207
22277550,20110809,204
22377686,20110810,203
22477685,20110811,203
22577849,20110812,218
22678259,20110813,219
22777126,20110814,158
22875252,20110815,208
22975718,20110816,229
23076198,20110817,228
23176551,20110818,224
23277556,20110819,203
23377717,20110820,204
23476174,20110821,203
23574566,20110822,208
23674780,20110823,221
23774910,20110824,221
23874980,20110825,204
23974583,20110826,188
24073478,20110827,204
24170968,20110828,208
24268584,20110829,202
24368447,20110830,197
24468480,20110831,180
24567670,20110901,203
24668566,20110902,201
24768740,20110903,194
24867526,20110904,172
24965504,20110905,188
25063486,20110906,122
25162772,20110907,166
25261863,20110908,164
25361253,20110909,102
25460666,20110910,112
25558626,20110911,132
25657098,20110912,142
25757765,20110913,130
25858266,20110914,77
25958725,20110915,105
26057753,20110916,100
26156324,20110917,76
26253839,20110918,131
26351484,20110919,160
26451589,20110920,162
26551021,20110921,162
26650149,20110922,165
26748900,20110923,189
26847289,20110924,181
26944526,20110925,175
27042013,20110926,177
27141548,20110927,187
27240500,20110928,182
27339406,20110929,194
27438661,20110930,170
27536820,20111001,160
27633769,20111002,152
27731176,20111003,152
27830773,20111004,71
27930263,20111005,53
28029577,20111006,19
28129460,20111007,35
28229197,20111008,44
28327336,20111009,53
28425505,20111010,92
28525358,20111011,100
28624438,20111012,117
28723420,20111013,143
28821087,20111014,138
28918342,20111015,163
29015107,20111016,150
29112650,20111017,79
29212501,20111018,123
29311945,20111019,144
29409774,20111020,128
29507666,20111021,126
29605862,20111022,120
29703476,20111023,160
29801626,20111024,135
29901689,20111025,67
30001135,20111026,30
30101531,20111027,55
30200636,20111028,84
30298983,20111029,82
30396011,20111030,110
30494481,20111031,94
30594280,20111101,89
30695160,20111102,31
30797799,20111103,91
30898736,20111104,43
30997748,20111105,23
31096686,20111106,-19
31196162,20111107,-8
31297051,20111108,19
31397641,20111109,32
31497991,20111110,69
31597818,20111111,89
31696632,20111112,34
31795461,20111113,-5
31894446,20111114,24
31995115,20111115,49
32095120,20111116,15
32194893,20111117,57
32294576,20111118,47
32395224,20111119,27
32495529,20111120,34
32594643,20111121,30
32695003,20111122,54
32794702,20111123,104
32893364,20111124,81
32991012,20111125,26
33089694,20111126,32
33187726,20111127,88
33285194,20111128,108
33385250,20111129,90
33484774,20111130,74
33585113,20111201,12
33687624,20111202,-21
33789336,20111203,-16
33889755,20111204,-48
33990712,20111205,-80
34093626,20111206,-34
34195368,20111207,67
34296885,20111208,30
34398768,20111209,34
34502113,20111210,52
34602483,20111211,32
34702621,20111212,4
34804886,20111213,11
34906588,20111214,-4
35008455,20111215,5
35109315,20111216,70
35208789,20111217,82
35308430,20111218,73
35409072,20111219,33
35511339,20111220,16
35613267,20111221,10
35714309,20111222,-71
35815389,20111223,11
35915281,20111224,45
36013442,20111225,65
36110645,20111226,62
36208720,20111227,54
36308296,20111228,64
36407454,20111229,74
36508078,20111230,76
36608155,20111231,12
7982,20120101,70
105948,20120102,97
205594,20120103,82
307185,20120104,117
408259,20120105,108
509063,20120106,56
609794,20120107,31
708878,20120108,3
808274,20120109,86
908510,20120110,78
1008866,20120111,-25
1109756,20120112,-6
1211709,20120113,12
1314373,20120114,72
1414771,20120115,41
1515285,20120116,-24
1616788,20120117,-34
1719138,20120118,4
1820283,20120119,80
1922173,20120120,45
2024577,20120121,-1
2125103,20120122,-9
2225811,20120123,4
2328324,20120124,24
2429443,20120125,62
2530333,20120126,66
2630488,20120127,-1
2730211,20120128,31
2829017,20120129,72
2928116,20120130,55
3029367,20120131,17
3129663,20120201,40
3230021,20120202,-20
3330530,20120203,-9
3432300,20120204,-11
3532097,20120205,-12
3631071,20120206,-17
3732561,20120207,35
3834350,20120208,35
3935957,20120209,13
4037333,20120210,41
4138153,20120211,39
4238181,20120212,-13
4338480,20120213,0
4442901,20120214,1
4545908,20120215,26
4647476,20120216,23
4747647,20120217,40
4846822,20120218,42
4945016,20120219,-45
5042720,20120220,-33
5143717,20120221,21
5245112,20120222,59
5345959,20120223,-18
5446856,20120224,55
5547991,20120225,57
5646474,20120226,7
5745134,20120227,36
5854295,20120228,-17
5854296,20120229,16
6043986,20120301,-38
6145192,20120302,-67
6246472,20120303,8
6344794,20120304,88
6443467,20120305,90
6546502,20120306,62
6648056,20120307,1
6748984,20120308,57
6849377,20120309,76
6947865,20120310,73
7045518,20120311,73
7143568,20120312,71
7243381,20120313,87
7343025,20120314,87
7443236,20120315,104
7543308,20120316,106
7642558,20120317,72
7740371,20120318,23
7838444,20120319,-50
7939490,20120320,-3
8039900,20120321,76
8139888,20120322,127
8239708,20120323,132
8338767,20120324,116
8435662,20120325,114
8532694,20120326,71
8632408,20120327,102
8732138,20120328,100
8832121,20120329,106
8931007,20120330,126
9029905,20120331,131
9126677,20120401,100
9224545,20120402,15
9324494,20120403,57
9424939,20120404,101
9524497,20120405,100
9623783,20120406,67
9722224,20120407,99
9820213,20120408,114
9917592,20120409,130
10017509,20120410,128
10118211,20120411,115
10218188,20120412,22
10317799,20120413,12
10417423,20120414,-18
10515101,20120415,33
10613547,20120416,48
10713452,20120417,94
10812491,20120418,109
10911879,20120419,75
11010979,20120420,116
11109637,20120421,133
11206115,20120422,158
11303070,20120423,163
11402629,20120424,160
11501972,20120425,143
11600895,20120426,129
11699781,20120427,63
11797921,20120428,87
11895075,20120429,104
11992328,20120430,119
12091968,20120501,124
12189947,20120502,126
12288010,20120503,145
12386254,20120504,150
12483960,20120505,145
12580232,20120506,127
12677134,20120507,92
12775293,20120508,100
12872585,20120509,136
12969954,20120510,149
13066842,20120511,145
13164548,20120512,138
13260511,20120513,122
13356522,20120514,154
13454885,20120515,163
13552372,20120516,142
13650256,20120517,164
13748480,20120518,132
13846382,20120519,130
13942883,20120520,161
14039935,20120521,192
14138010,20120522,184
14235828,20120523,159
14334034,20120524,119
14432527,20120525,155
14530626,20120526,136
14627417,20120527,86
14724087,20120528,133
14821600,20120529,169
14919728,20120530,174
15016820,20120531,185
15114201,20120601,202
15210820,20120602,185
15306255,20120603,218
15402770,20120604,192
15500978,20120605,180
15598230,20120606,181
15696008,20120607,185
15793903,20120608,192
15891370,20120609,187
15987381,20120610,153
16083905,20120611,175
16182361,20120612,197
16280014,20120613,206
16377872,20120614,207
16476390,20120615,199
16575020,20120616,209
16672193,20120617,215
16768644,20120618,206
16867601,20120619,217
16966071,20120620,219
17065087,20120621,233
17163524,20120622,230
17261438,20120623,231
17357980,20120624,252
17454707,20120625,240
17553132,20120626,217
17651276,20120627,205
17749433,20120628,234
17847948,20120629,247
17946116,20120630,246
18042468,20120701,248
18140197,20120702,229
18238544,20120703,203
18337162,20120704,206
18434700,20120705,166
18533644,20120706,150
18632166,20120707,177
18729683,20120708,180
18827144,20120709,203
18926368,20120710,220
19024946,20120711,219
19123347,20120712,222
19221635,20120713,202
19319606,20120714,183
19415595,20120715,161
19511985,20120716,150
19610470,20120717,200
19709269,20120718,211
19807880,20120719,204
19905442,20120720,220
20002690,20120721,216
20098869,20120722,203
20195558,20120723,198
20294426,20120724,186
20392707,20120725,184
20490968,20120726,221
20589994,20120727,187
20687651,20120728,187
20783357,20120729,188
20879698,20120730,204
20978668,20120731,213
21077319,20120801,195
21176411,20120802,196
21275892,20120803,200
21375010,20120804,218
21472768,20120805,200
21569640,20120806,187
21668136,20120807,213
21767160,20120808,218
21866677,20120809,208
21965641,20120810,202
22063656,20120811,222
22160017,20120812,204
22256969,20120813,203
22356147,20120814,171
22454879,20120815,207
22553799,20120816,214
22653129,20120817,210
22751055,20120818,212
22847782,20120819,216
22944875,20120820,174
23044273,20120821,213
23143380,20120822,128
23242869,20120823,170
23342181,20120824,156
23441492,20120825,197
23539585,20120826,194
23637654,20120827,200
23737129,20120828,214
23835638,20120829,214
23934330,20120830,204
24033484,20120831,205
24131795,20120901,184
24229661,20120902,186
24326645,20120903,192
24424481,20120904,190
24524028,20120905,191
24623354,20120906,186
24722556,20120907,195
24821768,20120908,169
24918628,20120909,172
25015348,20120910,172
25115609,20120911,143
25215865,20120912,134
25315962,20120913,166
25416592,20120914,169
25515405,20120915,180
25612589,20120916,181
25710723,20120917,147
25810378,20120918,174
25908443,20120919,181
26007015,20120920,172
26106944,20120921,196
26206597,20120922,187
26303509,20120923,178
26401096,20120924,121
26501661,20120925,68
26601579,20120926,108
26700611,20120927,127
26799295,20120928,151
26897780,20120929,155
26994079,20120930,133
27090832,20121001,159
27190351,20121002,163
27289922,20121003,169
27389711,20121004,149
27489564,20121005,133
27589607,20121006,107
27687574,20121007,106
27785371,20121008,121
27884652,20121009,139
27984797,20121010,146
28084908,20121011,148
28185159,20121012,79
28284444,20121013,61
28382416,20121014,132
28480353,20121015,138
28580088,20121016,145
28679785,20121017,101
28780185,20121018,127
28879582,20121019,156
28978366,20121020,148
29075858,20121021,119
29174540,20121022,126
29275892,20121023,109
29376316,20121024,94
29476872,20121025,32
29578932,20121026,44
29678631,20121027,59
29776782,20121028,102
29875152,20121029,125
29975177,20121030,128
30075270,20121031,141
30174731,20121101,120
30275629,20121102,87
30376447,20121103,93
30476349,20121104,110
30575731,20121105,127
30677286,20121106,146
30777129,20121107,130
30877384,20121108,100
30979039,20121109,34
31081050,20121110,0
31181552,20121111,-62
31282506,20121112,60
31383234,20121113,54
31484141,20121114,77
31585087,20121115,80
31686531,20121116,64
31787801,20121117,71
31887756,20121118,58
31987253,20121119,69
32088598,20121120,100
32189971,20121121,98
32291193,20121122,90
32390113,20121123,100
32489306,20121124,97
32588270,20121125,77
32688754,20121126,72
32791825,20121127,73
32893484,20121128,70
32995064,20121129,64
33096613,20121130,79
33198035,20121201,68
33298750,20121202,72
33398957,20121203,53
33500294,20121204,77
33601160,20121205,90
33701217,20121206,40
33802332,20121207,39
33903119,20121208,29
34002768,20121209,-51
34103220,20121210,-33
34205779,20121211,-22
34307276,20121212,1
34409029,20121213,40
34510559,20121214,-10
34612186,20121215,-31
34711737,20121216,-36
34811333,20121217,-6
34913366,20121218,-32
35014897,20121219,-41
35117555,20121220,12
35220359,20121221,27
35321555,20121222,34
35421313,20121223,-1
35520748,20121224,-42
35619950,20121225,-4
35719042,20121226,-40
35820628,20121227,-44
35923278,20121228,-57
36025287,20121229,2
36125606,20121230,-34
36226398,20121231,-22
8319,20130101,-67
108863,20130102,1
210433,20130103,-23
311526,20130104,33
412320,20130105,55
511554,20130106,44
610741,20130107,61
712091,20130108,56
813229,20130109,67
913707,20130110,29
1013733,20130111,-54
1113858,20130112,-122
1212647,20130113,-133
1311771,20130114,-116
1413017,20130115,-24
1513558,20130116,51
1614516,20130117,57
1714708,20130118,56
1815047,20130119,92
1913927,20130120,68
2013209,20130121,70
2114135,20130122,95
2215471,20130123,110
2316681,20130124,57
2417906,20130125,33
2518571,20130126,11
2617823,20130127,32
2716929,20130128,-17
2818653,20130129,-70
2920685,20130130,-66
3021760,20130131,26
3122286,20130201,38
3224192,20130202,64
3324585,20130203,21
3425295,20130204,62
3528068,20130205,106
3629391,20130206,53
3730678,20130207,55
3831194,20130208,0
3930589,20130209,-47
4029811,20130210,-49
4129364,20130211,-43
4230205,20130212,-19
4329847,20130213,34
4429489,20130214,-11
4529736,20130215,-18
4630136,20130216,54
4728849,20130217,51
4827970,20130218,4
4928654,20130219,20
5028693,20130220,-35
5128517,20130221,-4
5231275,20130222,-41
5333559,20130223,-13
5432213,20130224,-23
5531776,20130225,21
5634691,20130226,-55
5735410,20130227,-14
5835933,20130228,11
5936673,20130301,47
6037316,20130302,91
6136568,20130303,57
6236109,20130304,38
6338327,20130305,81
6439479,20130306,65
6540305,20130307,74
6640942,20130308,11
6741574,20130309,-17
6840341,20130310,11
6939510,20130311,68
7040425,20130312,84
7139983,20130313,94
7240054,20130314,122
7340257,20130315,125
7440038,20130316,78
7538565,20130317,63
7637018,20130318,31
7738271,20130319,37
7838368,20130320,53
7938507,20130321,50
8038815,20130322,36
8139470,20130323,-77
8237960,20130324,-16
8337435,20130325,15
8440266,20130326,68
8541429,20130327,89
8641965,20130328,101
8741564,20130329,101
8840268,20130330,99
8937697,20130331,104
9034661,20130401,79
9133617,20130402,64
9233405,20130403,66
9332854,20130404,107
9431114,20130405,94
9529154,20130406,90
9626296,20130407,89
9723977,20130408,34
9824506,20130409,22
9923888,20130410,13
10024928,20130411,70
10124102,20130412,64
10222106,20130413,82
10318842,20130414,54
10416601,20130415,73
10516505,20130416,78
10616620,20130417,0
10716424,20130418,-40
10816093,20130419,51
10913334,20130420,56
11009086,20130421,78
11106525,20130422,103
11207477,20130423,19
11308275,20130424,56
11407341,20130425,102
11505070,20130426,89
11603048,20130427,100
11699338,20130428,133
11794838,20130429,137
11892736,20130430,143
11990601,20130501,81
12089512,20130502,62
12188337,20130503,113
12285158,20130504,125
12379945,20130505,95
12475072,20130506,53
12572330,20130507,60
12669613,20130508,57
12766938,20130509,72
12863635,20130510,103
12958922,20130511,119
13052331,20130512,132
13146217,20130513,162
13244535,20130514,173
13342375,20130515,164
13439561,20130516,164
13535514,20130517,146
13631484,20130518,120
13725595,20130519,84
13819859,20130520,78
13916312,20130521,120
14012134,20130522,150
14107743,20130523,161
14202777,20130524,156
14297891,20130525,165
14392051,20130526,154
14485865,20130527,157
14581349,20130528,138
14678116,20130529,103
14774040,20130530,120
14869428,20130531,122
14964426,20130601,160
15058618,20130602,191
15152689,20130603,177
15249107,20130604,198
15345782,20130605,185
15443029,20130606,191
15538652,20130607,186
15633662,20130608,207
15727526,20130609,224
15822226,20130610,236
15917640,20130611,198
16013444,20130612,217
16110033,20130613,216
16206701,20130614,198
16302075,20130615,193
16396647,20130616,193
16491231,20130617,195
16587573,20130618,189
16682587,20130619,189
16777964,20130620,179
16874597,20130621,191
16971048,20130622,191
17066188,20130623,191
17161057,20130624,166
17257821,20130625,197
17353598,20130626,239
17448976,20130627,258
17543945,20130628,254
17638600,20130629,242
17731144,20130630,227
17823247,20130701,222
17918609,20130702,222
18013659,20130703,220
18107689,20130704,212
18201777,20130705,215
18296755,20130706,220
18390274,20130707,231
18484374,20130708,240
18580369,20130709,252
18676297,20130710,255
18772249,20130711,228
18867430,20130712,205
18962120,20130713,202
19055612,20130714,213
19149236,20130715,194
19244740,20130716,161
19340560,20130717,186
19436663,20130718,193
19532636,20130719,194
19628580,20130720,220
19722541,20130721,228
19816055,20130722,227
19911941,20130723,223
20007346,20130724,201
20103313,20130725,216
20198872,20130726,221
20294299,20130727,211
20387061,20130728,128
20479952,20130729,160
20575985,20130730,195
20671980,20130731,208
20767104,20130801,154
20861785,20130802,196
20956572,20130803,179
21049806,20130804,191
21143511,20130805,186
21239801,20130806,170
21335233,20130807,130
21430669,20130808,145
21525371,20130809,166
21619826,20130810,167
21712047,20130811,161
21805667,20130812,168
21902323,20130813,176
21997418,20130814,183
22092874,20130815,205
22188674,20130816,214
22284377,20130817,214
22378578,20130818,183
22472583,20130819,200
22568667,20130820,206
22665023,20130821,204
22761188,20130822,198
22855788,20130823,191
22950107,20130824,146
23043789,20130825,121
23137987,20130826,158
23234204,20130827,194
23330055,20130828,206
23426502,20130829,198
23522223,20130830,209
23617797,20130831,197
23711449,20130901,198
23805465,20130902,199
23899717,20130903,200
23995982,20130904,207
24092351,20130905,201
24188934,20130906,206
24285301,20130907,204
24380079,20130908,181
24474651,20130909,140
24572076,20130910,103
24668590,20130911,142
24765087,20130912,146
24861308,20130913,143
24955773,20130914,110
25049657,20130915,119
25144022,20130916,149
25239835,20130917,156
25335656,20130918,154
25431742,20130919,149
25527722,20130920,151
25622649,20130921,151
25715683,20130922,103
25808835,20130923,78
25905196,20130924,156
26001700,20130925,137
26097643,20130926,121
26193582,20130927,75
26289632,20130928,109
26383964,20130929,128
26477764,20130930,160
26573807,20131001,165
26671051,20131002,146
26768467,20131003,111
26865451,20131004,16
26962362,20131005,73
27056810,20131006,147
27150975,20131007,162
27246042,20131008,120
27341850,20131009,82
27438613,20131010,182
27535335,20131011,154
27631347,20131012,70
27725209,20131013,81
27818984,20131014,52
27915219,20131015,52
28011647,20131016,47
28107169,20131017,79
28202426,20131018,48
28297994,20131019,89
28391286,20131020,83
28484675,20131021,81
28582138,20131022,123
28678536,20131023,122
28774489,20131024,115
28871608,20131025,84
28968499,20131026,94
29063652,20131027,87
29158539,20131028,72
29255574,20131029,22
29352357,20131030,-2
29448929,20131031,23
29543683,20131101,45
29638402,20131102,118
29732293,20131103,48
29827090,20131104,31
29924904,20131105,2
30021983,20131106,43
30118956,20131107,104
30214288,20131108,91
30310710,20131109,102
30406413,20131110,102
30502139,20131111,94
30600379,20131112,106
30699845,20131113,85
30798532,20131114,79
30897169,20131115,24
30994906,20131116,-2
31089533,20131117,45
31184719,20131118,82
31281511,20131119,62
31379197,20131120,41
31477642,20131121,9
31576127,20131122,22
31673418,20131123,28
31768474,20131124,18
31865581,20131125,49
31964815,20131126,48
32062440,20131127,72
32159311,20131128,64
32254692,20131129,54
32351052,20131130,49
32446591,20131201,53
32543537,20131202,68
32642611,20131203,12
32741559,20131204,-19
32841085,20131205,-70
32939775,20131206,-85
33038368,20131207,-90
33135779,20131208,-86
33233338,20131209,-113
33334379,20131210,10
33433900,20131211,22
33533806,20131212,69
33633599,20131213,17
33732402,20131214,29
33829797,20131215,59
33927274,20131216,77
34027691,20131217,116
34127489,20131218,85
34226714,20131219,31
34325835,20131220,-11
34424227,20131221,-23
34519848,20131222,-20
34616048,20131223,22
34713538,20131224,51
34809021,20131225,38
34903902,20131226,54
35000609,20131227,81
35097004,20131228,49
35192115,20131229,20
35286966,20131230,39
35383605,20131231,46
7978,20140101,14
104296,20140102,64
203031,20140103,54
301232,20140104,-25
398675,20140105,-91
495865,20140106,24
594299,20140107,49
692021,20140108,19
789547,20140109,1
887002,20140110,-48
983530,20140111,86
1077825,20140112,-22
1172350,20140113,7
1269897,20140114,18
1366353,20140115,57
1462970,20140116,38
1560782,20140117,42
1658590,20140118,67
1754860,20140119,58
1851148,20140120,60
1948611,20140121,82
2047011,20140122,47
2145905,20140123,24
2244802,20140124,53
2342248,20140125,93
2438057,20140126,65
2534274,20140127,53
2632362,20140128,5
2730054,20140129,49
2828333,20140130,4
2925487,20140131,-19
3023378,20140201,-20
3119922,20140202,-15
3215476,20140203,-42
3312874,20140204,-26
3410812,20140205,-40
3509303,20140206,-36
3607256,20140207,-23
3704401,20140208,7
3799789,20140209,55
3895688,20140210,25
3994271,20140211,32
4091173,20140212,43
4188190,20140213,53
4286251,20140214,53
4383711,20140215,96
4478236,20140216,52
4573832,20140217,77
4670741,20140218,83
4767680,20140219,49
4863917,20140220,-45
4960435,20140221,24
5055910,20140222,34
5149382,20140223,62
5244311,20140224,72
5341597,20140225,75
5438260,20140226,74
5533900,20140227,17
5629249,20140228,35
5724654,20140301,15
5819219,20140302,42
5914985,20140303,54
6013275,20140304,61
6109959,20140305,60
6206895,20140306,89
6303065,20140307,45
6398720,20140308,32
6493320,20140309,114
6587314,20140310,118
6684331,20140311,11
6780921,20140312,50
6877053,20140313,64
6972593,20140314,53
7068223,20140315,8
7161742,20140316,72
7255002,20140317,75
7351575,20140318,-1
7447560,20140319,47
7543451,20140320,77
7638768,20140321,86
7734607,20140322,31
7829130,20140323,57
7923628,20140324,70
8019927,20140325,104
8116170,20140326,29
8212145,20140327,19
8307027,20140328,32
8401191,20140329,81
8492787,20140330,51
8585614,20140331,38
8682233,20140401,54
8778191,20140402,0
8874593,20140403,22
8971137,20140404,36
9065928,20140405,49
9158915,20140406,34
9252208,20140407,38
9347361,20140408,107
9440923,20140409,120
9535294,20140410,112
9631086,20140411,129
9726494,20140412,89
9820472,20140413,30
9915360,20140414,27
10012718,20140415,90
10108164,20140416,74
10203898,20140417,92
10299958,20140418,119
10394243,20140419,78
10486984,20140420,107
10579319,20140421,120
10674702,20140422,103
10769176,20140423,60
10863711,20140424,86
10958996,20140425,99
11052958,20140426,47
11145117,20140427,16
11237925,20140428,14
11333145,20140429,24
11427652,20140430,44
11521659,20140501,53
11615224,20140502,110
11708728,20140503,145
11800822,20140504,134
11893560,20140505,122
11988829,20140506,92
12083722,20140507,44
12179386,20140508,37
12274474,20140509,73
12367150,20140510,97
12457474,20140511,46
12548931,20140512,17
12645336,20140513,42
12739598,20140514,57
12832788,20140515,94
12925713,20140516,132
13018165,20140517,154
13109290,20140518,147
13201415,20140519,140
13296368,20140520,137
13390937,20140521,119
13485644,20140522,127
13580244,20140523,105
13673008,20140524,100
13764608,20140525,76
13855442,20140526,130
13947905,20140527,175
14041307,20140528,186
14133762,20140529,162
14226419,20140530,154
14319034,20140531,173
14410177,20140601,166
14502565,20140602,191
14597190,20140603,183
14691238,20140604,186
14785474,20140605,194
14878904,20140606,195
14972044,20140607,187
15064195,20140608,139
15155762,20140609,162
15248907,20140610,191
15341740,20140611,185
15434064,20140612,189
15525674,20140613,182
15616987,20140614,143
15707912,20140615,158
15800309,20140616,147
15895266,20140617,162
15989707,20140618,135
16083745,20140619,166
16177029,20140620,194
16269792,20140621,182
16361493,20140622,190
16452945,20140623,186
16546893,20140624,206
16639280,20140625,203
16731863,20140626,184
16824122,20140627,156
16916626,20140628,179
17007012,20140629,219
17097573,20140630,223
17191316,20140701,221
17285686,20140702,223
17379808,20140703,202
17473304,20140704,204
17565286,20140705,187
17657453,20140706,225
17750095,20140707,222
17844906,20140708,230
17938090,20140709,202
18031435,20140710,183
18125220,20140711,183
18218383,20140712,208
18308536,20140713,213
18399714,20140714,227
18492707,20140715,194
18585172,20140716,177
18677786,20140717,193
18771278,20140718,210
18864605,20140719,227
18956260,20140720,222
19048266,20140721,225
19142223,20140722,249
19236191,20140723,243
19329756,20140724,202
19422360,20140725,206
19515060,20140726,221
19606278,20140727,208
19697399,20140728,150
19790614,20140729,177
19884200,20140730,187
19977525,20140731,181
20070768,20140801,165
20163585,20140802,186
20254630,20140803,166
20346361,20140804,148
20440839,20140805,168
20534441,20140806,189
20628711,20140807,194
20722130,20140808,191
20815504,20140809,190
20907453,20140810,185
20999161,20140811,185
21092823,20140812,175
21185082,20140813,174
21277838,20140814,170
21371525,20140815,207
21465099,20140816,205
21557324,20140817,216
21649503,20140818,218
21744136,20140819,172
21837976,20140820,164
21931466,20140821,173
22025130,20140822,139
22118296,20140823,147
22210311,20140824,156
22302599,20140825,164
22397793,20140826,150
22492215,20140827,135
22586444,20140828,123
22681026,20140829,168
22774390,20140830,189
22865279,20140831,180
22955776,20140901,188
23048670,20140902,202
23143991,20140903,200
23238278,20140904,134
23333141,20140905,182
23427153,20140906,189
23519236,20140907,177
23611170,20140908,115
23705771,20140909,101
23799770,20140910,143
23894210,20140911,159
23988051,20140912,160
24081361,20140913,171
24172496,20140914,181
24264497,20140915,192
24359331,20140916,189
24452577,20140917,186
24546463,20140918,189
24640764,20140919,191
24734572,20140920,205
24827013,20140921,165
24919221,20140922,149
25012921,20140923,158
25107277,20140924,193
25201882,20140925,197
25295805,20140926,192
25389361,20140927,171
25481399,20140928,78
25574026,20140929,82
25668227,20140930,70
25761743,20141001,76
25857555,20141002,101
25953599,20141003,141
26047900,20141004,141
26139711,20141005,137
26233193,20141006,159
26329007,20141007,162
26423696,20141008,147
26518399,20141009,56
26613590,20141010,87
26707786,20141011,124
26799683,20141012,56
26891963,20141013,89
26985790,20141014,164
27079573,20141015,164
27173426,20141016,145
27267302,20141017,142
27361463,20141018,111
27454529,20141019,119
27547845,20141020,134
27643666,20141021,94
27738347,20141022,93
27832867,20141023,135
27927772,20141024,159
28022778,20141025,155
28116723,20141026,125
28210714,20141027,81
28307080,20141028,101
28402471,20141029,123
28497145,20141030,154
28591386,20141031,111
28685564,20141101,103
28778537,20141102,48
28871920,20141103,36
28968243,20141104,76
29063036,20141105,136
29157670,20141106,136
29251678,20141107,118
29345562,20141108,120
29439415,20141109,120
29533586,20141110,82
29630355,20141111,58
29727340,20141112,33
29823773,20141113,12
29921063,20141114,16
30017822,20141115,11
30113637,20141116,-43
30210375,20141117,-6
30308600,20141118,28
30405802,20141119,62
30503592,20141120,35
30600848,20141121,54
30697023,20141122,48
30790451,20141123,-31
30883364,20141124,-63
30978806,20141125,-16
31074577,20141126,60
31170063,20141127,108
31264222,20141128,109
31359178,20141129,68
31453466,20141130,48
31548203,20141201,50
31645227,20141202,76
31741601,20141203,51
31838027,20141204,34
31933571,20141205,58
32028407,20141206,29
32121886,20141207,67
32215563,20141208,103
32313201,20141209,103
32409527,20141210,97
32506030,20141211,78
32603147,20141212,65
32699631,20141213,34
32794740,20141214,-9
32890695,20141215,10
32988799,20141216,33
33084927,20141217,-13
33180135,20141218,-14
33276864,20141219,5
33372256,20141220,34
33465846,20141221,-2
33559725,20141222,-6
33654759,20141223,-80
33748911,20141224,54
33841154,20141225,-32
33931753,20141226,-52
34025830,20141227,-54
34119217,20141228,-24
34211555,20141229,-58
34306366,20141230,-46
34402155,20141231,-15
7809,20150101,-41
102873,20150102,0
198770,20150103,-4
293382,20150104,40
389282,20150105,65
486766,20150106,116
585539,20150107,119
684715,20150108,98
783404,20150109,70
881297,20150110,58
976687,20150111,22
1071927,20150112,19
1168797,20150113,14
1265076,20150114,36
1362149,20150115,76
1458645,20150116,75
1554670,20150117,67
1649300,20150118,80
1743459,20150119,72
1839275,20150120,44
1936661,20150121,13
2034410,20150122,-19
2132127,20150123,57
2227728,20150124,65
2322406,20150125,87
2417253,20150126,135
2514858,20150127,84
2612718,20150128,57
2709916,20150129,38
2806744,20150130,-3
2903250,20150131,20
2998284,20150201,8
3094165,20150202,34
3191515,20150203,70
3288059,20150204,67
3385750,20150205,96
3482143,20150206,109
3577854,20150207,103
3672366,20150208,105
3767377,20150209,99
3864331,20150210,79
3960044,20150211,58
4056971,20150212,86
4153671,20150213,115
4249647,20150214,129
4344446,20150215,94
4439861,20150216,-6
4537991,20150217,2
4636341,20150218,80
4733640,20150219,84
4830800,20150220,66
4927444,20150221,1
5022959,20150222,-13
5118945,20150223,1
5216298,20150224,44
5312647,20150225,4
5409093,20150226,-1
5507128,20150227,-7
5603909,20150228,-16
5698654,20150301,16
5794663,20150302,23
5892244,20150303,-20
5988855,20150304,27
6085199,20150305,27
6181884,20150306,83
6277871,20150307,87
6372719,20150308,80
6467212,20150309,73
6563556,20150310,97
6658940,20150311,95
6754131,20150312,66
6849269,20150313,81
6944113,20150314,100
7036620,20150315,151
7130091,20150316,136
7227225,20150317,124
7323216,20150318,82
7418477,20150319,85
7513017,20150320,91
7607167,20150321,101
7700327,20150322,109
7793534,20150323,82
7889638,20150324,71
7985809,20150325,39
8081906,20150326,84
8176542,20150327,119
8270710,20150328,131
8363737,20150329,127
8457737,20150330,126
8553369,20150331,132
8649484,20150401,100
8748373,20150402,79
8847184,20150403,67
8945135,20150404,81
9040946,20150405,88
9137702,20150406,82
9236603,20150407,73
9334040,20150408,51
9422981,20150409,72
9512361,20150410,93
9600671,20150411,92
9686730,20150412,82
9773820,20150413,119
9862978,20150414,106
9950200,20150415,33
10038244,20150416,1
10127081,20150417,-3
10215744,20150418,16
10302783,20150419,84
10389643,20150420,83
10478156,20150421,107
10565692,20150422,73
10653784,20150423,90
10741807,20150424,54
10829824,20150425,48
10915445,20150426,56
11001188,20150427,89
11089773,20150428,100
11178567,20150429,125
11275704,20150430,144
11372655,20150501,149
11469609,20150502,147
11565627,20150503,113
11662101,20150504,81
11760167,20150505,52
11955105,20150507,82
12052604,20150508,71
12149456,20150509,32
12244304,20150510,61
12340818,20150511,113
12438434,20150512,107
12534397,20150513,100
12630639,20150514,98
12727438,20150515,48
12822882,20150516,70
12916203,20150517,99
13010272,20150518,101
13106849,20150519,84
13203124,20150520,100
13299785,20150521,107
13395138,20150522,68
13490497,20150523,39
13584982,20150524,58
13679736,20150525,77
13774833,20150526,114
13870632,20150527,131
13966208,20150528,137
14062521,20150529,132
14158463,20150530,154
14252784,20150531,176
14346173,20150601,179
14436148,20150602,166
14526320,20150603,166
14623088,20150604,171
14720014,20150605,82
14817160,20150606,73
14912372,20150607,132
15008001,20150608,171
15105047,20150609,182
15201169,20150610,120
15297616,20150611,132
15394730,20150612,137
15491203,20150613,135
15585415,20150614,170
15680200,20150615,174
15777162,20150616,183
15872656,20150617,203
15968656,20150618,215
16064817,20150619,221
16160154,20150620,228
16254384,20150621,232
16348784,20150622,231
16446048,20150623,227
16542552,20150624,217
16639065,20150625,215
16735436,20150626,226
16830925,20150627,222
16924135,20150628,219
17017599,20150629,220
17113090,20150630,233
17208857,20150701,234
17304521,20150702,216
17400319,20150703,205
17495227,20150704,198
17589325,20150705,168
17684103,20150706,191
17781393,20150707,144
17878079,20150708,158
17973799,20150709,148
18069421,20150710,152
18165320,20150711,163
18260674,20150712,187
18355787,20150713,181
18453212,20150714,157
18549369,20150715,176
18645372,20150716,189
18741782,20150717,191
18837999,20150718,169
18932975,20150719,138
19027373,20150720,176
19124354,20150721,173
19220144,20150722,190
19315720,20150723,203
19411446,20150724,147
19506737,20150725,199
19601332,20150726,165
19696057,20150727,188
19792643,20150728,203
19888902,20150729,212
19984997,20150730,211
20080516,20150731,172
20175592,20150801,165
20271112,20150802,153
20366672,20150803,165
20463991,20150804,193
20561065,20150805,208
20658258,20150806,208
20754953,20150807,168
20850753,20150808,169
20946113,20150809,186
21041251,20150810,197
21138479,20150811,170
21234411,20150812,191
21330574,20150813,196
21427395,20150814,219
21524042,20150815,215
21618840,20150816,212
21714084,20150817,191
21811911,20150818,188
21908829,20150819,179
22100663,20150821,200
22196425,20150822,203
22291469,20150823,199
22386567,20150824,210
22483464,20150825,189
22580447,20150826,124
22677531,20150827,170
22774495,20150828,184
22871086,20150829,181
22965882,20150830,185
23060478,20150831,177
23157178,20150901,178
23254932,20150902,182
23352532,20150903,165
23449691,20150904,131
23546232,20150905,137
23640407,20150906,161
23734584,20150907,162
23830433,20150908,166
23927667,20150909,184
24024158,20150910,191
24120057,20150911,198
24215542,20150912,197
24309288,20150913,193
24403092,20150914,128
24499810,20150915,118
24596752,20150916,138
24693578,20150917,151
24790184,20150918,158
24886119,20150919,165
24980937,20150920,181
25075817,20150921,194
25173436,20150922,135
25270506,20150923,164
25368011,20150924,192
25465329,20150925,192
25561711,20150926,201
25656210,20150927,190
25750477,20150928,182
25846873,20150929,182
25941835,20150930,176
26036367,20151001,184
26132340,20151002,153
26228219,20151003,121
26322425,20151004,113
26416463,20151005,90
26513417,20151006,100
26610605,20151007,103
26708305,20151008,156
26806170,20151009,166
26903347,20151010,170
26998106,20151011,149
27094006,20151012,182
27192361,20151013,177
27289769,20151014,176
27387649,20151015,183
27485721,20151016,144
27582702,20151017,110
27678522,20151018,108
27774890,20151019,80
27873173,20151020,84
27970699,20151021,68
28067773,20151022,42
28165068,20151023,74
28262193,20151024,110
28357126,20151025,108
28451594,20151026,51
28548266,20151027,76
28644162,20151028,102
28739260,20151029,65
28834391,20151030,62
28929727,20151031,100
29024551,20151101,121
29119181,20151102,132
29216894,20151103,85
29314683,20151104,11
29412650,20151105,6
29510450,20151106,20
29606507,20151107,53
29701182,20151108,66
29796127,20151109,63
29893676,20151110,35
29990636,20151111,8
30088221,20151112,54
30185802,20151113,99
30282641,20151114,100
30378700,20151115,50
30474741,20151116,-8
30573350,20151117,-22
30672294,20151118,7
30769866,20151119,58
30866769,20151120,59
30964139,20151121,53
31061359,20151122,96
31157599,20151123,87
31256268,20151124,68
31354664,20151125,41
31452371,20151126,-2
31547678,20151127,13
31643794,20151128,-13
31738902,20151129,-41
31834031,20151130,-54
31932771,20151201,-5
32030966,20151202,44
32129168,20151203,75
32227230,20151204,52
32325610,20151205,3
32423000,20151206,90
32620185,20151208,88
32718961,20151209,88
32817624,20151210,81
32916087,20151211,25
33014412,20151212,-2
33111435,20151213,64
33209308,20151214,-17
33308099,20151215,-75
33406562,20151216,-29
33506117,20151217,-54
33604167,20151218,41
33702008,20151219,51
33799214,20151220,-21
33896471,20151221,5
33994708,20151222,-26
34091746,20151223,-46
34188118,20151224,-51
34283405,20151225,-53
34377163,20151226,-72
34472943,20151227,30
34568133,20151228,-30
34665677,20151229,-26
34763501,20151230,-60
34860961,20151231,-28
8081,20160101,-11
104895,20160102,53
202184,20160103,71
300078,20160104,24
400595,20160105,6
500748,20160106,-12
600066,20160107,-14
699469,20160108,-17
798138,20160109,-15
895289,20160110,-30
992750,20160111,17
1093150,20160112,60
1193703,20160113,70
1294003,20160114,-12
1393684,20160115,-41
1492394,20160116,-7
1588719,20160117,9
1685824,20160118,41
1785134,20160119,23
1885238,20160120,18
1985829,20160121,36
2086439,20160122,88
2185824,20160123,87
2284490,20160124,-12
2382964,20160125,-8
2484093,20160126,10
2583625,20160127,75
2681587,20160128,96
2780027,20160129,63
2877655,20160130,49
2974735,20160131,-9
3072817,20160201,-27
3173012,20160202,-75
3271966,20160203,-88
3370702,20160204,-29
3468704,20160205,-11
3566987,20160206,43
3663572,20160207,61
3760321,20160208,86
3860126,20160209,97
3960237,20160210,111
4060129,20160211,107
4159099,20160212,123
4257924,20160213,96
4355100,20160214,47
4452023,20160215,63
4550595,20160216,99
4649042,20160217,102
4746712,20160218,70
4843800,20160219,80
4941301,20160220,80
5035173,20160221,83
5129107,20160222,27
5227058,20160223,-1
5324524,20160224,42
5421674,20160225,71
5519371,20160226,106
5617041,20160227,84
5720760,20160228,87
5720761,20160229,67
5906491,20160301,75
6005440,20160302,73
6103494,20160303,111
6202420,20160304,100
6301091,20160305,84
6398427,20160306,53
6495499,20160307,11
6595146,20160308,52
6693440,20160309,41
6791588,20160310,119
6889420,20160311,119
6986577,20160312,49
7082439,20160313,67
7178014,20160314,59
7275828,20160315,16
7374017,20160316,33
7472519,20160317,61
7571394,20160318,63
7670294,20160319,62
7766999,20160320,86
7863495,20160321,108
7962631,20160322,63
8061348,20160323,-31
8158257,20160324,54
8257270,20160325,32
8354162,20160326,20
8450546,20160327,59
8546228,20160328,65
8643386,20160329,16
8741935,20160330,4
8840618,20160331,27
8938640,20160401,44
9036080,20160402,82
9132307,20160403,92
9229838,20160404,119
9329549,20160405,91
9428797,20160406,109
9527977,20160407,138
9625395,20160408,92
9722952,20160409,61
9820080,20160410,87
9916983,20160411,87
10015244,20160412,70
10112280,20160413,111
10209567,20160414,89
10307197,20160415,54
10405068,20160416,44
10502148,20160417,38
10599922,20160418,22
10699552,20160419,43
10798218,20160420,88
10896560,20160421,126
10993953,20160422,130
11090051,20160423,87
11184490,20160424,86
11280164,20160425,53
11378394,20160426,39
11476645,20160427,71
11574371,20160428,52
11671433,20160429,40
11768212,20160430,64
11863548,20160501,27
11958732,20160502,85
12055640,20160503,115
12151838,20160504,134
12248004,20160505,156
12343889,20160506,127
12439795,20160507,53
12534360,20160508,57
12629158,20160509,89
12726238,20160510,87
12822706,20160511,71
12919134,20160512,134
13015865,20160513,150
13111495,20160514,160
13205126,20160515,117
13299032,20160516,99
13395723,20160517,96
13491173,20160518,69
13585920,20160519,102
13681450,20160520,113
13776261,20160521,125
13869392,20160522,103
13962919,20160523,109
14059441,20160524,114
14155538,20160525,114
14251926,20160526,84
14348220,20160527,99
14442971,20160528,115
14536259,20160529,148
14629213,20160530,151
14723281,20160531,158
14819226,20160601,157
14915696,20160602,178
15011669,20160603,182
15107534,20160604,205
15201441,20160605,206
15295426,20160606,199
15391325,20160607,197
15487443,20160608,184
15584086,20160609,223
15680764,20160610,212
15777136,20160611,180
15872154,20160612,181
15967266,20160613,156
16064361,20160614,163
16160819,20160615,181
16256678,20160616,178
16352353,20160617,201
16448157,20160618,232
16542671,20160619,234
16637502,20160620,261
16735078,20160621,246
16831234,20160622,227
16927535,20160623,220
17023386,20160624,200
17118700,20160625,212
17212829,20160626,220
17307698,20160627,222
17404284,20160628,191
17500397,20160629,203
17595915,20160630,147
17691814,20160701,108
17787193,20160702,129
17881055,20160703,169
17975172,20160704,184
18070013,20160705,193
18166135,20160706,195
18262346,20160707,194
18358637,20160708,208
18453766,20160709,211
18547464,20160710,204
18642112,20160711,185
18739143,20160712,195
18835916,20160713,205
18931664,20160714,226
19027323,20160715,225
19122765,20160716,214
19216949,20160717,220
19311439,20160718,191
19407973,20160719,160
19503623,20160720,186
19599499,20160721,178
19695792,20160722,187
19791548,20160723,223
19886044,20160724,227
19980646,20160725,212
20077560,20160726,194
20173562,20160727,226
20269687,20160728,238
20365844,20160729,234
20461040,20160730,219
20554663,20160731,193
20648754,20160801,213
20745044,20160802,208
20841428,20160803,192
20937754,20160804,146
21034237,20160805,128
21129777,20160806,165
21223895,20160807,175
21318451,20160808,196
21415634,20160809,188
21511907,20160810,184
21608010,20160811,181
21704102,20160812,175
21799920,20160813,189
21893875,20160814,194
21988168,20160815,209
22084684,20160816,180
22180844,20160817,180
22276509,20160818,158
22372660,20160819,170
22468187,20160820,187
22561851,20160821,179
22655660,20160822,146
22752101,20160823,137
22849164,20160824,153
22946014,20160825,161
23042535,20160826,139
23138633,20160827,118
23233014,20160828,136
23327806,20160829,150
23424996,20160830,154
23521691,20160831,166
23617943,20160901,166
23714065,20160902,161
23809232,20160903,166
23903375,20160904,151
23998126,20160905,164
24094288,20160906,155
24191350,20160907,168
24288081,20160908,178
24384075,20160909,168
24480123,20160910,177
24574695,20160911,181
24669100,20160912,149
24766636,20160913,132
24863178,20160914,118
24959458,20160915,135
25055615,20160916,148
25152245,20160917,148
25246312,20160918,175
25340697,20160919,202
25437367,20160920,158
25533585,20160921,117
25630297,20160922,156
25726539,20160923,94
25821930,20160924,43
25915817,20160925,135
26010565,20160926,166
26106740,20160927,169
26201707,20160928,161
26297148,20160929,84
26391976,20160930,131
26486668,20161001,145
26580237,20161002,120
26674407,20161003,73
26771217,20161004,66
26868441,20161005,91
26965698,20161006,64
27062476,20161007,125
27158379,20161008,144
27252350,20161009,105
27346470,20161010,131
27443055,20161011,135
27540583,20161012,131
27637616,20161013,143
27733944,20161014,155
27830243,20161015,156
27924854,20161016,145
28020121,20161017,130
28117740,20161018,123
28215109,20161019,98
28312484,20161020,128
28409382,20161021,148
28505288,20161022,146
28599431,20161023,145
28694624,20161024,130
28792359,20161025,67
28889497,20161026,143
28986651,20161027,156
29083444,20161028,137
29179866,20161029,132
29274602,20161030,122
29369799,20161031,114
29467450,20161101,94
29565621,20161102,100
29663490,20161103,116
29760638,20161104,73
29857107,20161105,54
29953040,20161106,78
30049003,20161107,106
30147205,20161108,119
30244457,20161109,138
30340882,20161110,141
30437805,20161111,109
30534979,20161112,93
30630725,20161113,77
30726912,20161114,119
30825017,20161115,146
30922636,20161116,112
31020343,20161117,32
31118683,20161118,46
31217794,20161119,97
31313363,20161120,93
31409536,20161121,25
31507645,20161122,34
31604818,20161123,60
31700147,20161124,34
31793905,20161125,45
31888521,20161126,54
31983055,20161127,-6
32078992,20161128,-42
32176200,20161129,-22
32272679,20161130,-40
32369304,20161201,6
32466019,20161202,-32
32563566,20161203,13
32659531,20161204,59
32755174,20161205,30
32853897,20161206,-4
32951076,20161207,-63
33049044,20161208,-29
33148029,20161209,51
33247018,20161210,69
33343739,20161211,25
33441569,20161212,5
33540624,20161213,14
33638391,20161214,29
33736361,20161215,41
33834809,20161216,11
33933063,20161217,-27
34030677,20161218,-40
34127938,20161219,34
34225838,20161220,64
34323390,20161221,46
34420561,20161222,9
34517597,20161223,35
34613396,20161224,9
34706823,20161225,-63
34799833,20161226,-35
34894593,20161227,35
34989586,20161228,40
35085235,20161229,63
35181059,20161230,48
35276924,20161231,24
7869,20170101,-15
102123,20170102,-42
198030,20170103,-29
295543,20170104,-26
392758,20170105,-12
492695,20170106,-37
593638,20170107,4
691964,20170108,15
790477,20170109,12
890528,20170110,14
989314,20170111,-26
1086933,20170112,15
1184081,20170113,3
1280661,20170114,44
1375957,20170115,48
1471580,20170116,43
1569612,20170117,37
1667402,20170118,26
1764093,20170119,27
1860980,20170120,-18
1957456,20170121,-31
2052109,20170122,1
2146993,20170123,-19
2244476,20170124,-39
2342122,20170125,-57
2439863,20170126,-70
2536661,20170127,-25
2633988,20170128,24
2729887,20170129,82
2825768,20170130,73
2924813,20170131,82
3023330,20170201,91
3123132,20170202,36
3221899,20170203,30
3319734,20170204,31
3415731,20170205,70
3511687,20170206,-3
3610997,20170207,0
3708878,20170208,64
3806849,20170209,100
3905243,20170210,88
4003484,20170211,64
4099782,20170212,42
4195947,20170213,44
4294727,20170214,55
4392499,20170215,89
4489576,20170216,123
4586662,20170217,71
4683314,20170218,42
4778091,20170219,31
4873015,20170220,62
4969984,20170221,81
5066765,20170222,76
5163088,20170223,-23
5260321,20170224,-49
5358233,20170225,-35
5453602,20170226,-24
5548127,20170227,-30
5640432,20170228,-15
5731880,20170301,28
5823578,20170302,50
5914554,20170303,84
6006760,20170304,60
6103273,20170305,48
6199612,20170306,-35
6298072,20170307,40
6395414,20170308,95
6492207,20170309,114
6590023,20170310,113
6687351,20170311,106
6783287,20170312,92
6879395,20170313,96
6978505,20170314,117
7076096,20170315,129
7174398,20170316,120
7271891,20170317,136
7369119,20170318,134
7464367,20170319,126
7559925,20170320,124
7658476,20170321,111
7755777,20170322,96
7853039,20170323,45
7950534,20170324,67
8047389,20170325,89
8142067,20170326,76
8236335,20170327,51
8333115,20170328,59
8429337,20170329,71
8526077,20170330,100
8622642,20170331,54
8717972,20170401,59
8813627,20170402,72
8909633,20170403,8
9007444,20170404,22
9104344,20170405,81
9201713,20170406,121
9297936,20170407,124
9394796,20170408,81
9490451,20170409,38
9586652,20170410,77
9685411,20170411,100
9782724,20170412,130
9879729,20170413,123
9976499,20170414,115
10072621,20170415,106
10167504,20170416,123
10262539,20170417,119
10358859,20170418,127
10454995,20170419,108
10551469,20170420,95
10647638,20170421,61
10743355,20170422,100
10837630,20170423,115
10931973,20170424,75
11028970,20170425,55
11125481,20170426,53
11221763,20170427,57
11317583,20170428,20
11413253,20170429,36
11508557,20170430,65
11603780,20170501,83
11700412,20170502,109
11795566,20170503,108
11891843,20170504,160
11987911,20170505,162
12082677,20170506,151
12175831,20170507,129
12269930,20170508,134
12367034,20170509,96
12463534,20170510,99
12560073,20170511,119
12655556,20170512,138
12750573,20170513,133
12843781,20170514,119
12937669,20170515,109
13034489,20170516,60
13131076,20170517,42
13227549,20170518,33
13324148,20170519,43
13420093,20170520,83
13513888,20170521,113
13607194,20170522,103
13702265,20170523,98
13796823,20170524,156
13891100,20170525,140
13985288,20170526,129
14079377,20170527,114
14172744,20170528,146
14265989,20170529,148
14359877,20170530,166
14454631,20170531,141
14548937,20170601,135
14643950,20170602,131
14738686,20170603,175
14832349,20170604,190
14926041,20170605,194
15021137,20170606,193
15115568,20170607,201
15210801,20170608,198
15306021,20170609,189
15401414,20170610,187
15495505,20170611,170
15590210,20170612,155
15687063,20170613,128
15783481,20170614,179
15879037,20170615,200
15974223,20170616,212
16068519,20170617,225
16161104,20170618,215
16254168,20170619,240
16349595,20170620,244
16443634,20170621,235
16538292,20170622,227
16633099,20170623,215
16727257,20170624,216
16819649,20170625,219
16912677,20170626,216
17008317,20170627,204
17103410,20170628,199
17199112,20170629,199
17294382,20170630,194
17388172,20170701,215
17481077,20170702,202
17574405,20170703,215
17669917,20170704,223
17764425,20170705,229
17859972,20170706,241
17955080,20170707,243
18049901,20170708,232
18143244,20170709,232
18236895,20170710,230
18333165,20170711,195
18428751,20170712,186
18524133,20170713,169
18619298,20170714,173
18713875,20170715,206
18807415,20170716,212
18901124,20170717,212
18997410,20170718,201
19092846,20170719,202
19188396,20170720,205
19283773,20170721,166
19378742,20170722,180
19472317,20170723,198
19565578,20170724,192
19660414,20170725,157
19755350,20170726,195
19850791,20170727,209
19945898,20170728,193
20040365,20170729,161
20133322,20170730,182
20226979,20170731,197
20323509,20170801,194
20419742,20170802,203
20515802,20170803,174
20611118,20170804,186
20705583,20170805,158
20798402,20170806,179
20891886,20170807,174
20987003,20170808,167
21080961,20170809,190
21176189,20170810,198
21271452,20170811,133
21365849,20170812,190
21458364,20170813,175
21551662,20170814,186
21647081,20170815,155
21741100,20170816,173
21836250,20170817,188
21931149,20170818,205
22025145,20170819,202
22118275,20170820,204
22211948,20170821,194
22307181,20170822,148
22402632,20170823,194
22497505,20170824,163
22592377,20170825,198
22687134,20170826,213
22780649,20170827,214
22874284,20170828,217
22969760,20170829,211
23064277,20170830,221
23159149,20170831,191
23254096,20170901,189
23348145,20170902,217
23441005,20170903,230
23533855,20170904,223
23628719,20170905,212
23724439,20170906,215
23818785,20170907,196
23912777,20170908,185
24007078,20170909,189
24100152,20170910,166
24193689,20170911,184
24289149,20170912,190
24383493,20170913,200
24477770,20170914,158
24572002,20170915,135
24666157,20170916,133
24759463,20170917,135
24853094,20170918,151
24948504,20170919,147
25043118,20170920,159
25137583,20170921,155
25232502,20170922,108
25327326,20170923,69
25420580,20170924,74
25514274,20170925,102
25610496,20170926,123
25706002,20170927,95
25800718,20170928,84
25895052,20170929,124
25988968,20170930,111
26080885,20171001,108
26174740,20171002,84
26271387,20171003,130
26367654,20171004,156
26463304,20171005,162
26558730,20171006,99
26653797,20171007,155
26747171,20171008,141
26839530,20171009,31
26934960,20171010,123
27030478,20171011,135
27125600,20171012,128
27220662,20171013,129
27315632,20171014,98
27409456,20171015,153
27503311,20171016,153
27598624,20171017,162
27694374,20171018,155
27790747,20171019,137
27887241,20171020,112
27982948,20171021,36
28076763,20171022,122
28170308,20171023,135
28265681,20171024,147
28360212,20171025,143
28455633,20171026,119
28551754,20171027,86
28648126,20171028,108
28742175,20171029,139
28835365,20171030,125
28931159,20171031,40
29026987,20171101,90
29123920,20171102,93
29220179,20171103,91
29316353,20171104,61
29410920,20171105,66
29505382,20171106,53
29601914,20171107,58
29698633,20171108,82
29794644,20171109,94
29890226,20171110,108
29985436,20171111,79
30080678,20171112,95
30175290,20171113,113
30271632,20171114,100
30368163,20171115,92
30464609,20171116,89
30560267,20171117,47
30656814,20171118,59
30751731,20171119,73
30845751,20171120,81
30943458,20171121,80
31040380,20171122,123
31135169,20171123,136
31228649,20171124,123
31323404,20171125,117
31417782,20171126,130
31512985,20171127,106
31610545,20171128,77
31707678,20171129,79
31804487,20171130,71
31900833,20171201,77
31996528,20171202,66
32091946,20171203,74
32187938,20171204,-9
32286348,20171205,35
32382808,20171206,18
32478794,20171207,-7
32575984,20171208,63
32673512,20171209,75
32770241,20171210,96
32867858,20171211,110
32966782,20171212,114
33064810,20171213,100
33162699,20171214,29
33261905,20171215,75
33359397,20171216,49
33456044,20171217,31
33551382,20171218,59
33648373,20171219,76
33745185,20171220,25
33841741,20171221,-19
33938887,20171222,-4
34035822,20171223,20
34130426,20171224,14
34224704,20171225,27
34319223,20171226,39
34415058,20171227,57
34510677,20171228,70
34606685,20171229,90
34703142,20171230,97
34799128,20171231,53
8121,20180101,63
104412,20180102,62
201870,20180103,85
299542,20180104,81
398036,20180105,66
495666,20180106,51
591568,20180107,43
687784,20180108,104
785071,20180109,63
881582,20180110,22
978268,20180111,-1
1074691,20180112,-7
1170595,20180113,47
1266171,20180114,93
1362380,20180115,68
1461380,20180116,54
1560219,20180117,56
1659121,20180118,105
1757482,20180119,82
1854671,20180120,4
1950276,20180121,-72
2046950,20180122,12
2144769,20180123,13
2240858,20180124,59
2337141,20180125,43
2434576,20180126,-39
2531297,20180127,23
2625989,20180128,62
2720027,20180129,96
2817206,20180130,88
2914630,20180131,83
3011948,20180201,75
3109976,20180202,81
3206795,20180203,62
3302284,20180204,87
3398559,20180205,64
3497162,20180206,4
3595829,20180207,59
3693575,20180208,86
3790793,20180209,77
3888983,20180210,4
3984812,20180211,11
4080881,20180212,-13
4178142,20180213,24
4274519,20180214,10
4370825,20180215,15
4466752,20180216,18
4562795,20180217,55
4657014,20180218,49
4752678,20180219,-16
4849645,20180220,-72
4947150,20180221,-33
5043050,20180222,-54
5139429,20180223,-67
5236815,20180224,-54
5331893,20180225,-33
5426614,20180226,26
5523422,20180227,25
5619930,20180228,12
5715590,20180301,24
5811159,20180302,65
5907156,20180303,62
6002609,20180304,10
6097622,20180305,-21
6190408,20180306,39
6282283,20180307,76
6374237,20180308,89
6466244,20180309,77
6557640,20180310,62
6647494,20180311,62
6736703,20180312,84
6828300,20180313,81
6920262,20180314,89
7012494,20180315,24
7104138,20180316,26
7195406,20180317,33
7284887,20180318,-20
7374313,20180319,9
7466747,20180320,31
7557885,20180321,40
7649620,20180322,111
7741596,20180323,38
7832559,20180324,71
7922242,20180325,62
8011768,20180326,52
8103974,20180327,43
8195158,20180328,62
8285393,20180329,60
8375780,20180330,84
8464764,20180331,108
8553629,20180401,100
8643804,20180402,100
8736624,20180403,61
8828606,20180404,87
8919636,20180405,83
9011047,20180406,81
9102584,20180407,99
9192802,20180408,72
9281878,20180409,67
9374200,20180410,125
9464899,20180411,122
9555493,20180412,90
9647078,20180413,-27
9738815,20180414,55
9828390,20180415,96
9918169,20180416,95
10009913,20180417,38
10101722,20180418,83
10193452,20180419,94
10284982,20180420,11
10376278,20180421,59
10466438,20180422,119
10555765,20180423,131
10647053,20180424,111
10737788,20180425,130
10828537,20180426,116
10918660,20180427,148
11008521,20180428,124
11096943,20180429,119
11185990,20180430,97
11277061,20180501,53
11367415,20180502,24
11458082,20180503,51
11548586,20180504,107
11637744,20180505,146
11725532,20180506,158
11813225,20180507,165
11903163,20180508,170
11993719,20180509,187
12083802,20180510,175
12173603,20180511,145
12263023,20180512,140
12351251,20180513,119
12439553,20180514,134
12531014,20180515,147
12626550,20180516,173
12721231,20180517,157
12816126,20180518,159
12910560,20180519,148
13003061,20180520,131
13095944,20180521,152
13190884,20180522,120
13285937,20180523,145
13380802,20180524,175
13476385,20180525,185
13571385,20180526,162
13664258,20180527,154
13756821,20180528,145
13850649,20180529,173
13944969,20180530,164
14040057,20180531,183
14133986,20180601,169
14228435,20180602,204
14322102,20180603,160
14415616,20180604,206
14510145,20180605,214
14605603,20180606,207
14700965,20180607,198
14796527,20180608,203
14891821,20180609,205
14985396,20180610,195
15078573,20180611,206
15173492,20180612,228
15268113,20180613,241
15362747,20180614,202
15457237,20180615,212
15551557,20180616,127
15644301,20180617,119
15737755,20180618,166
15833807,20180619,186
15928884,20180620,203
16023915,20180621,224
16117957,20180622,218
16211676,20180623,210
16304087,20180624,188
16397432,20180625,214
16492494,20180626,245
16587398,20180627,253
16682099,20180628,241
16776704,20180629,215
16871201,20180630,205
16964917,20180701,223
17059044,20180702,229
17154994,20180703,209
17250731,20180704,225
17345782,20180705,217
17441509,20180706,231
17535936,20180707,233
17628496,20180708,227
17720852,20180709,220
17816982,20180710,215
17912625,20180711,209
18008040,20180712,199
18103494,20180713,202
18198706,20180714,203
18292476,20180715,203
18386125,20180716,229
18481304,20180717,227
18575843,20180718,222
18670262,20180719,241
18765280,20180720,201
18859417,20180721,217
18951723,20180722,236
19043809,20180723,241
19137824,20180724,222
19231601,20180725,212
19325599,20180726,215
19419782,20180727,200
19513329,20180728,215
19605620,20180729,227
19698382,20180730,206
19793191,20180731,223
19886735,20180801,235
19980014,20180802,230
20073356,20180803,183
20166461,20180804,227
20258311,20180805,230
20350791,20180806,229
20446111,20180807,236
20540788,20180808,232
20634563,20180809,232
20728238,20180810,229
20821920,20180811,219
20913941,20180812,235
21006155,20180813,234
21100567,20180814,225
21195014,20180815,177
21288685,20180816,194
21381865,20180817,204
21475381,20180818,185
21567304,20180819,188
21659554,20180820,224
21753697,20180821,197
21846801,20180822,151
21939498,20180823,177
22033607,20180824,198
22127940,20180825,184
22220678,20180826,180
22313445,20180827,179
22408654,20180828,180
22503661,20180829,198
22598289,20180830,209
22692105,20180831,193
22785480,20180901,155
22877635,20180902,152
22968928,20180903,146
23062886,20180904,162
23157599,20180905,126
23252077,20180906,148
23345994,20180907,175
23438932,20180908,190
23530423,20180909,186
23622062,20180910,188
23715917,20180911,192
23809198,20180912,185
23902447,20180913,187
23995849,20180914,195
24088827,20180915,205
24180284,20180916,202
24271261,20180917,210
24358148,20180918,208
24448977,20180919,147
24543047,20180920,149
24636891,20180921,186
24730466,20180922,176
24821839,20180923,173
24913221,20180924,148
25000934,20180925,155
25093806,20180926,155
25186748,20180927,190
25279308,20180928,185
25372080,20180929,178
25463669,20180930,169
25555631,20181001,106
25650308,20181002,97
25744421,20181003,155
25838333,20181004,101
25932403,20181005,101
26025739,20181006,79
26117577,20181007,39
26209410,20181008,50
26302939,20181009,56
26396878,20181010,46
26490781,20181011,44
26583651,20181012,100
26676911,20181013,94
26768425,20181014,62
26861062,20181015,50
26956471,20181016,90
27050383,20181017,49
27144522,20181018,50
27239165,20181019,94
27332459,20181020,109
27423803,20181021,120
27516099,20181022,124
27611233,20181023,81
27704063,20181024,81
27797412,20181025,72
27891385,20181026,110
27983411,20181027,145
28074654,20181028,134
28166440,20181029,124
28260573,20181030,39
28354403,20181031,46
28448374,20181101,15
28541615,20181102,85
28633943,20181103,18
28724798,20181104,60
28816599,20181105,39
28910115,20181106,56
29002880,20181107,47
29096684,20181108,6
29191138,20181109,56
29285940,20181110,52
29378628,20181111,14
29472695,20181112,-37
29568337,20181113,27
29663432,20181114,80
29757865,20181115,96
29853044,20181116,82
29947720,20181117,68
30033672,20181118,41
30119595,20181119,74
30206203,20181120,76
30292107,20181121,81
30377703,20181122,19
30462161,20181123,24
30554943,20181124,15
30646702,20181125,5
30740392,20181126,47
30836506,20181127,64
30931801,20181128,53
31027434,20181129,42
31122964,20181130,-9
31216910,20181201,-26
31309522,20181202,-55
31402959,20181203,-45
31499158,20181204,-27
31594954,20181205,43
31690966,20181206,-8
31786654,20181207,43
31881280,20181208,18
31974466,20181209,18
32068359,20181210,73
32164848,20181211,61
32260696,20181212,37
32356414,20181213,0
32451555,20181214,74
32545107,20181215,71
32637202,20181216,89
32729765,20181217,50
32825871,20181218,48
32921452,20181219,-7
33016438,20181220,73
33109716,20181221,41
33202376,20181222,-6
33294097,20181223,21
33385906,20181224,16
33477468,20181225,13
33568198,20181226,35
33661119,20181227,-25
33754625,20181228,-63
33847147,20181229,-31
33939069,20181230,41
34030507,20181231,-82
7931,20190101,-68
101309,20190102,-15
195772,20190103,56
289467,20190104,94
382650,20190105,62
474720,20190106,-7
568225,20190107,-27
663421,20190108,70
757761,20190109,55
852360,20190110,53
947157,20190111,15
1041629,20190112,-2
1136323,20190113,1
1230812,20190114,18
1326653,20190115,15
1421868,20190116,11
1516827,20190117,37
1611182,20190118,-19
1705717,20190119,32
1799257,20190120,69
1892493,20190121,-4
1986786,20190122,-35
2082388,20190123,23
2176885,20190124,-19
2270384,20190125,4
2364214,20190126,22
2457592,20190127,70
2551381,20190128,-4
2647362,20190129,25
2742219,20190130,35
2837125,20190131,60
2931871,20190201,63
3026245,20190202,43
3119357,20190203,17
3212110,20190204,21
3307423,20190205,-20
3402167,20190206,-46
3496735,20190207,-58
3591611,20190208,-15
3685301,20190209,-30
3777936,20190210,-5
3870712,20190211,-31
3965873,20190212,23
4059368,20190213,19
4153267,20190214,5
4247247,20190215,40
4341075,20190216,-42
4433085,20190217,-44
4525150,20190218,-78
4619138,20190219,-61
4713831,20190220,-40
4809119,20190221,-57
4903109,20190222,-31
4996550,20190223,-28
5088720,20190224,12
5180462,20190225,39
5274848,20190226,53
5368834,20190227,61
5462597,20190228,36
5555917,20190301,60
5649017,20190302,18
5741105,20190303,21
5834077,20190304,26
5929281,20190305,72
6023369,20190306,28
6117273,20190307,23
6211559,20190308,5
6304949,20190309,12
6396515,20190310,42
6488107,20190311,41
6581997,20190312,35
6674733,20190313,9
6766771,20190314,14
6860568,20190315,65
6953178,20190316,83
7043499,20190317,75
7135107,20190318,38
7229164,20190319,60
7322405,20190320,69
7415094,20190321,7
7507376,20190322,34
7599668,20190323,46
7691358,20190324,47
7782754,20190325,87
7876383,20190326,99
7968308,20190327,121
8060912,20190328,111
8152925,20190329,22
8244850,20190330,43
8335819,20190331,13
8425330,20190401,60
8511397,20190402,87
8597320,20190403,74
8682892,20190404,89
8767983,20190405,78
8851748,20190406,95
8934803,20190407,111
9018437,20190408,124
9103303,20190409,112
9187857,20190410,47
9272619,20190411,-16
9358447,20190412,59
9442761,20190413,39
9525706,20190414,92
9608344,20190415,104
9692918,20190416,59
9777344,20190417,93
9861846,20190418,101
9945607,20190419,139
10028143,20190420,122
10109290,20190421,94
10190736,20190422,103
10274833,20190423,100
10358669,20190424,116
10441735,20190425,138
10524330,20190426,116
10605885,20190427,128
10687068,20190428,118
10769314,20190429,60
10853171,20190430,56
10936058,20190501,51
11009366,20190502,89
11081491,20190503,107
11153088,20190504,119
11223071,20190505,135
11293344,20190506,121
11365602,20190507,105
11438235,20190508,53
11510583,20190509,61
11583063,20190510,68
11653425,20190511,99
11722461,20190512,113
11791776,20190513,143
11862061,20190514,159
11932550,20190515,151
12000729,20190516,126
12059951,20190517,57
12119144,20190518,61
12177563,20190519,47
12237059,20190520,6
12305524,20190521,52
12374707,20190522,40
12443003,20190523,36
12509514,20190524,77
12576042,20190525,109
12641936,20190526,123
12708145,20190527,58
12775062,20190528,78
12842781,20190529,110
12909974,20190530,126
12975108,20190531,149
