,date,data_value
19503628,20160720,14
19599504,20160721,11
19695797,20160722,14
19791553,20160723,14
19886049,20160724,18
19980651,20160725,14
20077565,20160726,14
20173567,20160727,15
20269692,20160728,14
20365849,20160729,15
20461045,20160730,17
20554668,20160731,14
20648759,20160801,16
20745049,20160802,15
20841433,20160803,14
20937759,20160804,10
21034242,20160805,17
21129782,20160806,15
21223900,20160807,14
21318456,20160808,17
21415639,20160809,17
21511912,20160810,17
21608015,20160811,18
21704107,20160812,16
21799925,20160813,15
21893880,20160814,16
21988173,20160815,16
22084689,20160816,17
22180849,20160817,14
22276514,20160818,13
22372665,20160819,11
22468192,20160820,16
22561856,20160821,15
22655665,20160822,10
22752106,20160823,14
22849169,20160824,15
22946019,20160825,20
23042540,20160826,13
23138638,20160827,13
23233019,20160828,13
23327811,20160829,11
23425001,20160830,17
23521696,20160831,12
23617948,20160901,16
23714070,20160902,13
23809237,20160903,15
23903380,20160904,35
23998131,20160905,32
24094293,20160906,32
24191355,20160907,13
24288086,20160908,15
24384080,20160909,17
24480128,20160910,20
24574700,20160911,20
24669105,20160912,19
24766641,20160913,26
24863183,20160914,26
24959463,20160915,19
25055620,20160916,17
25152250,20160917,21
25246317,20160918,19
25340702,20160919,15
25437372,20160920,22
25533590,20160921,13
25630302,20160922,34
25726544,20160923,23
25821935,20160924,11
25915822,20160925,12
26010570,20160926,14
26106745,20160927,15
26201712,20160928,23
26297153,20160929,21
26391981,20160930,13
26486673,20161001,13
26580242,20161002,23
26674412,20161003,39
26771222,20161004,19
26868446,20161005,23
26965703,20161006,16
27062481,20161007,16
27158384,20161008,13
27252355,20161009,11
27346475,20161010,17
27443060,20161011,21
27540588,20161012,17
27637621,20161013,18
27733949,20161014,21
27830248,20161015,21
27924859,20161016,29
28020126,20161017,34
28117745,20161018,30
28215114,20161019,18
28312489,20161020,16
28409387,20161021,15
28505293,20161022,20
28599436,20161023,16
28694629,20161024,25
28792364,20161025,9
28889502,20161026,10
28986656,20161027,13
29083449,20161028,18
29179871,20161029,18
29274607,20161030,25
29369804,20161031,35
29467455,20161101,23
29565626,20161102,14
29663495,20161103,18
29760643,20161104,15
29857112,20161105,11
29953045,20161106,9
30049008,20161107,13
30147210,20161108,13
30244462,20161109,12
30340887,20161110,14
30437810,20161111,13
30534984,20161112,12
30630730,20161113,14
30726917,20161114,19
30825022,20161115,17
30922641,20161116,36
31020348,20161117,31
31118688,20161118,8
31217799,20161119,12
31313368,20161120,18
31409541,20161121,20
31507650,20161122,10
31604823,20161123,15
31700152,20161124,23
31793910,20161125,14
31888526,20161126,17
31983060,20161127,36
32078997,20161128,7
32176205,20161129,12
32272684,20161130,12
32369309,20161201,10
32466024,20161202,12
32563571,20161203,14
32659536,20161204,18
32755179,20161205,19
32853902,20161206,32
32951081,20161207,16
33049049,20161208,11
33148034,20161209,13
33247023,20161210,13
33343744,20161211,12
33441574,20161212,10
33540629,20161213,11
33638396,20161214,13
33736366,20161215,12
33834814,20161216,50
33933068,20161217,24
34030682,20161218,11
34127943,20161219,14
34225843,20161220,13
34323395,20161221,14
34420566,20161222,18
34517602,20161223,16
34613401,20161224,38
34706828,20161225,26
34799838,20161226,11
34894598,20161227,12
34989591,20161228,17
35085240,20161229,13
35181064,20161230,12
35276929,20161231,9
7874,20170101,11
102128,20170102,17
198035,20170103,7
295548,20170104,12
392763,20170105,31
492700,20170106,14
593643,20170107,9
691969,20170108,1
790482,20170109,1
890533,20170110,10
989319,20170111,25
1086938,20170112,17
1184086,20170113,12
1280666,20170114,8
1375962,20170115,12
1471585,20170116,9
1569617,20170117,10
1667407,20170118,10
1764098,20170119,11
1860985,20170120,12
1957461,20170121,14
2052114,20170122,12
2146998,20170123,48
2244481,20170124,9
2342127,20170125,13
2439868,20170126,10
2536666,20170127,18
2633993,20170128,31
2729892,20170129,18
2825773,20170130,16
2924818,20170131,14
3023335,20170201,21
3123137,20170202,15
3221904,20170203,27
3319739,20170204,11
3415736,20170205,14
3511692,20170206,15
3611002,20170207,10
3708883,20170208,9
3806854,20170209,14
3905248,20170210,26
4003489,20170211,29
4099787,20170212,7
4195952,20170213,8
4294732,20170214,11
4392504,20170215,11
4489581,20170216,14
4586667,20170217,13
4683319,20170218,27
4778096,20170219,18
4873020,20170220,16
4969989,20170221,18
5066770,20170222,41
5163093,20170223,35
5260326,20170224,15
5358238,20170225,16
5453607,20170226,15
5548132,20170227,34
5640437,20170228,11
5731885,20170301,14
5823583,20170302,15
5914559,20170303,13
6006765,20170304,27
6103278,20170305,51
6199617,20170306,38
6298077,20170307,16
6395419,20170308,16
6492212,20170309,13
6590028,20170310,16
6687356,20170311,16
6783292,20170312,16
6879400,20170313,17
6978510,20170314,15
7076101,20170315,19
7174403,20170316,16
7271896,20170317,17
7369124,20170318,25
7464372,20170319,20
7559930,20170320,19
7658481,20170321,31
7755782,20170322,37
7853044,20170323,38
7950539,20170324,24
8047394,20170325,24
8142072,20170326,9
8236340,20170327,23
8333120,20170328,17
8429342,20170329,25
8526082,20170330,35
8622647,20170331,35
8717977,20170401,17
8813632,20170402,14
8909638,20170403,15
9007449,20170404,22
9104349,20170405,16
9201718,20170406,15
9297941,20170407,16
9394801,20170408,45
9490456,20170409,31
9586657,20170410,16
9685416,20170411,24
9782729,20170412,20
9879734,20170413,36
9976504,20170414,33
10072626,20170415,20
10167509,20170416,17
10262544,20170417,27
10358864,20170418,35
10455000,20170419,29
10551474,20170420,33
10647643,20170421,15
10743360,20170422,15
10837635,20170423,38
10931978,20170424,28
11028975,20170425,19
11125486,20170426,21
11221768,20170427,18
11317588,20170428,18
11413258,20170429,16
11508562,20170430,30
11603785,20170501,14
11700417,20170502,18
11795571,20170503,21
11891848,20170504,15
11987916,20170505,19
12082682,20170506,29
12175836,20170507,41
12269935,20170508,29
23159154,20170831,202
23254101,20170901,234
23348150,20170902,172
23441010,20170903,263
23533860,20170904,227
23628724,20170905,205
23724444,20170906,214
23818790,20170907,237
23912782,20170908,178
24007083,20170909,204
24100157,20170910,224
24193694,20170911,195
24289154,20170912,252
24383498,20170913,241
24477775,20170914,178
24572007,20170915,204
24666162,20170916,218
24759468,20170917,203
24853099,20170918,206
24948509,20170919,221
25043123,20170920,203
25137588,20170921,193
25232507,20170922,186
25327331,20170923,153
25420585,20170924,184
25514279,20170925,243
25610501,20170926,187
25706007,20170927,113
25800723,20170928,144
25895057,20170929,138
25988973,20170930,178
26080890,20171001,219
26174745,20171002,236
26271392,20171003,159
26367659,20171004,172
26463309,20171005,221
26558735,20171006,262
26653802,20171007,230
26747176,20171008,208
26839535,20171009,271
26934965,20171010,222
27030483,20171011,206
27125605,20171012,215
27220667,20171013,227
27315637,20171014,265
27409461,20171015,226
27503316,20171016,249
27598629,20171017,229
27694379,20171018,231
27790752,20171019,210
27887246,20171020,198
27982953,20171021,251
28076768,20171022,256
28170313,20171023,261
28265686,20171024,231
28360217,20171025,232
28455638,20171026,294
28551759,20171027,282
28648131,20171028,235
28742180,20171029,230
28835370,20171030,222
28931164,20171031,248
29026992,20171101,251
29123925,20171102,231
29220184,20171103,189
29316358,20171104,208
29410925,20171105,253
29505387,20171106,258
29601919,20171107,276
29698638,20171108,211
29794649,20171109,242
29890231,20171110,217
29985441,20171111,235
30080683,20171112,209
30175295,20171113,227
30271637,20171114,251
30368168,20171115,209
30464614,20171116,225
30560272,20171117,254
30656819,20171118,244
30751736,20171119,224
30845756,20171120,237
30943463,20171121,284
31040385,20171122,235
31135174,20171123,250
31228654,20171124,243
31323409,20171125,238
31417787,20171126,231
31512990,20171127,211
31610550,20171128,185
31707683,20171129,211
31804492,20171130,220
31900838,20171201,229
31996533,20171202,231
32091951,20171203,203
32187943,20171204,241
32286353,20171205,220
32382813,20171206,262
32478799,20171207,248
32575989,20171208,302
32673517,20171209,238
32770246,20171210,233
32867863,20171211,232
32966787,20171212,236
33064815,20171213,243
33162704,20171214,154
33261910,20171215,241
33359402,20171216,237
33456049,20171217,242
33551387,20171218,239
33648378,20171219,229
33745190,20171220,184
33841746,20171221,204
33938892,20171222,250
34035827,20171223,256
34130431,20171224,249
34224709,20171225,255
34319228,20171226,238
34415063,20171227,224
34510682,20171228,252
34606690,20171229,251
34703147,20171230,234
34799133,20171231,238
8126,20180101,247
104417,20180102,225
201875,20180103,227
299547,20180104,233
398041,20180105,243
495671,20180106,257
591573,20180107,227
687789,20180108,203
785076,20180109,156
881587,20180110,222
978273,20180111,270
1074696,20180112,252
1170600,20180113,236
1266176,20180114,238
1362385,20180115,241
1461385,20180116,231
1560224,20180117,196
1659126,20180118,210
1757487,20180119,253
1854676,20180120,164
1950281,20180121,245
2046955,20180122,233
2144774,20180123,224
2240863,20180124,231
2337146,20180125,163
2434581,20180126,275
2531302,20180127,238
2625994,20180128,215
2720032,20180129,220
2817211,20180130,243
2914635,20180131,241
3011953,20180201,252
3109981,20180202,240
3206800,20180203,277
3302289,20180204,263
3398564,20180205,262
3497167,20180206,285
3595834,20180207,231
3693580,20180208,259
3790798,20180209,242
3888988,20180210,261
3984817,20180211,179
4080886,20180212,149
4178147,20180213,199
4274524,20180214,198
4370830,20180215,278
4466757,20180216,226
4562800,20180217,227
4657019,20180218,196
4752683,20180219,219
4849650,20180220,238
4947155,20180221,146
5043055,20180222,220
5139434,20180223,193
5236820,20180224,264
5331898,20180225,272
5426619,20180226,188
5523427,20180227,188
5619935,20180228,236
5715595,20180301,201
5811164,20180302,180
5907161,20180303,172
6002614,20180304,220
6097627,20180305,260
6190413,20180306,244
6282288,20180307,230
6374242,20180308,242
6466249,20180309,242
6557645,20180310,257
6647499,20180311,199
6736708,20180312,192
6828305,20180313,230
6920267,20180314,190
7012499,20180315,228
7104143,20180316,214
7195411,20180317,192
7284892,20180318,229
7374318,20180319,242
7466752,20180320,237
7557890,20180321,195
7649625,20180322,206
7741601,20180323,231
7832564,20180324,197
7922247,20180325,177
8011773,20180326,218
8103979,20180327,196
8195163,20180328,275
8285398,20180329,270
8375785,20180330,243
8464769,20180331,260
8553634,20180401,228
8643809,20180402,255
8736629,20180403,278
8828611,20180404,235
8919641,20180405,269
9011052,20180406,220
9102589,20180407,209
9192807,20180408,273
9281883,20180409,285
9374205,20180410,221
9464904,20180411,234
9555498,20180412,227
9647083,20180413,292
9738820,20180414,286
9828395,20180415,231
9918174,20180416,152
10009918,20180417,252
10101727,20180418,208
10193457,20180419,146
10284987,20180420,194
10376283,20180421,229
10466443,20180422,204
10555770,20180423,231
10647058,20180424,252
10737793,20180425,232
10828542,20180426,248
10918665,20180427,204
11008526,20180428,178
11096948,20180429,182
11185995,20180430,203
11277066,20180501,184
11367420,20180502,123
11458087,20180503,248
11548591,20180504,228
11637749,20180505,248
11725537,20180506,224
11813230,20180507,222
11903168,20180508,269
11993724,20180509,237
12083807,20180510,232
12173608,20180511,207
12263028,20180512,196
12351256,20180513,202
12439558,20180514,206
12531019,20180515,213
12626555,20180516,204
12721236,20180517,206
12816131,20180518,226
12910565,20180519,225
13003066,20180520,201
13095949,20180521,129
13190889,20180522,175
13285942,20180523,208
13380807,20180524,204
13476390,20180525,197
13571390,20180526,183
13664263,20180527,188
13756826,20180528,253
13850654,20180529,257
13944974,20180530,217
14040062,20180531,204
14133991,20180601,232
14228440,20180602,213
14322107,20180603,153
14415621,20180604,232
14510150,20180605,228
14605608,20180606,210
14700970,20180607,205
14796532,20180608,237
14891826,20180609,207
14985401,20180610,228
15078578,20180611,235
15173497,20180612,232
15268118,20180613,231
15362752,20180614,206
15457242,20180615,223
15551562,20180616,131
15644306,20180617,164
15737760,20180618,208
15833812,20180619,244
15928889,20180620,276
16023920,20180621,220
16117962,20180622,251
16211681,20180623,238
16304092,20180624,264
16397437,20180625,242
16492499,20180626,237
16587403,20180627,237
16682104,20180628,209
16776709,20180629,253
16871206,20180630,250
16964922,20180701,237
17059049,20180702,226
17154999,20180703,193
17250736,20180704,241
17345787,20180705,156
17441514,20180706,153
17535941,20180707,199
17628501,20180708,204
17720857,20180709,191
17816987,20180710,236
17912630,20180711,219
18008045,20180712,213
18103499,20180713,190
18198711,20180714,198
18292481,20180715,198
18386130,20180716,191
18481309,20180717,201
18575848,20180718,255
18670267,20180719,232
18765285,20180720,177
18859422,20180721,214
18951728,20180722,205
19043814,20180723,231
19137829,20180724,217
19231606,20180725,199
19325604,20180726,238
19419787,20180727,182
19513334,20180728,241
19605625,20180729,255
19698387,20180730,258
19793196,20180731,269
19886740,20180801,229
19980019,20180802,269
20073361,20180803,254
20166466,20180804,234
20258316,20180805,235
20350796,20180806,236
20446116,20180807,242
20540793,20180808,277
20634568,20180809,170
20728243,20180810,186
20821925,20180811,220
20913946,20180812,234
21006160,20180813,262
21100572,20180814,238
21195019,20180815,192
21288690,20180816,193
21381870,20180817,212
21475386,20180818,244
21567309,20180819,266
21659559,20180820,246
21753702,20180821,190
21846806,20180822,198
21939503,20180823,260
22033612,20180824,235
22127945,20180825,189
22220683,20180826,243
22313450,20180827,254
22408659,20180828,230
22503666,20180829,242
22598294,20180830,247
22692110,20180831,239
22785485,20180901,183
22877640,20180902,205
22968933,20180903,221
23062891,20180904,205
23157604,20180905,169
23252082,20180906,174
23345999,20180907,234
23438937,20180908,256
23530428,20180909,253
23622067,20180910,195
23715922,20180911,210
23809203,20180912,209
23902452,20180913,210
23995854,20180914,207
24088832,20180915,235
24180289,20180916,236
24271266,20180917,233
24358153,20180918,234
24448982,20180919,196
24543052,20180920,257
24636896,20180921,218
24730471,20180922,215
24821844,20180923,235
24913226,20180924,248
25000939,20180925,244
25093811,20180926,240
25186753,20180927,243
25279313,20180928,237
25372085,20180929,241
25463674,20180930,222
25555636,20181001,155
25650313,20181002,107
25744426,20181003,222
25838338,20181004,214
25932408,20181005,227
26025744,20181006,175
26117582,20181007,119
26209415,20181008,118
26302944,20181009,210
26396883,20181010,251
26490786,20181011,187
26583656,20181012,234
26676916,20181013,239
26768430,20181014,259
26861067,20181015,182
26956476,20181016,173
27050388,20181017,114
27144527,20181018,144
27239170,20181019,196
27332464,20181020,212
27423808,20181021,208
27516104,20181022,168
27611238,20181023,107
27704068,20181024,221
27797417,20181025,260
27891390,20181026,239
27983416,20181027,250
28074659,20181028,235
28166445,20181029,247
28260578,20181030,211
28354408,20181031,223
28448379,20181101,305
28541620,20181102,245
28633948,20181103,296
28724803,20181104,263
28816604,20181105,282
28910120,20181106,238
29002885,20181107,240
29096689,20181108,247
29191143,20181109,228
29285945,20181110,252
29378633,20181111,248
29472700,20181112,225
29568342,20181113,175
29663437,20181114,232
29757870,20181115,235
29853049,20181116,232
29947725,20181117,233
30033677,20181118,228
30119600,20181119,233
30206208,20181120,226
30292112,20181121,225
30377708,20181122,228
30462166,20181123,218
30554948,20181124,298
30646707,20181125,204
30740397,20181126,227
30836511,20181127,237
30931806,20181128,241
31027439,20181129,166
31122969,20181130,204
31216915,20181201,260
31309527,20181202,192
31402964,20181203,242
31499163,20181204,224
31594959,20181205,223
31690971,20181206,194
31786659,20181207,228
31881285,20181208,258
31974471,20181209,240
32068364,20181210,235
32164853,20181211,215
32260701,20181212,270
32356419,20181213,238
32451560,20181214,228
32545112,20181215,220
32637207,20181216,218
32729770,20181217,200
32825876,20181218,229
32921457,20181219,319
33016443,20181220,242
33109721,20181221,236
33202381,20181222,255
33294102,20181223,222
33385911,20181224,242
33477473,20181225,120
33568203,20181226,173
33661124,20181227,208
33754630,20181228,188
33847152,20181229,202
33939074,20181230,244
34030512,20181231,150
7936,20190101,133
101314,20190102,229
195777,20190103,219
289472,20190104,225
382655,20190105,170
474725,20190106,197
568230,20190107,215
663426,20190108,211
757766,20190109,195
852365,20190110,221
947162,20190111,220
1041634,20190112,141
1136328,20190113,145
1230817,20190114,187
1326658,20190115,150
1421873,20190116,263
1516832,20190117,202
1611187,20190118,312
1705722,20190119,225
1799262,20190120,233
1892498,20190121,190
1986791,20190122,239
2082393,20190123,273
2176890,20190124,279
2270389,20190125,225
2364219,20190126,252
2457597,20190127,232
2551386,20190128,273
2647367,20190129,254
2742224,20190130,249
2837130,20190131,213
2931876,20190201,223
3026250,20190202,182
3119362,20190203,209
3212115,20190204,183
3307428,20190205,188
3402172,20190206,228
3496740,20190207,242
3591616,20190208,165
3685306,20190209,139
3777941,20190210,165
3870717,20190211,218
3965878,20190212,241
4059373,20190213,218
4153272,20190214,196
4247252,20190215,261
4341080,20190216,252
4433090,20190217,190
4525155,20190218,137
4619143,20190219,253
4713836,20190220,190
4809124,20190221,110
4903114,20190222,152
4996555,20190223,251
5088725,20190224,203
5180467,20190225,242
5274853,20190226,244
5368839,20190227,241
5462602,20190228,250
5555922,20190301,257
5649022,20190302,259
5741110,20190303,281
5834082,20190304,259
5929286,20190305,215
6023374,20190306,192
6117278,20190307,263
6211564,20190308,212
6304954,20190309,244
6396520,20190310,173
6488112,20190311,135
6582002,20190312,160
6674738,20190313,295
6766776,20190314,231
6860573,20190315,213
6953183,20190316,228
7043504,20190317,218
7135112,20190318,234
7229169,20190319,255
7322410,20190320,187
7415099,20190321,120
7507381,20190322,218
7599673,20190323,263
7691363,20190324,231
7782759,20190325,220
7876388,20190326,185
7968313,20190327,198
8060917,20190328,225
8152930,20190329,272
8244855,20190330,215
8335824,20190331,160
8425335,20190401,238
8511402,20190402,195
8597325,20190403,201
8682897,20190404,194
8767988,20190405,193
8851753,20190406,227
8934808,20190407,240
9018442,20190408,263
9103308,20190409,212
9187862,20190410,250
9272624,20190411,274
9358452,20190412,184
9442766,20190413,248
9525711,20190414,232
9608349,20190415,221
9692923,20190416,182
9777349,20190417,243
9861851,20190418,310
9945612,20190419,242
10028148,20190420,191
10109295,20190421,194
10190741,20190422,193
10274838,20190423,220
10358674,20190424,236
10441740,20190425,252
10524335,20190426,237
10605890,20190427,237
10687073,20190428,240
10769319,20190429,174
10853176,20190430,195
10936063,20190501,282
11009371,20190502,239
11081496,20190503,219
11153093,20190504,246
11223076,20190505,241
11293349,20190506,192
11365607,20190507,227
11438240,20190508,242
11510588,20190509,190
11583068,20190510,163
11653430,20190511,212
11722466,20190512,209
11791781,20190513,235
11862066,20190514,207
11932554,20190515,207
12000734,20190516,193
12059956,20190517,225
12119149,20190518,289
12177568,20190519,164
12237064,20190520,193
12305529,20190521,273
12374712,20190522,150
12443008,20190523,169
12509519,20190524,203
12576047,20190525,209
12641941,20190526,185
12708150,20190527,166
12775067,20190528,217
12842786,20190529,226
12909979,20190530,180
12975113,20190531,208
