,date,data_value
8665,20100101,-53
114916,20100102,-66
222291,20100103,-95
330519,20100104,-68
440616,20100105,-38
550389,20100106,-26
661066,20100107,-75
772018,20100108,-79
882220,20100109,-37
990113,20100110,-35
1097709,20100111,-31
1207512,20100112,-37
1317385,20100113,-32
1426987,20100114,-45
1536345,20100115,-51
1645750,20100116,-16
1753507,20100117,-31
1861015,20100118,-58
1970194,20100119,-60
2080972,20100120,-75
2190856,20100121,-57
2299673,20100122,-61
2408331,20100123,-88
2515637,20100124,-120
2622736,20100125,-94
2731268,20100126,-63
2840303,20100127,-42
2949953,20100128,-23
3059934,20100129,-55
3169288,20100130,-36
3277167,20100131,-73
3385303,20100201,-102
3495908,20100202,-70
3605369,20100203,-53
3715436,20100204,-48
3825829,20100205,-45
3934874,20100206,-40
4043137,20100207,-43
4151716,20100208,-74
4263390,20100209,-76
4374378,20100210,-76
4484394,20100211,-107
4594117,20100212,-78
4703530,20100213,-55
4811985,20100214,-63
4920779,20100215,-69
5030632,20100216,-70
5140338,20100217,-60
5250003,20100218,-61
5359448,20100219,-52
5469205,20100220,-50
5577630,20100221,-64
5686690,20100222,-113
5797090,20100223,-108
5906426,20100224,-75
6015843,20100225,-71
6125030,20100226,-71
6234380,20100227,-34
6341733,20100228,-46
6449236,20100301,-52
6559726,20100302,-39
6669261,20100303,-23
6779098,20100304,-20
6888607,20100305,-77
6998316,20100306,-32
7106875,20100307,-8
7215372,20100308,-47
7325982,20100309,-61
7435799,20100310,-55
7545707,20100311,-73
7655407,20100312,-44
7764023,20100313,-22
7870691,20100314,-51
7978248,20100315,-36
8087814,20100316,-13
8196875,20100317,13
8306352,20100318,14
8415422,20100319,-47
8525577,20100320,-88
8634721,20100321,-21
8742449,20100322,-6
8851180,20100323,-31
8959834,20100324,-51
9069701,20100325,-23
9178361,20100326,-40
9286015,20100327,-61
9393462,20100328,-35
9500629,20100329,5
9609281,20100330,43
9718299,20100331,10
9827618,20100401,-56
9937372,20100402,-88
10046994,20100403,-24
10155039,20100404,18
10262734,20100405,22
10372638,20100406,-72
10482582,20100407,-45
10592915,20100408,-17
10701584,20100409,10
10809523,20100410,21
10917256,20100411,40
11024930,20100412,51
11134706,20100413,-27
11244280,20100414,15
11354033,20100415,35
11464019,20100416,39
11573278,20100417,32
11680307,20100418,35
11787741,20100419,30
11897217,20100420,41
12006683,20100421,39
12116048,20100422,-21
12225486,20100423,-19
12334510,20100424,-4
12441643,20100425,23
12548517,20100426,27
12656806,20100427,49
12765237,20100428,61
12873472,20100429,-49
12982931,20100430,-63
13092126,20100501,-34
13199570,20100502,-24
13307196,20100503,5
13416169,20100504,40
13525223,20100505,62
13635043,20100506,45
13744878,20100507,11
13854856,20100508,54
13962462,20100509,69
14070608,20100510,26
14181674,20100511,2
14291183,20100512,-14
14401955,20100513,3
14512159,20100514,21
14621469,20100515,14
14729274,20100516,44
14837239,20100517,75
14946361,20100518,35
15054929,20100519,37
15164112,20100520,63
15273533,20100521,100
15382298,20100522,88
15489936,20100523,84
15598066,20100524,7
15709138,20100525,55
15819520,20100526,82
15929252,20100527,111
16039007,20100528,127
16148038,20100529,79
16255302,20100530,63
16363029,20100531,87
16471640,20100601,83
16581203,20100602,79
16691015,20100603,94
16799958,20100604,118
16909073,20100605,136
17016712,20100606,148
17124050,20100607,138
17233212,20100608,135
17343276,20100609,142
17452129,20100610,119
17559897,20100611,85
17669321,20100612,45
17777876,20100613,43
17885870,20100614,54
17995568,20100615,84
18105167,20100616,115
18214232,20100617,97
18323254,20100618,110
18432257,20100619,116
18540334,20100620,109
18648590,20100621,109
18759133,20100622,102
18869289,20100623,118
18979569,20100624,139
19088967,20100625,136
19198248,20100626,129
19306074,20100627,108
19414075,20100628,102
19523342,20100629,116
19631714,20100630,127
19740208,20100701,129
19848959,20100702,113
19956872,20100703,122
20063745,20100704,101
20171867,20100705,104
20280896,20100706,119
20391215,20100707,102
20501186,20100708,95
20610745,20100709,107
20719566,20100710,112
20826965,20100711,122
20935118,20100712,131
21044813,20100713,153
21154013,20100714,146
21262919,20100715,156
21372733,20100716,164
21482316,20100717,166
21590511,20100718,163
21698722,20100719,168
21808317,20100720,158
21917415,20100721,119
22026673,20100722,115
22135448,20100723,116
22244052,20100724,112
22351276,20100725,132
22458517,20100726,118
22567571,20100727,130
22676470,20100728,140
22785458,20100729,122
22893268,20100730,120
23000941,20100731,115
23107744,20100801,117
23215466,20100802,114
23325723,20100803,118
23435963,20100804,107
23546481,20100805,96
23656213,20100806,128
23765193,20100807,106
23873047,20100808,122
23981539,20100809,107
24091763,20100810,101
24201887,20100811,98
24312511,20100812,114
24422676,20100813,109
24532160,20100814,119
24640017,20100815,137
24747559,20100816,111
24857080,20100817,116
24966771,20100818,123
25075866,20100819,100
25185697,20100820,100
25295184,20100821,117
25403313,20100822,131
25511187,20100823,121
25621582,20100824,117
25731423,20100825,117
25840731,20100826,117
25950562,20100827,118
26059899,20100828,94
26168136,20100829,102
26276296,20100830,88
26386105,20100831,96
26495568,20100901,91
26605850,20100902,109
26716127,20100903,111
26825419,20100904,112
26932695,20100905,121
27040582,20100906,95
27149481,20100907,92
27258961,20100908,89
27368008,20100909,80
27476634,20100910,53
27585772,20100911,68
27693298,20100912,88
27800193,20100913,100
27910100,20100914,97
28020068,20100915,97
28130151,20100916,98
28239417,20100917,105
28347970,20100918,110
28455677,20100919,120
28563360,20100920,106
28673148,20100921,100
28782711,20100922,65
28892259,20100923,56
29000759,20100924,70
29109025,20100925,92
29215803,20100926,106
29322302,20100927,118
29430596,20100928,120
29538956,20100929,123
29647699,20100930,119
29756359,20101001,106
29864444,20101002,94
29971454,20101003,77
30078763,20101004,61
30188032,20101005,76
30297009,20101006,66
30406066,20101007,67
30514954,20101008,32
30623517,20101009,28
30731192,20101010,34
30839133,20101011,42
30948671,20101012,49
31057679,20101013,47
31166506,20101014,54
31275397,20101015,59
31383324,20101016,56
31490692,20101017,41
31598421,20101018,25
31708376,20101019,33
31817547,20101020,55
31927008,20101021,24
32035912,20101022,8
32144334,20101023,14
32251702,20101024,24
32358992,20101025,-24
32468117,20101026,-61
32576512,20101027,-61
32684817,20101028,-1
32793043,20101029,34
32900946,20101030,43
33008004,20101031,8
33115235,20101101,0
33224843,20101102,44
33334081,20101103,48
33443196,20101104,35
33551369,20101105,39
33659082,20101106,45
33766415,20101107,25
33874450,20101108,27
33984548,20101109,-60
34094957,20101110,-70
34205326,20101111,-75
34315244,20101112,-79
34425004,20101113,-65
34533017,20101114,-57
34640931,20101115,-50
34750903,20101116,-45
34859895,20101117,-48
34968618,20101118,-19
35077394,20101119,-5
35187087,20101120,11
35295889,20101121,-38
35405152,20101122,-114
35515907,20101123,-77
35625194,20101124,-115
35733554,20101125,-155
35839962,20101126,-60
35945810,20101127,-43
36051960,20101128,-80
36158969,20101129,-123
36269148,20101130,-90
36377464,20101201,-20
36486152,20101202,-17
36595186,20101203,3
36705078,20101204,5
36814019,20101205,1
36922863,20101206,-21
37033458,20101207,-43
37143614,20101208,-17
37253477,20101209,7
37363246,20101210,-8
37473091,20101211,-42
37581506,20101212,8
37689590,20101213,4
37799548,20101214,9
37909376,20101215,-16
38019187,20101216,-35
38128916,20101217,-57
38238380,20101218,-34
38346320,20101219,-1
38453819,20101220,-2
38563661,20101221,-18
38673255,20101222,-3
38781679,20101223,-11
38889631,20101224,-46
38996258,20101225,-40
39102082,20101226,-46
39209087,20101227,-73
39317729,20101228,-81
39425967,20101229,-70
39534661,20101230,-107
39642658,20101231,-197
8228,20110101,-202
109508,20110102,-117
210126,20110103,-71
313081,20110104,-105
416677,20110105,-86
520015,20110106,-43
623031,20110107,-31
727477,20110108,-42
831009,20110109,-68
935263,20110110,-185
1044410,20110111,-137
1151414,20110112,-62
1257634,20110113,-38
1362652,20110114,-31
1466815,20110115,-29
1568989,20110116,-13
1671072,20110117,0
1774938,20110118,-20
1879099,20110119,-52
1982944,20110120,-78
2089010,20110121,-41
2193782,20110122,-54
2296277,20110123,-86
2398578,20110124,-89
2503281,20110125,-79
2606055,20110126,-80
2709612,20110127,-35
2813502,20110128,-14
2916661,20110129,-23
3018107,20110130,-46
3119939,20110131,-66
3224389,20110201,-144
3330412,20110202,-221
3435152,20110203,-91
3538650,20110204,-51
3641964,20110205,-56
3743974,20110206,-108
3846741,20110207,-59
3951826,20110208,-112
4056502,20110209,-161
4161365,20110210,-121
4265831,20110211,-79
4368531,20110212,-45
4469759,20110213,-7
4570853,20110214,4
4674467,20110215,-2
4777029,20110216,0
4880034,20110217,-36
4983148,20110218,-28
5085377,20110219,-21
5186175,20110220,-80
5287715,20110221,-104
5391051,20110222,-90
5493999,20110223,-56
5596852,20110224,-60
5700593,20110225,-54
5804554,20110226,-55
5906704,20110227,-65
6008938,20110228,-54
6112142,20110301,-20
6213425,20110302,-7
6315526,20110303,-4
6417714,20110304,-74
6519718,20110305,-49
6619295,20110306,-42
6719692,20110307,-32
6823702,20110308,-60
6927247,20110309,-55
7029638,20110310,-14
7131074,20110311,9
7232250,20110312,14
7332411,20110313,-3
7432966,20110314,7
7535762,20110315,6
7636644,20110316,37
7737740,20110317,22
7838414,20110318,13
7939908,20110319,28
8039584,20110320,15
8139540,20110321,13
8242695,20110322,-56
8345289,20110323,-33
8448554,20110324,-25
8550618,20110325,-31
8652406,20110326,-37
8752770,20110327,-20
8853520,20110328,1
8956177,20110329,-18
9057999,20110330,9
9158654,20110331,49
9259482,20110401,46
9360942,20110402,64
9460457,20110403,-13
9561172,20110404,-31
9664480,20110405,34
9765318,20110406,16
9866516,20110407,0
9968387,20110408,17
10070541,20110409,-28
10170698,20110410,-59
10270890,20110411,-1
10373005,20110412,22
10473329,20110413,15
10574322,20110414,-23
10676180,20110415,-3
10778063,20110416,29
10877250,20110417,49
10976313,20110418,41
11078815,20110419,13
11181165,20110420,49
11282984,20110421,41
11384192,20110422,18
11484246,20110423,15
11583027,20110424,-2
11681892,20110425,-2
11783122,20110426,-45
11883906,20110427,-46
11984171,20110428,6
12083557,20110429,22
12182340,20110430,-61
12281099,20110501,-66
12380472,20110502,-33
12481597,20110503,9
12581804,20110504,37
12681791,20110505,42
12782018,20110506,60
12882180,20110507,77
12980216,20110508,72
13078959,20110509,13
13181182,20110510,-3
13283030,20110511,-13
13384930,20110512,17
13486306,20110513,58
13586560,20110514,69
13684511,20110515,74
13781964,20110516,69
13881698,20110517,26
13981608,20110518,-5
14082004,20110519,-16
14182572,20110520,1
14283085,20110521,26
14381780,20110522,51
14480947,20110523,57
14581962,20110524,16
14682808,20110525,50
14783828,20110526,75
14884271,20110527,77
14983892,20110528,97
15081998,20110529,96
15180485,20110530,21
15280328,20110531,66
15380979,20110601,117
15482763,20110602,99
15584193,20110603,77
15684858,20110604,97
15784780,20110605,105
15884501,20110606,119
15986876,20110607,81
16089002,20110608,100
16191429,20110609,79
16293062,20110610,86
16393509,20110611,94
16492403,20110612,91
16591299,20110613,88
16691681,20110614,96
16792667,20110615,110
16893604,20110616,128
16994231,20110617,91
17094616,20110618,105
17193526,20110619,76
17292385,20110620,47
17393951,20110621,95
17495077,20110622,119
17595353,20110623,136
17694923,20110624,130
17793825,20110625,132
17892111,20110626,126
17990978,20110627,129
18091622,20110628,152
18191387,20110629,153
18291168,20110630,113
18390659,20110701,124
18490189,20110702,146
18589086,20110703,136
18688155,20110704,134
18787642,20110705,128
18888248,20110706,128
18989244,20110707,117
19089714,20110708,129
19189193,20110709,121
19287140,20110710,125
19386097,20110711,109
19487374,20110712,100
19587605,20110713,117
19687699,20110714,118
19787243,20110715,122
19886904,20110716,138
19985011,20110717,154
20083803,20110718,141
20184741,20110719,119
20284903,20110720,138
20384823,20110721,135
20485305,20110722,136
20585377,20110723,148
20683938,20110724,143
20782445,20110725,125
20882724,20110726,113
20982813,20110727,124
21082883,20110728,133
21182920,20110729,135
21282726,20110730,119
21380449,20110731,127
21478331,20110801,114
21578785,20110802,117
21679485,20110803,134
21780008,20110804,123
21880091,20110805,125
21980118,20110806,124
22078435,20110807,125
22176598,20110808,125
22277555,20110809,125
22377691,20110810,130
22477690,20110811,131
22577854,20110812,134
22678264,20110813,147
22777131,20110814,125
22875257,20110815,133
22975723,20110816,138
23076203,20110817,150
23176556,20110818,143
23277561,20110819,115
23377722,20110820,112
23476179,20110821,123
23574571,20110822,125
23674785,20110823,133
23774915,20110824,138
23874985,20110825,125
23974588,20110826,118
24073483,20110827,121
24170973,20110828,132
24268589,20110829,115
24368452,20110830,121
24468485,20110831,104
24567675,20110901,130
24668571,20110902,121
24768745,20110903,114
24867531,20110904,105
24965509,20110905,109
25063491,20110906,87
25162777,20110907,90
25261868,20110908,91
25361258,20110909,68
25460671,20110910,71
25558631,20110911,71
25657103,20110912,77
25757770,20110913,70
25858271,20110914,47
25958730,20110915,55
26057758,20110916,52
26156329,20110917,30
26253844,20110918,54
26351489,20110919,71
26451594,20110920,75
26551026,20110921,81
26650154,20110922,76
26748905,20110923,85
26847294,20110924,90
26944531,20110925,89
27042018,20110926,86
27141553,20110927,92
27240505,20110928,95
27339411,20110929,92
27438666,20110930,66
27536825,20111001,69
27633774,20111002,72
27731181,20111003,72
27830778,20111004,39
27930268,20111005,28
28029582,20111006,-18
28129465,20111007,-34
28229202,20111008,-24
28327341,20111009,-18
28425510,20111010,7
28525363,20111011,37
28624443,20111012,42
28723425,20111013,47
28821092,20111014,70
28918347,20111015,66
29015112,20111016,72
29112655,20111017,35
29212506,20111018,32
29311950,20111019,44
29409779,20111020,44
29507671,20111021,39
29605867,20111022,53
29703481,20111023,50
29801631,20111024,54
29901694,20111025,27
30001140,20111026,2
30101536,20111027,-18
30200641,20111028,-21
30298988,20111029,5
30396016,20111030,18
30494486,20111031,15
30594285,20111101,16
30695165,20111102,-47
30797804,20111103,-12
30898741,20111104,22
30997753,20111105,-40
31096691,20111106,-64
31196167,20111107,-56
31297056,20111108,-79
31397646,20111109,-83
31497996,20111110,-51
31597823,20111111,-17
31696637,20111112,-8
31795466,20111113,-23
31894451,20111114,-51
31995120,20111115,-25
32095125,20111116,-63
32194898,20111117,-42
32294581,20111118,-16
32395229,20111119,-8
32495534,20111120,-8
32594648,20111121,-18
32695008,20111122,-30
32794707,20111123,-5
32893369,20111124,15
32991017,20111125,-17
33089699,20111126,-24
33187731,20111127,-4
33285199,20111128,12
33385255,20111129,3
33484779,20111130,-8
33585118,20111201,-23
33687629,20111202,-49
33789341,20111203,-79
33889760,20111204,-107
33990717,20111205,-152
34093631,20111206,-118
34195373,20111207,-48
34296890,20111208,-69
34398773,20111209,-68
34502118,20111210,-53
34602488,20111211,-60
34702626,20111212,-39
34804891,20111213,-31
34906593,20111214,-76
35008460,20111215,-103
35109320,20111216,-76
35208794,20111217,-42
35308435,20111218,-4
35409077,20111219,-22
35511344,20111220,-56
35613272,20111221,-96
35714314,20111222,-124
35815394,20111223,-110
35915286,20111224,-49
36013447,20111225,-39
36110650,20111226,-23
36208725,20111227,-33
36308301,20111228,-2
36407459,20111229,12
36508083,20111230,3
36608160,20111231,-43
7987,20120101,-28
105953,20120102,-12
205599,20120103,-14
307190,20120104,-12
408264,20120105,2
509068,20120106,-23
609799,20120107,-53
708883,20120108,-88
808279,20120109,-37
908515,20120110,-23
1008871,20120111,-70
1109761,20120112,-97
1211714,20120113,-61
1314378,20120114,-43
1414776,20120115,-40
1515290,20120116,-59
1616793,20120117,-100
1719143,20120118,-55
1820288,20120119,-9
1922178,20120120,-27
2024582,20120121,-46
2125108,20120122,-83
2225816,20120123,-63
2328329,20120124,-64
2429448,20120125,-20
2530338,20120126,-17
2630493,20120127,-73
2730216,20120128,-81
2829022,20120129,-28
2928121,20120130,-42
3029372,20120131,-61
3129668,20120201,-51
3230026,20120202,-56
3330535,20120203,-80
3432305,20120204,-82
3532102,20120205,-67
3631076,20120206,-84
3732566,20120207,-95
3834355,20120208,-38
3935962,20120209,-51
4037338,20120210,-55
4138158,20120211,-33
4238186,20120212,-39
4338485,20120213,-49
4442906,20120214,-65
4545913,20120215,-70
4647481,20120216,-77
4747652,20120217,-80
4846827,20120218,-74
4945021,20120219,-73
5042725,20120220,-116
5143722,20120221,-57
5245117,20120222,-15
5345964,20120223,-75
5446861,20120224,-71
5547996,20120225,-42
5646479,20120226,-73
5745139,20120227,-20
5854305,20120228,-64
5854306,20120229,-66
6043991,20120301,-85
6145197,20120302,-120
6246477,20120303,-88
6344799,20120304,-26
6443472,20120305,-17
6546507,20120306,8
6648061,20120307,-45
6748989,20120308,-34
6849382,20120309,-27
6947870,20120310,-4
7045523,20120311,-7
7143573,20120312,-8
7243386,20120313,11
7343030,20120314,3
7443241,20120315,15
7543313,20120316,25
7642563,20120317,32
7740376,20120318,-38
7838449,20120319,-91
7939495,20120320,-68
8039905,20120321,-17
8139893,20120322,15
8239713,20120323,34
8338772,20120324,45
8435667,20120325,68
8532699,20120326,31
8632413,20120327,23
8732143,20120328,28
8832126,20120329,32
8931012,20120330,38
9029910,20120331,59
9126682,20120401,39
9224550,20120402,-35
9324499,20120403,-9
9424944,20120404,17
9524502,20120405,39
9623788,20120406,14
9722229,20120407,7
9820218,20120408,38
9917597,20120409,54
10017514,20120410,65
10118216,20120411,63
10218193,20120412,-20
10317804,20120413,-35
10417428,20120414,-51
10515106,20120415,-36
10613552,20120416,-23
10713457,20120417,11
10812496,20120418,43
10911884,20120419,32
11010984,20120420,52
11109642,20120421,63
11206120,20120422,73
11303075,20120423,78
11402634,20120424,85
11501977,20120425,63
11600900,20120426,52
11699786,20120427,19
11797926,20120428,18
11895080,20120429,31
11992333,20120430,45
12091973,20120501,57
12189952,20120502,55
12288015,20120503,72
12386259,20120504,80
12483965,20120505,69
12580237,20120506,58
12677139,20120507,26
12775298,20120508,22
12872590,20120509,53
12969959,20120510,66
13066847,20120511,67
13164553,20120512,62
13260516,20120513,35
13356527,20120514,67
13454890,20120515,80
13552377,20120516,80
13650261,20120517,91
13748485,20120518,78
13846387,20120519,54
13942888,20120520,76
14039940,20120521,101
14138015,20120522,111
14235833,20120523,98
14334039,20120524,62
14432532,20120525,109
14530631,20120526,76
14627422,20120527,20
14724092,20120528,50
14821605,20120529,80
14919733,20120530,95
15016825,20120531,109
15114206,20120601,122
15210825,20120602,107
15306260,20120603,126
15402775,20120604,111
15500983,20120605,123
15598235,20120606,109
15696013,20120607,109
15793908,20120608,126
15891375,20120609,128
15987386,20120610,87
16083910,20120611,90
16182366,20120612,111
16280019,20120613,122
16377877,20120614,117
16476395,20120615,120
16575025,20120616,125
16672198,20120617,134
16768649,20120618,128
16867606,20120619,134
16966076,20120620,130
17065092,20120621,151
17163529,20120622,167
17261443,20120623,155
17357985,20120624,166
17454712,20120625,167
17553137,20120626,152
17651281,20120627,143
17749438,20120628,149
17847953,20120629,158
17946121,20120630,153
18042473,20120701,156
18140202,20120702,144
18238549,20120703,139
18337167,20120704,123
18434705,20120705,114
18533649,20120706,111
18632171,20120707,108
18729688,20120708,104
18827149,20120709,133
18926373,20120710,141
19024951,20120711,147
19123352,20120712,135
19221640,20120713,117
19319611,20120714,119
19415600,20120715,107
19511990,20120716,100
19610475,20120717,125
19709274,20120718,137
19807885,20120719,131
19905447,20120720,143
20002695,20120721,124
20098874,20120722,125
20195563,20120723,128
20294431,20120724,101
20392712,20120725,117
20490973,20120726,133
20589999,20120727,123
20687656,20120728,130
20783362,20120729,132
20879703,20120730,136
20978673,20120731,129
21077324,20120801,127
21176416,20120802,125
21275897,20120803,128
21375015,20120804,132
21472773,20120805,119
21569645,20120806,120
21668141,20120807,140
21767165,20120808,144
21866682,20120809,114
21965646,20120810,123
22063661,20120811,139
22160022,20120812,132
22256974,20120813,124
22356152,20120814,116
22454884,20120815,127
22553804,20120816,137
22653134,20120817,129
22751060,20120818,134
22847787,20120819,136
22944880,20120820,105
23044278,20120821,130
23143385,20120822,98
23242874,20120823,98
23342186,20120824,100
23441497,20120825,112
23539590,20120826,121
23637659,20120827,125
23737134,20120828,128
23835643,20120829,132
23934335,20120830,117
24033489,20120831,123
24131800,20120901,116
24229666,20120902,118
24326650,20120903,121
24424486,20120904,112
24524033,20120905,110
24623359,20120906,114
24722561,20120907,115
24821773,20120908,90
24918633,20120909,103
25015353,20120910,105
25115614,20120911,88
25215870,20120912,82
25315967,20120913,77
25416597,20120914,82
25515410,20120915,90
25612594,20120916,92
25710728,20120917,69
25810383,20120918,82
25908448,20120919,88
26007020,20120920,84
26106949,20120921,99
26206602,20120922,96
26303514,20120923,94
26401101,20120924,65
26501666,20120925,29
26601584,20120926,42
26700616,20120927,50
26799300,20120928,62
26897785,20120929,68
26994084,20120930,74
27090837,20121001,74
27190356,20121002,75
27289927,20121003,89
27389716,20121004,85
27489569,20121005,75
27589612,20121006,42
27687579,20121007,19
27785376,20121008,32
27884657,20121009,50
27984802,20121010,57
28084913,20121011,71
28185164,20121012,34
28284449,20121013,6
28382421,20121014,38
28480358,20121015,45
28580093,20121016,64
28679790,20121017,38
28780190,20121018,43
28879587,20121019,54
28978371,20121020,53
29075863,20121021,43
29174545,20121022,49
29275897,20121023,65
29376321,20121024,21
29476877,20121025,-42
29578937,20121026,-47
29678636,20121027,-8
29776787,20121028,29
29875157,20121029,32
29975182,20121030,30
30075275,20121031,38
30174736,20121101,32
30275634,20121102,17
30376452,20121103,11
30476354,20121104,22
30575736,20121105,33
30677291,20121106,42
30777134,20121107,34
30877389,20121108,36
30979044,20121109,13
31081055,20121110,-77
31181557,20121111,-134
31282511,20121112,-69
31383239,20121113,-45
31484146,20121114,-33
31585092,20121115,-22
31686536,20121116,9
31787806,20121117,16
31887761,20121118,-5
31987258,20121119,-12
32088603,20121120,-5
32189976,20121121,3
32291198,20121122,-3
32390118,20121123,-2
32489311,20121124,-3
32588275,20121125,-13
32688759,20121126,-25
32791830,20121127,-28
32893489,20121128,-15
32995069,20121129,-8
33096618,20121130,2
33198040,20121201,1
33298755,20121202,5
33398962,20121203,-5
33500299,20121204,-18
33601165,20121205,12
33701222,20121206,-5
33802337,20121207,-31
33903124,20121208,-33
34002773,20121209,-125
34103225,20121210,-94
34205784,20121211,-96
34307281,20121212,-61
34409034,20121213,-27
34510564,20121214,-38
34612191,20121215,-66
34711742,20121216,-103
34811338,20121217,-70
34913371,20121218,-54
35014902,20121219,-127
35117560,20121220,-106
35220364,20121221,-72
35321560,20121222,-72
35421318,20121223,-53
35520753,20121224,-63
35619955,20121225,-105
35719047,20121226,-81
35820633,20121227,-113
35923283,20121228,-148
36025292,20121229,-97
36125611,20121230,-73
36226403,20121231,-99
8324,20130101,-160
108868,20130102,-129
210438,20130103,-136
311531,20130104,-88
412325,20130105,-60
511559,20130106,-33
610746,20130107,-48
712096,20130108,-43
813234,20130109,-33
913712,20130110,-31
1013738,20130111,-143
1113863,20130112,-216
1212652,20130113,-184
1311776,20130114,-194
1413022,20130115,-131
1513563,20130116,-42
1614521,20130117,-40
1714713,20130118,-57
1815052,20130119,-44
1913932,20130120,-48
2013214,20130121,-30
2114140,20130122,-12
2215476,20130123,-9
2316686,20130124,-2
2417911,20130125,3
2518576,20130126,1
2617828,20130127,-8
2716934,20130128,-57
2818658,20130129,-131
2920690,20130130,-99
3021765,20130131,-58
3122291,20130201,-71
3224197,20130202,-51
3324590,20130203,-55
3425300,20130204,-56
3528073,20130205,-26
3629396,20130206,-38
3730683,20130207,-46
3831199,20130208,-30
3930594,20130209,-83
4029816,20130210,-101
4129369,20130211,-124
4230210,20130212,-131
4329852,20130213,-81
4429494,20130214,-85
4529741,20130215,-82
4630141,20130216,-48
4728854,20130217,-47
4827975,20130218,-85
4928659,20130219,-65
5028698,20130220,-71
5128522,20130221,-77
5231280,20130222,-119
5333564,20130223,-101
5432218,20130224,-136
5531781,20130225,-97
5634696,20130226,-120
5735415,20130227,-127
5835938,20130228,-85
5936678,20130301,-7
6037321,20130302,0
6136573,20130303,-4
6236114,20130304,-31
6338332,20130305,-40
6439484,20130306,-3
6540310,20130307,5
6640947,20130308,-25
6741579,20130309,-62
6840346,20130310,-70
6939515,20130311,-30
7040430,20130312,-11
7139988,20130313,3
7240059,20130314,27
7340262,20130315,36
7440043,20130316,4
7538570,20130317,-9
7637023,20130318,-27
7738276,20130319,-24
7838373,20130320,-23
7938512,20130321,-26
8038820,20130322,-46
8139475,20130323,-134
8237965,20130324,-120
8337440,20130325,-77
8440271,20130326,-6
8541434,20130327,20
8641970,20130328,25
8741569,20130329,19
8840273,20130330,21
8937702,20130331,23
9034666,20130401,29
9133622,20130402,-22
9233410,20130403,-8
9431119,20130405,36
9529159,20130406,33
9626301,20130407,21
9723982,20130408,1
9824511,20130409,-38
9923893,20130410,-55
10024933,20130411,-16
10124107,20130412,-10
10222111,20130413,25
10318847,20130414,18
10416606,20130415,35
10516510,20130416,34
10616625,20130417,-56
10716429,20130418,-90
10816098,20130419,-28
10913339,20130420,-13
11009091,20130421,12
11106530,20130422,47
11207482,20130423,-24
11308280,20130424,-6
11407346,20130425,36
11505075,20130426,24
11603053,20130427,34
11699343,20130428,54
11794843,20130429,72
11892741,20130430,84
11990606,20130501,20
12089517,20130502,-2
12188342,20130503,33
12285163,20130504,50
12379950,20130505,54
12475077,20130506,22
12572335,20130507,21
12669618,20130508,0
12766943,20130509,10
12863640,20130510,29
12958927,20130511,40
13052336,20130512,64
13146222,20130513,82
13244540,20130514,77
13342380,20130515,93
13439566,20130516,84
13535519,20130517,84
13631489,20130518,45
13725600,20130519,22
13819864,20130520,22
13916317,20130521,52
14012139,20130522,83
14107748,20130523,106
14202782,20130524,87
14297896,20130525,89
14392056,20130526,83
14485870,20130527,75
14581354,20130528,70
14678121,20130529,41
14774045,20130530,62
14869433,20130531,60
14964431,20130601,76
15058623,20130602,102
15152694,20130603,103
15249112,20130604,112
15345787,20130605,108
15443034,20130606,112
15538657,20130607,112
15633667,20130608,131
15727531,20130609,140
15822231,20130610,156
15917645,20130611,128
16013449,20130612,132
16110038,20130613,141
16206706,20130614,127
16302080,20130615,107
16396652,20130616,114
16491236,20130617,121
16587578,20130618,117
16682592,20130619,128
16777969,20130620,119
16874602,20130621,118
16971053,20130622,113
17066193,20130623,114
17161062,20130624,114
17257826,20130625,120
17353603,20130626,148
17448981,20130627,156
17543950,20130628,165
17638605,20130629,146
17731149,20130630,145
17823252,20130701,148
17918614,20130702,152
18013664,20130703,154
18107694,20130704,154
18201782,20130705,147
18296760,20130706,148
18390279,20130707,154
18484379,20130708,156
18580374,20130709,162
18676302,20130710,169
18772254,20130711,138
18867435,20130712,128
18962125,20130713,138
19055617,20130714,130
19149241,20130715,116
19244745,20130716,108
19340565,20130717,120
19436668,20130718,121
19532641,20130719,124
19628585,20130720,140
19722546,20130721,129
19816060,20130722,139
19911946,20130723,141
20007351,20130724,138
20103318,20130725,144
20198877,20130726,150
20294304,20130727,130
20387066,20130728,94
20479957,20130729,100
20575990,20130730,114
20671984,20130731,133
20767109,20130801,113
20861790,20130802,123
20956577,20130803,106
21049811,20130804,113
21143516,20130805,128
21239806,20130806,98
21335238,20130807,88
21430674,20130808,82
21525376,20130809,86
21619831,20130810,78
21712052,20130811,91
21805672,20130812,100
21902328,20130813,100
21997423,20130814,109
22092879,20130815,122
22188679,20130816,130
22284382,20130817,129
22378583,20130818,116
22472588,20130819,116
22568672,20130820,117
22665028,20130821,119
22761193,20130822,128
22855793,20130823,127
22950112,20130824,103
23043794,20130825,98
23137992,20130826,108
23234209,20130827,124
23330060,20130828,131
23426507,20130829,117
23522228,20130830,126
23617802,20130831,115
23711454,20130901,127
23805470,20130902,131
23899722,20130903,121
23995987,20130904,139
24092356,20130905,137
24188939,20130906,122
24285306,20130907,129
24380084,20130908,118
24474656,20130909,94
24572081,20130910,88
24668595,20130911,90
24765092,20130912,86
24861313,20130913,87
24955778,20130914,75
25049662,20130915,66
25144027,20130916,81
25239840,20130917,99
25335661,20130918,88
25431747,20130919,78
25527727,20130920,77
25622654,20130921,98
25715688,20130922,49
25808840,20130923,28
25905201,20130924,59
26001705,20130925,89
26097648,20130926,82
26193587,20130927,1
26289637,20130928,17
26383969,20130929,43
26477769,20130930,72
26573812,20131001,68
26671056,20131002,60
26768472,20131003,55
26865456,20131004,-37
26962367,20131005,-1
27056815,20131006,48
27150980,20131007,65
27246047,20131008,56
27341855,20131009,43
27438618,20131010,-4
27535340,20131011,-3
27631352,20131012,2
27725214,20131013,40
27818989,20131014,-9
27915224,20131015,-28
28011652,20131016,-33
28107174,20131017,-10
28202431,20131018,-18
28297999,20131019,-3
28391291,20131020,5
28484680,20131021,5
28582143,20131022,28
28678541,20131023,34
28774494,20131024,40
28871613,20131025,18
28968504,20131026,15
29063657,20131027,22
29158544,20131028,35
29255579,20131029,-6
29352362,20131030,-44
29448934,20131031,-42
29543688,20131101,-15
29638407,20131102,12
29732298,20131103,-4
29827095,20131104,-22
29924909,20131105,-70
30021988,20131106,-51
30118961,20131107,0
30214293,20131108,5
30310715,20131109,9
30406418,20131110,13
30502144,20131111,8
30600384,20131112,17
30699850,20131113,7
30798537,20131114,-2
30897174,20131115,-12
30994911,20131116,-22
31089538,20131117,-24
31184724,20131118,-34
31281516,20131119,-12
31379202,20131120,-12
31477647,20131121,-11
31576132,20131122,-4
31673423,20131123,-6
31768479,20131124,-34
31865586,20131125,-40
31964820,20131126,-51
32062445,20131127,-39
32159316,20131128,-17
32254697,20131129,-38
32351057,20131130,-40
32446596,20131201,-35
32543542,20131202,-9
32642616,20131203,-17
32741564,20131204,-95
32841090,20131205,-170
32939780,20131206,-157
33038373,20131207,-111
33135784,20131208,-165
33233343,20131209,-198
33334384,20131210,-113
33433905,20131211,-85
33533811,20131212,-55
33633604,20131213,-62
33732407,20131214,-80
33829802,20131215,-24
33927279,20131216,-8
34027696,20131217,-9
34127494,20131218,0
34226719,20131219,-9
34325840,20131220,-57
34424232,20131221,-96
34519853,20131222,-100
34616053,20131223,-81
34713543,20131224,-59
34809026,20131225,-59
34903907,20131226,-36
35000614,20131227,-27
35097009,20131228,-35
35192120,20131229,-78
35286971,20131230,-50
35383610,20131231,-23
7983,20140101,-25
104301,20140102,-38
203036,20140103,-35
301237,20140104,-100
398680,20140105,-137
495870,20140106,-69
594304,20140107,-46
692026,20140108,-39
789552,20140109,-67
887007,20140110,-69
983535,20140111,-36
1077830,20140112,-64
1172355,20140113,-77
1269902,20140114,-34
1366358,20140115,9
1462975,20140116,-21
1560787,20140117,-37
1658595,20140118,-21
1754865,20140119,-33
1851153,20140120,-36
1948616,20140121,-41
2047016,20140122,-47
2145910,20140123,-65
2244807,20140124,-61
2342253,20140125,-12
2438062,20140126,-28
2534279,20140127,-37
2632367,20140128,-58
2730059,20140129,-19
2828338,20140130,-8
2925492,20140131,-44
3023383,20140201,-104
3119927,20140202,-114
3215481,20140203,-80
3312879,20140204,-106
3410817,20140205,-125
3509308,20140206,-80
3607261,20140207,-63
3704406,20140208,-38
3799794,20140209,-8
3895693,20140210,-32
3994276,20140211,-74
4091178,20140212,-34
4188195,20140213,18
4286256,20140214,10
4383716,20140215,13
4478241,20140216,2
4573837,20140217,-19
4670746,20140218,-2
4767685,20140219,-29
4863922,20140220,-115
4960440,20140221,-62
5055915,20140222,-35
5149387,20140223,-35
5244316,20140224,-22
5341602,20140225,-13
5438265,20140226,-11
5533905,20140227,-24
5629254,20140228,-19
5724659,20140301,-14
5819224,20140302,-32
5914990,20140303,-30
6013280,20140304,-32
6109964,20140305,-23
6206900,20140306,-7
6303070,20140307,-29
6398725,20140308,-53
6493325,20140309,-6
6587319,20140310,25
6684336,20140311,-44
6780926,20140312,-50
6877058,20140313,-23
6972598,20140314,-31
7068228,20140315,-54
7161747,20140316,-7
7255007,20140317,-2
7351580,20140318,-75
7447565,20140319,-61
7543456,20140320,-19
7638773,20140321,-6
7734612,20140322,-32
7829135,20140323,-32
7923633,20140324,-13
8019932,20140325,11
8116175,20140326,-9
8212150,20140327,-32
8307032,20140328,-38
8401196,20140329,-7
8492792,20140330,8
8585619,20140331,-25
8682238,20140401,8
8778196,20140402,-37
8874598,20140403,-56
8971142,20140404,-37
9065933,20140405,-18
9158920,20140406,-35
9252213,20140407,-10
9347366,20140408,27
9440928,20140409,38
9535299,20140410,45
9631091,20140411,47
9726499,20140412,19
9820477,20140413,-20
9915365,20140414,-49
10012723,20140415,-2
10108169,20140416,7
10203903,20140417,16
10299963,20140418,51
10394248,20140419,29
10486989,20140420,36
10579324,20140421,49
10674707,20140422,64
10769181,20140423,22
10863716,20140424,11
10959001,20140425,50
11052963,20140426,-2
11145122,20140427,-30
11237930,20140428,-38
11333150,20140429,-40
11427657,20140430,-30
11521664,20140501,-6
11615229,20140502,46
11708733,20140503,63
11800827,20140504,66
11893565,20140505,71
11988834,20140506,58
12083727,20140507,6
12179391,20140508,-9
12274479,20140509,22
12367155,20140510,47
12457479,20140511,-6
12548936,20140512,-27
12645341,20140513,-32
12739603,20140514,-8
12832793,20140515,35
12925718,20140516,70
13018170,20140517,80
13109295,20140518,98
13201420,20140519,99
13296373,20140520,86
13390942,20140521,72
13485649,20140522,70
13580249,20140523,43
13673013,20140524,35
13764613,20140525,32
13855447,20140526,64
13947910,20140527,96
14041312,20140528,113
14133767,20140529,107
14226424,20140530,79
14319039,20140531,110
14410182,20140601,100
14502570,20140602,107
14597195,20140603,116
14691243,20140604,101
14785479,20140605,107
14878909,20140606,111
14972049,20140607,105
15064200,20140608,73
15155767,20140609,88
15248912,20140610,109
15341745,20140611,107
15434069,20140612,108
15525679,20140613,132
15616992,20140614,82
15707917,20140615,96
15800314,20140616,103
15895271,20140617,113
15989712,20140618,82
16083750,20140619,88
16177034,20140620,110
16269797,20140621,113
16361498,20140622,112
16452950,20140623,114
16546898,20140624,122
16639285,20140625,126
16731868,20140626,129
16824127,20140627,94
16916631,20140628,112
17007017,20140629,140
17097578,20140630,152
17191321,20140701,138
17285691,20140702,143
17379813,20140703,129
17473309,20140704,126
17565291,20140705,109
17657458,20140706,139
17750100,20140707,131
17844911,20140708,119
17938095,20140709,104
18031440,20140710,123
18125225,20140711,129
18218388,20140712,122
18308541,20140713,143
18399719,20140714,147
18492712,20140715,138
18585177,20140716,118
18677791,20140717,128
18771283,20140718,133
18864610,20140719,141
18956265,20140720,147
19048271,20140721,141
19142228,20140722,164
19236196,20140723,176
19329761,20140724,128
19422365,20140725,130
19515065,20140726,143
19606283,20140727,134
19697404,20140728,109
19790619,20140729,103
19884205,20140730,121
19977530,20140731,118
20070773,20140801,99
20163590,20140802,110
20254635,20140803,122
20346366,20140804,106
20440844,20140805,104
20534446,20140806,118
20628716,20140807,119
20722135,20140808,112
20815509,20140809,115
20907458,20140810,119
20999166,20140811,107
21092828,20140812,102
21185087,20140813,113
21277843,20140814,107
21371530,20140815,116
21465104,20140816,124
21557329,20140817,135
21649508,20140818,138
21744141,20140819,116
21837981,20140820,104
21931471,20140821,100
22025135,20140822,75
22118301,20140823,88
22210316,20140824,97
22302604,20140825,103
22397798,20140826,86
22492220,20140827,65
22586449,20140828,71
22681031,20140829,90
22774395,20140830,105
22865284,20140831,115
22955781,20140901,107
23048675,20140902,119
23143996,20140903,123
23238283,20140904,78
23333146,20140905,95
23427158,20140906,103
23519241,20140907,94
23611175,20140908,89
23705776,20140909,75
23799775,20140910,71
23894215,20140911,76
23988056,20140912,80
24081366,20140913,84
24172501,20140914,97
24264502,20140915,111
24359336,20140916,107
24452582,20140917,82
24546468,20140918,106
24640769,20140919,110
24734577,20140920,120
24827018,20140921,107
24919226,20140922,89
25012926,20140923,80
25107282,20140924,104
25201887,20140925,116
25295810,20140926,111
25389366,20140927,104
25481404,20140928,48
25574031,20140929,25
25668232,20140930,24
25761748,20141001,19
25857560,20141002,33
25953604,20141003,52
26047905,20141004,55
26139716,20141005,54
26233198,20141006,63
26329012,20141007,67
26423701,20141008,79
26518404,20141009,42
26613595,20141010,40
26707791,20141011,46
26799688,20141012,11
26891968,20141013,14
26985795,20141014,61
27079578,20141015,68
27173431,20141016,57
27267307,20141017,63
27361468,20141018,57
27454534,20141019,62
27547850,20141020,57
27643671,20141021,47
27738352,20141022,39
27832872,20141023,49
27927777,20141024,63
28022783,20141025,69
28116728,20141026,72
28210719,20141027,21
28307085,20141028,21
28402476,20141029,33
28497150,20141030,57
28591391,20141031,59
28685569,20141101,54
28778542,20141102,13
28871925,20141103,-32
28968248,20141104,-26
29063041,20141105,14
29157675,20141106,32
29251683,20141107,27
29345567,20141108,23
29439420,20141109,24
29533591,20141110,12
29630360,20141111,-2
29727345,20141112,6
29823778,20141113,-8
29921068,20141114,-11
30017827,20141115,-26
30113642,20141116,-108
30210380,20141117,-116
30308605,20141118,-82
30405807,20141119,-50
30503597,20141120,-43
30600853,20141121,-42
30697028,20141122,-31
30790456,20141123,-79
30883369,20141124,-114
30978811,20141125,-75
31074582,20141126,-7
31170068,20141127,-3
31264227,20141128,5
31359183,20141129,-2
31453471,20141130,-9
31548208,20141201,-27
31645232,20141202,-13
31741606,20141203,7
31838032,20141204,3
31933576,20141205,-10
32028412,20141206,-4
32121891,20141207,-21
32215568,20141208,-11
32313206,20141209,-10
32409532,20141210,-15
32506035,20141211,-7
32603152,20141212,9
32699636,20141213,-13
32794745,20141214,-67
32890700,20141215,-91
32988804,20141216,-26
33084932,20141217,-43
33180140,20141218,-78
33276869,20141219,-95
33372261,20141220,-42
33465851,20141221,-28
33559730,20141222,-42
33654764,20141223,-120
33748916,20141224,-41
33841159,20141225,-72
33931758,20141226,-125
34025835,20141227,-152
34119222,20141228,-108
34211560,20141229,-115
34306371,20141230,-112
34402160,20141231,-67
7814,20150101,-93
102878,20150102,-118
198775,20150103,-74
293387,20150104,-48
389287,20150105,-5
486771,20150106,15
585544,20150107,13
684720,20150108,-1
783409,20150109,-16
881302,20150110,-24
976692,20150111,-36
1071932,20150112,-50
1168802,20150113,-38
1265081,20150114,-58
1362154,20150115,-50
1458650,20150116,-28
1554675,20150117,-26
1649305,20150118,-20
1743464,20150119,-18
1839280,20150120,-49
1936666,20150121,-74
2034415,20150122,-103
2132132,20150123,-51
2227733,20150124,-22
2322411,20150125,11
2417258,20150126,35
2514863,20150127,15
2612723,20150128,-6
2709921,20150129,-12
2806749,20150130,-13
2903255,20150131,-12
2998289,20150201,-30
3094170,20150202,-29
3191520,20150203,-12
3288064,20150204,-1
3385755,20150205,10
3482148,20150206,7
3577859,20150207,11
3672371,20150208,9
3767382,20150209,8
3864336,20150210,-3
3960049,20150211,-22
4056976,20150212,-13
4153676,20150213,18
4249652,20150214,24
4344451,20150215,-1
4439866,20150216,-67
4537996,20150217,-72
4636346,20150218,-11
4733645,20150219,-5
4830805,20150220,-16
4927449,20150221,-49
5022964,20150222,-42
5118950,20150223,-35
5216303,20150224,-43
5312652,20150225,-51
5409098,20150226,-76
5507133,20150227,-73
5603914,20150228,-57
5698659,20150301,-20
5794668,20150302,-12
5892249,20150303,-64
5988860,20150304,-91
6085204,20150305,-83
6181889,20150306,-34
6277876,20150307,-13
6372724,20150308,-16
6467217,20150309,-18
6563561,20150310,-11
6658945,20150311,6
6754136,20150312,6
6849274,20150313,0
6944118,20150314,17
7036625,20150315,39
7130096,20150316,43
7227230,20150317,52
7323221,20150318,33
7418482,20150319,12
7513022,20150320,13
7607172,20150321,19
7700332,20150322,25
7793539,20150323,26
7889643,20150324,15
7985814,20150325,-12
8081911,20150326,20
8176547,20150327,42
8270715,20150328,48
8363742,20150329,52
8457742,20150330,47
8553374,20150331,49
8649489,20150401,37
8748378,20150402,15
8847189,20150403,-18
8945140,20150404,4
9040951,20150405,31
9137707,20150406,32
9236608,20150407,30
9334045,20150408,5
9422986,20150409,-3
9512366,20150410,24
9600676,20150411,21
9686735,20150412,24
9773825,20150413,39
9862983,20150414,48
9950205,20150415,-34
10038249,20150416,-46
10127086,20150417,-49
10215749,20150418,-27
10302788,20150419,1
10389648,20150420,22
10478161,20150421,23
10565697,20150422,22
10653789,20150423,24
10741812,20150424,-1
10829829,20150425,9
10915450,20150426,5
11001193,20150427,18
11089778,20150428,38
11178572,20150429,56
11275709,20150430,68
11372660,20150501,73
11469614,20150502,66
11565632,20150503,42
11662106,20150504,34
11760172,20150505,28
11857678,20150506,26
11955110,20150507,37
12052609,20150508,19
12149461,20150509,-18
12244309,20150510,0
12340823,20150511,29
12438439,20150512,49
12534402,20150513,43
12630644,20150514,48
12727443,20150515,8
12822887,20150516,3
12916208,20150517,34
13010277,20150518,41
13106854,20150519,14
13203129,20150520,43
13299790,20150521,56
13395143,20150522,24
13490502,20150523,5
13584987,20150524,16
13679741,20150525,24
13774838,20150526,38
13870637,20150527,59
13966213,20150528,58
14062526,20150529,62
14158468,20150530,79
14252789,20150531,83
14346178,20150601,109
14436153,20150602,98
14526325,20150603,94
14623093,20150604,93
14720019,20150605,58
14817165,20150606,46
14912377,20150607,70
15008006,20150608,92
15105052,20150609,111
15201174,20150610,87
15297621,20150611,69
15394735,20150612,72
15491208,20150613,77
15585420,20150614,103
15680205,20150615,94
15777167,20150616,118
15872661,20150617,128
15968661,20150618,133
16064822,20150619,140
16160159,20150620,146
16254389,20150621,151
16348789,20150622,150
16446053,20150623,157
16542557,20150624,112
16639070,20150625,131
16735441,20150626,147
16830930,20150627,153
16924140,20150628,128
17017604,20150629,147
17113095,20150630,166
17208862,20150701,168
17304526,20150702,140
17400324,20150703,110
17495232,20150704,112
17589330,20150705,103
17684108,20150706,120
17781398,20150707,91
17878084,20150708,91
17973804,20150709,81
18069426,20150710,92
18165325,20150711,105
18260679,20150712,110
18355792,20150713,119
18453217,20150714,96
18549374,20150715,106
18645377,20150716,115
18741787,20150717,115
18838004,20150718,115
18932980,20150719,99
19027378,20150720,102
19124359,20150721,112
19220149,20150722,119
19315725,20150723,130
19411451,20150724,109
19506742,20150725,127
19601337,20150726,109
19696062,20150727,129
19792648,20150728,126
19888907,20150729,135
19985002,20150730,129
20080521,20150731,113
20175597,20150801,116
20271117,20150802,107
20366677,20150803,100
20463996,20150804,117
20561070,20150805,136
20658263,20150806,135
20754958,20150807,111
20850758,20150808,104
20946118,20150809,114
21041256,20150810,116
21138484,20150811,119
21234416,20150812,119
21330579,20150813,122
21427400,20150814,143
21524047,20150815,144
21618845,20150816,132
21714089,20150817,109
21811916,20150818,121
21908834,20150819,110
22100668,20150821,118
22196430,20150822,118
22291474,20150823,111
22386572,20150824,125
22483469,20150825,129
22580452,20150826,99
22677536,20150827,108
22774500,20150828,114
22871091,20150829,119
22965887,20150830,121
23060483,20150831,113
23157183,20150901,115
23254937,20150902,109
23352537,20150903,103
23449696,20150904,86
23546237,20150905,84
23640412,20150906,97
23734589,20150907,99
23830438,20150908,94
23927672,20150909,100
24024163,20150910,106
24120062,20150911,111
24215547,20150912,114
24309293,20150913,109
24403097,20150914,85
24499815,20150915,84
24596757,20150916,90
24693583,20150917,86
24790189,20150918,79
24886124,20150919,79
24980942,20150920,87
25075822,20150921,104
25173441,20150922,88
25270511,20150923,96
25368016,20150924,105
25465334,20150925,105
25561716,20150926,110
25656215,20150927,105
25750482,20150928,100
25846878,20150929,96
25941840,20150930,102
26036372,20151001,116
26132345,20151002,98
26228224,20151003,59
26322430,20151004,61
26416468,20151005,50
26513422,20151006,46
26610610,20151007,41
26708310,20151008,68
26806175,20151009,76
26903352,20151010,80
26998111,20151011,84
27094011,20151012,81
27192366,20151013,80
27289774,20151014,81
27387654,20151015,82
27485726,20151016,85
27582707,20151017,63
27678527,20151018,59
27774895,20151019,42
27873178,20151020,33
27970704,20151021,28
28067778,20151022,16
28165073,20151023,19
28262198,20151024,31
28357131,20151025,42
28451599,20151026,14
28548271,20151027,14
28644167,20151028,17
28739265,20151029,15
28834396,20151030,6
28929732,20151031,29
29024556,20151101,30
29119186,20151102,49
29216899,20151103,42
29314688,20151104,-25
29412655,20151105,-51
29510455,20151106,-60
29606512,20151107,-44
29701187,20151108,-36
29796132,20151109,-8
29893681,20151110,-20
29990641,20151111,-70
30088226,20151112,-54
30185807,20151113,-34
30282646,20151114,-24
30378705,20151115,-10
30474746,20151116,-46
30573355,20151117,-57
30672299,20151118,-54
30769871,20151119,-40
30866774,20151120,-25
30964143,20151121,-64
31061364,20151122,-32
31157604,20151123,-24
31256273,20151124,-10
31354669,20151125,5
31452376,20151126,-24
31547683,20151127,-23
31643799,20151128,-52
31738907,20151129,-77
31834036,20151130,-129
31932775,20151201,-111
32030971,20151202,-61
32129173,20151203,-31
32227235,20151204,-6
32325615,20151205,-60
32423005,20151206,-35
32620190,20151208,11
32718966,20151209,14
32817629,20151210,10
32916092,20151211,-3
33014417,20151212,-53
33111440,20151213,-31
33209313,20151214,-70
33308104,20151215,-120
33406567,20151216,-131
33506122,20151217,-117
33604172,20151218,-52
33702013,20151219,-12
33799219,20151220,-52
33896476,20151221,-52
33994713,20151222,-46
34091751,20151223,-90
34188123,20151224,-120
34283410,20151225,-94
34377168,20151226,-153
34472948,20151227,-93
34568138,20151228,-104
34665682,20151229,-114
34763506,20151230,-110
34860966,20151231,-117
8086,20160101,-114
104900,20160102,-76
202189,20160103,-37
300083,20160104,-23
400600,20160105,-37
500753,20160106,-41
600071,20160107,-68
699474,20160108,-91
798143,20160109,-126
895294,20160110,-145
992755,20160111,-101
1093155,20160112,-68
1193708,20160113,-50
1294008,20160114,-95
1393689,20160115,-85
1492399,20160116,-69
1588724,20160117,-55
1685829,20160118,-42
1785139,20160119,-38
1885243,20160120,-65
1985834,20160121,-63
2086444,20160122,-23
2185829,20160123,-18
2284495,20160124,-52
2382969,20160125,-113
2484098,20160126,-109
2583630,20160127,-31
2681592,20160128,-14
2780032,20160129,-19
2877660,20160130,-2
2974740,20160131,-27
3072822,20160201,-82
3173017,20160202,-146
3271971,20160203,-192
3370707,20160204,-132
3468709,20160205,-97
3566992,20160206,-62
3663577,20160207,-2
3760326,20160208,20
3860131,20160209,-8
3960242,20160210,0
4060134,20160211,2
4159104,20160212,19
4257929,20160213,11
4355105,20160214,-22
4452028,20160215,-4
4550600,20160216,-5
4649047,20160217,20
4746717,20160218,28
4843805,20160219,-1
4941306,20160220,2
5035178,20160221,-10
5129112,20160222,-50
5227062,20160223,-84
5324529,20160224,-66
5421679,20160225,-13
5519376,20160226,-4
5617046,20160227,-1
5720770,20160228,8
5720771,20160229,5
5906496,20160301,3
6005445,20160302,1
6103499,20160303,11
6202425,20160304,15
6301096,20160305,28
6398432,20160306,5
6495504,20160307,-53
6595151,20160308,-53
6693445,20160309,-50
6791593,20160310,5
6889425,20160311,35
6986582,20160312,-3
7082444,20160313,-4
7178019,20160314,6
7275833,20160315,-34
7374022,20160316,-30
7472524,20160317,-15
7571399,20160318,-3
7670299,20160319,-6
7767004,20160320,2
7863500,20160321,43
7962636,20160322,13
8061353,20160323,-66
8158262,20160324,-32
8257275,20160325,-33
8354167,20160326,-67
8450551,20160327,-37
8546233,20160328,18
8643391,20160329,-37
8741940,20160330,-72
8840623,20160331,-65
8938645,20160401,-51
9036085,20160402,-12
9132312,20160403,15
9229843,20160404,32
9329554,20160405,21
9428802,20160406,22
9527982,20160407,53
9625400,20160408,43
9722957,20160409,22
9820085,20160410,27
9916988,20160411,12
10015249,20160412,16
10112285,20160413,34
10209572,20160414,52
10307202,20160415,5
10405073,20160416,-16
10502153,20160417,-34
10599927,20160418,-37
10699557,20160419,-24
10798223,20160420,20
10896565,20160421,42
10993958,20160422,75
11090056,20160423,34
11184495,20160424,22
11280169,20160425,0
11378399,20160426,-24
11476650,20160427,2
11574376,20160428,5
11671438,20160429,-10
11768217,20160430,4
11863553,20160501,-5
11958737,20160502,5
12055645,20160503,35
12151843,20160504,57
12248009,20160505,89
12343894,20160506,63
12439800,20160507,4
12534365,20160508,-1
12629163,20160509,29
12726243,20160510,32
12822711,20160511,11
12919139,20160512,46
13015870,20160513,71
13111500,20160514,88
13205131,20160515,61
13299037,20160516,24
13395728,20160517,26
13491178,20160518,20
13585925,20160519,39
13681455,20160520,71
13776266,20160521,86
13869397,20160522,57
13962924,20160523,48
14059446,20160524,62
14155543,20160525,53
14251931,20160526,27
14348225,20160527,30
14442976,20160528,46
14536264,20160529,59
14629218,20160530,65
14723286,20160531,76
14819231,20160601,83
14915701,20160602,97
15011674,20160603,105
15107539,20160604,120
15201446,20160605,125
15295431,20160606,119
15391330,20160607,128
15487448,20160608,111
15584091,20160609,119
15680769,20160610,134
15777141,20160611,113
15872159,20160612,107
15967271,20160613,73
16064366,20160614,86
16160824,20160615,112
16256683,20160616,102
16352358,20160617,118
16448162,20160618,138
16542676,20160619,154
16637507,20160620,171
16735083,20160621,161
16831239,20160622,134
16927540,20160623,136
17023391,20160624,134
17118705,20160625,138
17212834,20160626,140
17307703,20160627,151
17404289,20160628,127
17500402,20160629,116
17595920,20160630,96
17691819,20160701,91
17787198,20160702,94
17881060,20160703,102
17975177,20160704,109
18070018,20160705,130
18166140,20160706,128
18262351,20160707,126
18358642,20160708,132
18453771,20160709,137
18547469,20160710,147
18642117,20160711,120
18739148,20160712,122
18835921,20160713,128
18931669,20160714,169
19027328,20160715,140
19122770,20160716,141
19216954,20160717,142
19311444,20160718,135
19407978,20160719,113
19503630,20160720,112
19599506,20160721,114
19695799,20160722,126
19791555,20160723,142
19886051,20160724,133
19980653,20160725,136
20077567,20160726,141
20173569,20160727,145
20269694,20160728,152
20365851,20160729,152
20461047,20160730,130
20554670,20160731,128
20648761,20160801,139
20745051,20160802,118
20841435,20160803,116
20937761,20160804,109
21034244,20160805,105
21129784,20160806,104
21223902,20160807,105
21318458,20160808,123
21415641,20160809,126
21511914,20160810,120
21608017,20160811,112
21704109,20160812,107
21799927,20160813,107
21893882,20160814,110
21988175,20160815,115
22084691,20160816,110
22180851,20160817,98
22276516,20160818,79
22372667,20160819,95
22468194,20160820,113
22561858,20160821,106
22655667,20160822,75
22752108,20160823,62
22849171,20160824,84
22946021,20160825,81
23042542,20160826,74
23138640,20160827,64
23233021,20160828,66
23327813,20160829,74
23425003,20160830,93
23521698,20160831,104
23617950,20160901,111
23714072,20160902,102
23809239,20160903,98
23903382,20160904,99
23998133,20160905,95
24094295,20160906,100
24191357,20160907,95
24288088,20160908,96
24384082,20160909,104
24480130,20160910,98
24574702,20160911,99
24669107,20160912,70
24766643,20160913,74
24863185,20160914,69
24959465,20160915,56
25055622,20160916,60
25152252,20160917,66
25246319,20160918,83
25340704,20160919,105
25437374,20160920,83
25533592,20160921,86
25630304,20160922,108
25726546,20160923,14
25821937,20160924,4
25915824,20160925,46
26010572,20160926,72
26106747,20160927,83
26201714,20160928,96
26297155,20160929,66
26391983,20160930,69
26486675,20161001,63
26580244,20161002,66
26674414,20161003,33
26771224,20161004,2
26868448,20161005,30
26965705,20161006,3
27062483,20161007,22
27158386,20161008,57
27252357,20161009,42
27346477,20161010,53
27443062,20161011,61
27540590,20161012,56
27637623,20161013,59
27733951,20161014,67
27830250,20161015,75
27924861,20161016,81
28020128,20161017,69
28117747,20161018,51
28215116,20161019,17
28312491,20161020,29
28409389,20161021,50
28505295,20161022,58
28599438,20161023,59
28694631,20161024,65
28792366,20161025,32
28889504,20161026,44
28986658,20161027,65
29083451,20161028,70
29179873,20161029,60
29274609,20161030,69
29369806,20161031,68
29467457,20161101,41
29565628,20161102,19
29663497,20161103,42
29760645,20161104,29
29857114,20161105,25
29953047,20161106,27
30049010,20161107,24
30147212,20161108,31
30244464,20161109,40
30340889,20161110,40
30437812,20161111,25
30534986,20161112,19
30630732,20161113,10
30726919,20161114,30
30825024,20161115,48
30922643,20161116,53
31020350,20161117,-52
31118690,20161118,-65
31217801,20161119,-5
31313370,20161120,27
31409543,20161121,-2
31507652,20161122,-33
31604825,20161123,-41
31700154,20161124,-55
31793912,20161125,-52
31888528,20161126,-33
31983062,20161127,-55
32078999,20161128,-80
32176207,20161129,-114
32272686,20161130,-134
32369311,20161201,-80
32466026,20161202,-80
32563573,20161203,-89
32659538,20161204,-51
32755181,20161205,-50
32853904,20161206,-65
32951083,20161207,-129
33049051,20161208,-86
33148036,20161209,-19
33247025,20161210,-12
33343746,20161211,-17
33441576,20161212,-31
33540631,20161213,-37
33638398,20161214,-11
33736368,20161215,-13
33834816,20161216,-4
33933070,20161217,-116
34030684,20161218,-157
34127945,20161219,-93
34225845,20161220,-50
34323397,20161221,-27
34420568,20161222,-9
34517604,20161223,-19
34613403,20161224,-24
34706830,20161225,-103
34799840,20161226,-125
34894600,20161227,-70
34989593,20161228,-59
35085242,20161229,-56
35181066,20161230,-51
35276931,20161231,-39
7876,20170101,-54
102130,20170102,-56
198037,20170103,-70
295550,20170104,-43
392765,20170105,-34
492702,20170106,-132
593645,20170107,-85
691971,20170108,-12
790484,20170109,-4
890535,20170110,-36
989321,20170111,-41
1086940,20170112,-41
1184088,20170113,-28
1280668,20170114,-7
1375964,20170115,-4
1471587,20170116,-18
1569619,20170117,-36
1667409,20170118,-66
1764100,20170119,-64
1860987,20170120,-67
1957463,20170121,-61
2052116,20170122,-82
2147000,20170123,-51
2244483,20170124,-95
2342129,20170125,-138
2439870,20170126,-164
2536668,20170127,-136
2633995,20170128,-51
2729894,20170129,-43
2825775,20170130,-36
2924820,20170131,-2
3023337,20170201,-5
3123139,20170202,-34
3221906,20170203,-28
3319741,20170204,-23
3415738,20170205,-20
3511694,20170206,-26
3611004,20170207,-10
3708885,20170208,2
3806856,20170209,5
3905250,20170210,33
4003491,20170211,24
4099789,20170212,3
4195954,20170213,-12
4294734,20170214,-32
4392506,20170215,-32
4489583,20170216,-13
4586669,20170217,-10
4683321,20170218,2
4778098,20170219,-19
4873022,20170220,-23
4969991,20170221,18
5066772,20170222,10
5163095,20170223,-92
5260328,20170224,-124
5358240,20170225,-124
5453609,20170226,-91
5548134,20170227,-54
5640439,20170228,-69
5731887,20170301,-108
5823585,20170302,-71
5914561,20170303,-33
6006767,20170304,-10
6103280,20170305,1
6199619,20170306,-99
6298079,20170307,-76
6395421,20170308,-7
6492214,20170309,9
6590030,20170310,16
6687358,20170311,24
6783294,20170312,15
6879402,20170313,24
6978512,20170314,41
7076103,20170315,37
7174405,20170316,38
7271898,20170317,46
7369126,20170318,54
7464374,20170319,44
7559932,20170320,46
7658483,20170321,43
7755784,20170322,56
7853046,20170323,0
7950541,20170324,-4
8047396,20170325,4
8142074,20170326,5
8236342,20170327,-5
8333122,20170328,1
8429344,20170329,1
8526084,20170330,21
8622649,20170331,-5
8717979,20170401,-11
8813634,20170402,11
8909640,20170403,-24
9007451,20170404,-46
9104351,20170405,-23
9201720,20170406,27
9297943,20170407,45
9394803,20170408,37
9490458,20170409,-13
9586659,20170410,-13
9685418,20170411,29
9782731,20170412,61
9879736,20170413,60
9976506,20170414,45
10072628,20170415,34
10167511,20170416,40
10262546,20170417,47
10358866,20170418,71
10455002,20170419,47
10551476,20170420,35
10647645,20170421,9
10743362,20170422,22
10837637,20170423,64
10931980,20170424,30
11028977,20170425,-11
11125488,20170426,1
11221770,20170427,-4
11317590,20170428,-46
11413260,20170429,-31
11508564,20170430,0
11603787,20170501,31
11700419,20170502,39
11795573,20170503,49
11891850,20170504,71
11987918,20170505,82
12082684,20170506,79
12175838,20170507,81
12269937,20170508,67
12367039,20170509,24
12463539,20170510,24
12560078,20170511,46
12655561,20170512,72
12750578,20170513,88
12843786,20170514,67
12937674,20170515,61
13034494,20170516,13
13131081,20170517,-15
13227554,20170518,-35
13324153,20170519,-28
13420098,20170520,19
13513893,20170521,38
13607199,20170522,50
13702270,20170523,62
13796828,20170524,94
13891105,20170525,82
13985293,20170526,66
14079382,20170527,55
14172749,20170528,59
14265994,20170529,67
14359882,20170530,77
14454636,20170531,65
14548942,20170601,67
14643955,20170602,75
14738691,20170603,97
14832354,20170604,110
14926046,20170605,113
15021142,20170606,100
15115573,20170607,109
15210806,20170608,115
15306026,20170609,120
15401419,20170610,132
15495510,20170611,110
15590215,20170612,102
15687068,20170613,59
15783486,20170614,91
15879042,20170615,113
15974228,20170616,131
16068524,20170617,149
16161109,20170618,154
16254173,20170619,148
16349600,20170620,155
16443639,20170621,153
16538297,20170622,156
16633104,20170623,138
16727262,20170624,134
16819654,20170625,136
16912682,20170626,134
17008322,20170627,138
17103415,20170628,127
17199117,20170629,123
17294387,20170630,119
17388177,20170701,128
17481082,20170702,126
17574410,20170703,128
17669922,20170704,140
17764430,20170705,152
17859977,20170706,147
17955085,20170707,140
18049906,20170708,150
18143249,20170709,151
18236900,20170710,126
18333170,20170711,127
18428756,20170712,123
18524138,20170713,100
18619303,20170714,124
18713880,20170715,122
18807420,20170716,117
18901129,20170717,112
18997415,20170718,117
19092851,20170719,138
19188401,20170720,128
19283778,20170721,106
19378747,20170722,118
19472322,20170723,114
19565583,20170724,127
19660419,20170725,113
19755355,20170726,128
19850796,20170727,133
19945903,20170728,123
20040370,20170729,118
20133327,20170730,125
20226984,20170731,124
20323514,20170801,109
20419747,20170802,119
20515807,20170803,107
20611123,20170804,114
20705588,20170805,98
20798407,20170806,90
20891891,20170807,101
20987008,20170808,97
21080966,20170809,109
21176194,20170810,125
21271457,20170811,94
21365854,20170812,117
21458369,20170813,107
21551667,20170814,115
21647086,20170815,95
21741105,20170816,92
21836255,20170817,104
21931154,20170818,117
22025150,20170819,120
22118280,20170820,119
22211953,20170821,110
22307186,20170822,97
22402637,20170823,116
22497510,20170824,90
22592382,20170825,108
22687139,20170826,130
22780654,20170827,130
22874289,20170828,135
22969765,20170829,132
23064282,20170830,147
23159156,20170831,112
23254103,20170901,121
23348152,20170902,125
23441012,20170903,138
23533862,20170904,131
23628726,20170905,126
23724446,20170906,109
23818792,20170907,119
23912784,20170908,100
24007085,20170909,112
24100159,20170910,98
24193696,20170911,90
24289156,20170912,105
24383500,20170913,116
24477777,20170914,78
24572009,20170915,66
24666164,20170916,65
24759470,20170917,59
24853101,20170918,73
24948511,20170919,79
25043125,20170920,84
25137590,20170921,102
25232509,20170922,81
25327333,20170923,31
25420587,20170924,11
25514281,20170925,14
25610503,20170926,43
25706009,20170927,38
25800725,20170928,39
25895059,20170929,44
25988975,20170930,55
26080892,20171001,68
26174747,20171002,35
26271394,20171003,71
26367661,20171004,94
26463311,20171005,92
26558737,20171006,35
26653804,20171007,52
26747178,20171008,61
26839537,20171009,-22
26934967,20171010,15
27030485,20171011,53
27125607,20171012,69
27220669,20171013,55
27315639,20171014,23
27409463,20171015,43
27503318,20171016,49
27598631,20171017,53
27694381,20171018,55
27790754,20171019,60
27887248,20171020,60
27982955,20171021,-15
28076770,20171022,45
28170315,20171023,68
28265688,20171024,43
28360219,20171025,45
28455640,20171026,37
28551761,20171027,27
28648133,20171028,28
28742182,20171029,40
28835372,20171030,41
28931166,20171031,11
29026994,20171101,15
29123927,20171102,21
29220186,20171103,42
29316360,20171104,42
29410927,20171105,24
29505389,20171106,21
29601921,20171107,7
29698640,20171108,-16
29794651,20171109,5
29890233,20171110,21
29985443,20171111,6
30080685,20171112,22
30175297,20171113,43
30271639,20171114,18
30368170,20171115,4
30464616,20171116,24
30560274,20171117,15
30656821,20171118,-48
30751738,20171119,-29
30845758,20171120,5
30943465,20171121,27
31040387,20171122,33
31135176,20171123,39
31228656,20171124,39
31323411,20171125,34
31417789,20171126,39
31512992,20171127,42
31610552,20171128,12
31707685,20171129,2
31804494,20171130,1
31900840,20171201,9
31996535,20171202,16
32091953,20171203,16
32187945,20171204,-76
32286355,20171205,-70
32382815,20171206,-72
32478801,20171207,-87
32575991,20171208,-1
32673519,20171209,-24
32770248,20171210,-12
32867865,20171211,3
32966789,20171212,11
33064817,20171213,7
33162706,20171214,-23
33261912,20171215,-24
33359404,20171216,-14
33456051,20171217,-44
33551389,20171218,-39
33648380,20171219,-19
33745192,20171220,-20
33841748,20171221,-90
33938894,20171222,-80
34035829,20171223,-47
34130433,20171224,-48
34224711,20171225,-32
34319230,20171226,-49
34415065,20171227,-38
34510684,20171228,-11
34606692,20171229,0
34703149,20171230,10
34799135,20171231,-13
8128,20180101,-28
104419,20180102,-32
201877,20180103,-27
299549,20180104,-24
398043,20180105,-11
495673,20180106,-14
591575,20180107,-26
687791,20180108,-1
785078,20180109,23
881589,20180110,-21
978275,20180111,-74
1074698,20180112,-66
1170602,20180113,-51
1266178,20180114,-33
1362387,20180115,-35
1461387,20180116,-61
1560226,20180117,-44
1659128,20180118,-12
1757489,20180119,-2
1854678,20180120,-24
1950283,20180121,-105
2046957,20180122,-112
2144776,20180123,-98
2240865,20180124,-59
2337148,20180125,-22
2434583,20180126,-94
2531304,20180127,-79
2625996,20180128,-31
2720034,20180129,-13
2817213,20180130,-5
2914637,20180131,-1
3011955,20180201,5
3109983,20180202,12
3206802,20180203,-4
3302291,20180204,-4
3398566,20180205,9
3497169,20180206,-49
3595836,20180207,-47
3693582,20180208,-4
3790800,20180209,5
3888990,20180210,-47
3984819,20180211,-82
4080888,20180212,-42
4178149,20180213,-22
4274526,20180214,-19
4370832,20180215,-38
4466759,20180216,-79
4562802,20180217,-55
4657021,20180218,-21
4752685,20180219,-55
4849652,20180220,-145
4947157,20180221,-107
5043057,20180222,-89
5139436,20180223,-105
5236822,20180224,-116
5331900,20180225,-112
5426621,20180226,-70
5523429,20180227,-36
5619937,20180228,-66
5715597,20180301,-51
5811166,20180302,-11
5907163,20180303,8
6002616,20180304,-52
6097629,20180305,-115
6190415,20180306,-74
6282290,20180307,-23
6374244,20180308,6
6466251,20180309,-3
6557647,20180310,1
6647501,20180311,0
6736710,20180312,7
6828307,20180313,2
6920269,20180314,34
7012501,20180315,-22
7104145,20180316,-37
7195413,20180317,-18
7284894,20180318,-61
7374320,20180319,-89
7466754,20180320,-60
7557892,20180321,-23
7649627,20180322,30
7741603,20180323,0
7832566,20180324,3
7922249,20180325,13
8011775,20180326,-18
8103981,20180327,-28
8195165,20180328,-15
8285400,20180329,-10
8375787,20180330,8
8464771,20180331,43
8553636,20180401,39
8643811,20180402,41
8736631,20180403,-1
8828613,20180404,16
8919643,20180405,24
9011054,20180406,33
9102591,20180407,43
9192809,20180408,27
9281885,20180409,5
9374207,20180410,32
9464906,20180411,64
9555500,20180412,34
9647085,20180413,-68
9738822,20180414,-14
9828397,20180415,28
9918176,20180416,46
10009920,20180417,-10
10101729,20180418,1
10193459,20180419,51
10284989,20180420,-26
10376285,20180421,7
10466445,20180422,42
10555772,20180423,60
10647060,20180424,45
10737795,20180425,47
10828544,20180426,55
10918667,20180427,64
11008528,20180428,59
11096950,20180429,70
11185997,20180430,50
11277068,20180501,25
11367422,20180502,-11
11458089,20180503,-2
11548593,20180504,30
11637751,20180505,66
11725539,20180506,78
11813232,20180507,84
11903170,20180508,91
11993726,20180509,97
12083809,20180510,114
12173610,20180511,106
12263030,20180512,100
12351258,20180513,66
12439560,20180514,55
12531021,20180515,67
12626557,20180516,85
12721238,20180517,81
12816133,20180518,70
12910567,20180519,65
13003068,20180520,67
13095951,20180521,80
13190891,20180522,62
13285944,20180523,69
13380809,20180524,90
13476392,20180525,104
13571392,20180526,109
13664265,20180527,84
13756828,20180528,69
13850656,20180529,84
13944976,20180530,77
14040064,20180531,116
14133993,20180601,93
14228442,20180602,112
14322109,20180603,100
14415623,20180604,118
14510152,20180605,130
14605610,20180606,120
14700972,20180607,118
14796534,20180608,122
14891828,20180609,131
14985403,20180610,129
15078580,20180611,122
15173499,20180612,139
15268120,20180613,154
15362754,20180614,131
15457244,20180615,137
15551564,20180616,93
15644308,20180617,85
15737762,20180618,99
15833814,20180619,110
15928891,20180620,123
16023922,20180621,138
16117964,20180622,138
16211683,20180623,131
16304094,20180624,119
16397439,20180625,124
16492501,20180626,155
16587405,20180627,161
16682106,20180628,153
16776711,20180629,135
16871208,20180630,131
16964924,20180701,133
17059051,20180702,138
17155001,20180703,127
17250738,20180704,137
17345789,20180705,133
17441516,20180706,128
17535943,20180707,125
17628503,20180708,118
17720859,20180709,134
17816989,20180710,119
17912632,20180711,105
18008047,20180712,120
18103501,20180713,126
18198713,20180714,125
18292483,20180715,117
18386132,20180716,137
18481311,20180717,143
18575850,20180718,141
18670269,20180719,166
18765287,20180720,136
18859424,20180721,147
18951730,20180722,156
19043816,20180723,162
19137831,20180724,139
19231608,20180725,130
19325606,20180726,137
19419789,20180727,107
19513336,20180728,126
19605627,20180729,141
19698389,20180730,136
19793198,20180731,139
19886742,20180801,136
19980021,20180802,153
20073363,20180803,114
20166468,20180804,138
20258318,20180805,154
20350798,20180806,152
20446118,20180807,146
20540795,20180808,146
20634570,20180809,149
20728245,20180810,136
20821927,20180811,134
20913948,20180812,134
21006162,20180813,143
21100574,20180814,134
21195021,20180815,116
21288692,20180816,108
21381872,20180817,116
21475388,20180818,118
21567311,20180819,114
21659561,20180820,128
21753704,20180821,116
21846808,20180822,97
21939505,20180823,108
22033614,20180824,118
22127947,20180825,102
22220685,20180826,110
22313452,20180827,110
22408661,20180828,102
22503668,20180829,113
22598296,20180830,124
22692112,20180831,111
22785487,20180901,84
22877642,20180902,77
22968935,20180903,67
23062893,20180904,77
23157606,20180905,78
23252084,20180906,78
23346001,20180907,98
23438939,20180908,108
23530430,20180909,114
23622069,20180910,105
23715924,20180911,113
23809205,20180912,112
23902454,20180913,103
23995856,20180914,107
24088834,20180915,119
24180291,20180916,119
24271268,20180917,119
24358155,20180918,119
24448984,20180919,77
24543054,20180920,85
24636898,20180921,85
24730473,20180922,91
24821846,20180923,93
24913228,20180924,92
25000941,20180925,72
25093813,20180926,70
25186755,20180927,84
25279315,20180928,87
25372087,20180929,96
25463676,20180930,94
25555638,20181001,80
25650315,20181002,79
25744428,20181003,96
25838340,20181004,60
25932410,20181005,32
26025746,20181006,37
26117584,20181007,15
26209417,20181008,-1
26302946,20181009,4
26396885,20181010,2
26490788,20181011,9
26583658,20181012,19
26676918,20181013,16
26768432,20181014,-14
26861069,20181015,-34
26956478,20181016,19
27050390,20181017,16
27144529,20181018,7
27239172,20181019,8
27332466,20181020,31
27423810,20181021,41
27516106,20181022,48
27611240,20181023,34
27704070,20181024,24
27797419,20181025,15
27891392,20181026,22
27983418,20181027,42
28074661,20181028,45
28166447,20181029,45
28260580,20181030,7
28354410,20181031,-26
28448381,20181101,-14
28541622,20181102,9
28633950,20181103,-19
28724805,20181104,-15
28816606,20181105,-13
28910122,20181106,-22
29002887,20181107,-30
29096691,20181108,-64
29191145,20181109,-44
29285947,20181110,-31
29378635,20181111,-67
29472702,20181112,-121
29568344,20181113,-50
29663439,20181114,-14
29757872,20181115,-4
29853051,20181116,-5
29947727,20181117,-10
30033679,20181118,-35
30119602,20181119,-30
30206210,20181120,-17
30292114,20181121,-16
30377710,20181122,-28
30462168,20181123,-46
30554950,20181124,-42
30646709,20181125,-102
30740399,20181126,-61
30836513,20181127,-27
30931808,20181128,-4
31027441,20181129,-12
31122971,20181130,-46
31216917,20181201,-86
31309529,20181202,-98
31402966,20181203,-117
31499165,20181204,-123
31594961,20181205,-41
31690973,20181206,-35
31786661,20181207,-46
31881287,20181208,-66
31974473,20181209,-89
32068366,20181210,-44
32164855,20181211,-23
32260703,20181212,-62
32356421,20181213,-91
32451562,20181214,-39
32545114,20181215,-30
32637209,20181216,-24
32729772,20181217,-18
32825878,20181218,-32
32921459,20181219,-28
33016445,20181220,-18
33109723,20181221,-28
33202383,20181222,-70
33294104,20181223,-55
33385913,20181224,-48
33477475,20181225,-25
33568205,20181226,-55
33661126,20181227,-105
33754632,20181228,-117
33847154,20181229,-128
33939076,20181230,-73
34030514,20181231,-98
7938,20190101,-120
101316,20190102,-141
195779,20190103,-53
289474,20190104,-14
382657,20190105,-11
474727,20190106,-38
568232,20190107,-72
663428,20190108,-37
757768,20190109,-24
852367,20190110,-23
947164,20190111,-53
1041636,20190112,-69
1136330,20190113,-73
1230819,20190114,-69
1326660,20190115,-33
1421875,20190116,-31
1516834,20190117,-35
1611189,20190118,-63
1705724,20190119,-70
1799264,20190120,-28
1892500,20190121,-51
1986793,20190122,-116
2082395,20190123,-77
2176892,20190124,-85
2270391,20190125,-82
2364221,20190126,-58
2457599,20190127,-26
2551388,20190128,-84
2647369,20190129,-75
2742226,20190130,-82
2837132,20190131,-55
2931878,20190201,-45
3026252,20190202,-26
3119364,20190203,-14
3212117,20190204,-16
3307430,20190205,-40
3402174,20190206,-97
3496742,20190207,-151
3591618,20190208,-106
3685308,20190209,-72
3777943,20190210,-82
3870719,20190211,-105
3965880,20190212,-94
4059375,20190213,-45
4153274,20190214,-21
4247254,20190215,-38
4341082,20190216,-104
4433092,20190217,-127
4525157,20190218,-117
4619145,20190219,-133
4713838,20190220,-136
4809126,20190221,-92
4903116,20190222,-70
4996557,20190223,-107
5088727,20190224,-99
5180469,20190225,-61
5274855,20190226,-44
5368841,20190227,-24
5462604,20190228,-22
5555924,20190301,2
5649024,20190302,-8
5741112,20190303,-16
5834084,20190304,-45
5929288,20190305,-37
6023376,20190306,6
6117280,20190307,-6
6211566,20190308,-30
6304956,20190309,-60
6396522,20190310,-36
6488114,20190311,-9
6582004,20190312,3
6674740,20190313,-49
6766778,20190314,-93
6860575,20190315,-66
6953185,20190316,-40
7043506,20190317,-24
7135114,20190318,-21
7229171,20190319,-30
7322412,20190320,-21
7415101,20190321,-17
7507383,20190322,-36
7599675,20190323,-14
7691365,20190324,-23
7782761,20190325,-14
7876390,20190326,28
7968315,20190327,46
8060919,20190328,34
8152932,20190329,-30
8244857,20190330,-57
8335826,20190331,-44
8425337,20190401,-24
8511404,20190402,-2
8597327,20190403,-8
8682899,20190404,12
8767990,20190405,12
8851755,20190406,15
8934810,20190407,37
9018444,20190408,54
9103310,20190409,57
9187864,20190410,-16
9272626,20190411,-65
9358454,20190412,-54
9442768,20190413,-38
9525713,20190414,5
9608351,20190415,43
9692925,20190416,29
9777351,20190417,28
9861853,20190418,39
9945614,20190419,54
10028150,20190420,38
10109297,20190421,37
10190743,20190422,41
10274840,20190423,35
10358676,20190424,49
10441742,20190425,64
10524337,20190426,46
10605892,20190427,39
10687075,20190428,57
10769321,20190429,25
10853178,20190430,14
10936065,20190501,-3
11009373,20190502,12
11081498,20190503,22
11153095,20190504,37
11223078,20190505,54
11293351,20190506,65
11365609,20190507,43
11438242,20190508,5
11510590,20190509,0
11583070,20190510,12
11653432,20190511,24
11722468,20190512,43
11791783,20190513,65
11862068,20190514,65
11932556,20190515,76
12000736,20190516,86
12059958,20190517,7
12119151,20190518,-2
12177570,20190519,7
12237066,20190520,-22
12305531,20190521,-16
12374714,20190522,4
12443010,20190523,-1
12509521,20190524,8
12576049,20190525,44
12641943,20190526,49
12708152,20190527,7
12775069,20190528,5
12842788,20190529,8
12909981,20190530,30
12975115,20190531,61
