,date,data_value
19503629,20160720,248
19599505,20160721,329
19695798,20160722,283
19791554,20160723,360
19886050,20160724,274
19980652,20160725,292
20077566,20160726,325
20173568,20160727,356
20269693,20160728,345
20365850,20160729,374
20461046,20160730,266
20554669,20160731,276
20648760,20160801,345
20745050,20160802,253
20841434,20160803,320
20937760,20160804,210
21034243,20160805,168
21129783,20160806,252
21223901,20160807,267
21318457,20160808,320
21415640,20160809,320
21511913,20160810,316
21608016,20160811,346
21704108,20160812,403
21799926,20160813,378
21893881,20160814,312
21988174,20160815,332
22084690,20160816,307
22180850,20160817,306
22276515,20160818,304
22372666,20160819,389
22468193,20160820,367
22561857,20160821,205
22655666,20160822,310
22752107,20160823,278
22849170,20160824,359
22946020,20160825,327
23042541,20160826,338
23138639,20160827,227
23233020,20160828,325
23327812,20160829,328
23425002,20160830,263
23521697,20160831,325
23617949,20160901,278
23714071,20160902,264
23809238,20160903,274
23903381,20160904,298
23998132,20160905,307
24094294,20160906,291
24191356,20160907,391
24288087,20160908,368
24384081,20160909,400
24480129,20160910,319
24574701,20160911,363
24669106,20160912,244
24766642,20160913,244
24863184,20160914,281
24959464,20160915,348
25055621,20160916,346
25152251,20160917,355
25246318,20160918,357
25340703,20160919,326
25437373,20160920,268
25533591,20160921,179
25630303,20160922,230
25726545,20160923,290
25821936,20160924,349
25915823,20160925,318
26010571,20160926,325
26106746,20160927,325
26201713,20160928,277
26297154,20160929,172
26391982,20160930,280
26486674,20161001,366
26580243,20161002,281
26674413,20161003,319
26771223,20161004,370
26868447,20161005,339
26965704,20161006,388
27062482,20161007,337
27158385,20161008,324
27252356,20161009,381
27346476,20161010,352
27443061,20161011,346
27540589,20161012,347
27637622,20161013,346
27733950,20161014,353
27830249,20161015,361
27924860,20161016,281
28020127,20161017,358
28117746,20161018,329
28215115,20161019,358
28312490,20161020,337
28409388,20161021,363
28505294,20161022,362
28599437,20161023,356
28694630,20161024,292
28792365,20161025,361
28889503,20161026,361
28986657,20161027,350
29083450,20161028,314
29179872,20161029,368
29274608,20161030,281
29369805,20161031,307
29467456,20161101,295
29565627,20161102,283
29663496,20161103,278
29760644,20161104,226
29857113,20161105,203
29953046,20161106,369
30049009,20161107,322
30147211,20161108,358
30244463,20161109,350
30340888,20161110,333
30437811,20161111,369
30534985,20161112,367
30630731,20161113,396
30726918,20161114,367
30825023,20161115,339
30922642,20161116,275
31020349,20161117,381
31118689,20161118,312
31217800,20161119,337
31313369,20161120,249
31409542,20161121,215
31507651,20161122,371
31604824,20161123,304
31700153,20161124,329
31793911,20161125,275
31888527,20161126,228
31983061,20161127,397
32078998,20161128,386
32176206,20161129,281
32272685,20161130,351
32369310,20161201,348
32466025,20161202,238
32563572,20161203,346
32659537,20161204,368
32755180,20161205,363
32853903,20161206,360
32951082,20161207,371
33049050,20161208,312
33148035,20161209,329
33247024,20161210,325
33343745,20161211,402
33441575,20161212,375
33540630,20161213,371
33638397,20161214,374
33736367,20161215,326
33834815,20161216,290
33933069,20161217,420
34030683,20161218,300
34127944,20161219,338
34225844,20161220,345
34323396,20161221,358
34420567,20161222,153
34517603,20161223,326
34613402,20161224,207
34706829,20161225,410
34799839,20161226,317
34894599,20161227,363
34989592,20161228,350
35085241,20161229,340
35181065,20161230,353
35276930,20161231,308
7875,20170101,298
102129,20170102,177
198036,20170103,437
295549,20170104,435
392764,20170105,415
492701,20170106,331
593644,20170107,315
691970,20170108,364
790483,20170109,401
890534,20170110,312
989320,20170111,396
1086939,20170112,177
1184087,20170113,116
1280667,20170114,169
1375963,20170115,296
1471586,20170116,271
1569618,20170117,273
1667408,20170118,343
1764099,20170119,304
1860986,20170120,312
1957462,20170121,294
2052115,20170122,253
2146999,20170123,350
2244482,20170124,397
2342128,20170125,353
2439869,20170126,350
2536667,20170127,320
2633994,20170128,356
2729893,20170129,333
2825774,20170130,328
2924819,20170131,398
3023336,20170201,355
3123138,20170202,346
3221905,20170203,313
3319740,20170204,417
3415737,20170205,350
3511693,20170206,413
3611003,20170207,423
3708884,20170208,368
3806855,20170209,344
3905249,20170210,344
4003490,20170211,341
4099788,20170212,165
4195953,20170213,291
4294733,20170214,367
4392505,20170215,309
4489582,20170216,343
4586668,20170217,310
4683320,20170218,205
4778097,20170219,317
4873021,20170220,317
4969990,20170221,320
5066771,20170222,335
5163094,20170223,368
5260327,20170224,380
5358239,20170225,358
5453608,20170226,345
5548133,20170227,250
5640438,20170228,413
5731886,20170301,348
5823584,20170302,334
5914560,20170303,299
6006766,20170304,289
6103279,20170305,256
6199618,20170306,378
6298078,20170307,349
6395420,20170308,334
6492213,20170309,386
6590029,20170310,346
6687357,20170311,358
6783293,20170312,396
6879401,20170313,371
6978511,20170314,414
7076102,20170315,350
7174404,20170316,371
7271897,20170317,344
7369125,20170318,303
7464373,20170319,333
7559931,20170320,330
7658482,20170321,289
7755783,20170322,268
7853045,20170323,348
7950540,20170324,383
8047395,20170325,292
8142073,20170326,383
8236341,20170327,268
8333121,20170328,391
8429343,20170329,350
8526083,20170330,330
8622648,20170331,234
8717978,20170401,229
8813633,20170402,431
8909639,20170403,270
9007450,20170404,433
9104350,20170405,352
9201719,20170406,357
9297942,20170407,384
9394802,20170408,346
9490457,20170409,383
9586658,20170410,350
9685417,20170411,277
9782730,20170412,354
9879735,20170413,302
9976505,20170414,329
10072627,20170415,361
10167510,20170416,359
10262545,20170417,325
10358865,20170418,322
10455001,20170419,377
10551475,20170420,347
10647644,20170421,437
10743361,20170422,338
10837636,20170423,277
10931979,20170424,301
11028976,20170425,425
11125487,20170426,320
11221769,20170427,423
11317589,20170428,350
11413259,20170429,355
11508563,20170430,397
11603786,20170501,420
11700418,20170502,394
11795572,20170503,471
11891849,20170504,355
11987917,20170505,339
12082683,20170506,259
12175837,20170507,232
12269936,20170508,285
23159155,20170831,7
23254102,20170901,6
23348151,20170902,7
23441011,20170903,6
23533861,20170904,6
23628725,20170905,7
23724445,20170906,7
23818791,20170907,7
23912783,20170908,8
24007084,20170909,6
24100158,20170910,5
24193695,20170911,8
24289155,20170912,6
24383499,20170913,6
24477776,20170914,8
24572008,20170915,13
24666163,20170916,7
24759469,20170917,9
24853100,20170918,14
24948510,20170919,15
25043124,20170920,16
25137589,20170921,24
25232508,20170922,23
25327332,20170923,6
25420586,20170924,13
25514280,20170925,5
25610502,20170926,9
25706008,20170927,7
25800724,20170928,7
25895058,20170929,6
25988974,20170930,8
26080891,20171001,18
26174746,20171002,15
26271393,20171003,13
26367660,20171004,21
26463310,20171005,13
26558736,20171006,7
26653803,20171007,7
26747177,20171008,11
26839536,20171009,5
26934966,20171010,4
27030484,20171011,10
27125606,20171012,16
27220668,20171013,13
27315638,20171014,7
27409462,20171015,8
27503317,20171016,6
27598630,20171017,6
27694380,20171018,5
27790753,20171019,8
27887247,20171020,17
27982954,20171021,3
28076769,20171022,5
28170314,20171023,11
28265687,20171024,7
28360218,20171025,5
28455639,20171026,8
28551760,20171027,13
28648132,20171028,10
28742181,20171029,7
28835371,20171030,7
28931165,20171031,3
29026993,20171101,4
29123926,20171102,6
29220185,20171103,15
29316359,20171104,14
29410926,20171105,10
29505388,20171106,10
29601920,20171107,7
29698639,20171108,4
29794650,20171109,5
29890232,20171110,7
29985442,20171111,6
30080684,20171112,6
30175296,20171113,6
30271638,20171114,6
30368169,20171115,9
30464615,20171116,8
30560273,20171117,13
30656820,20171118,8
30751737,20171119,7
30845757,20171120,5
30943464,20171121,9
31040386,20171122,10
31135175,20171123,7
31228655,20171124,7
31323410,20171125,6
31417788,20171126,7
31512991,20171127,16
31610551,20171128,6
31707684,20171129,4
31804493,20171130,6
31900839,20171201,5
31996534,20171202,5
32091952,20171203,17
32187944,20171204,7
32286354,20171205,5
32382814,20171206,9
32478800,20171207,11
32575990,20171208,18
32673518,20171209,8
32770247,20171210,7
32867864,20171211,8
32966788,20171212,7
33064816,20171213,6
33162705,20171214,11
33261911,20171215,6
33359403,20171216,4
33456050,20171217,4
33551388,20171218,5
33648379,20171219,6
33745191,20171220,13
33841747,20171221,15
33938893,20171222,8
34035828,20171223,7
34130432,20171224,4
34224710,20171225,5
34319229,20171226,5
34415064,20171227,7
34510683,20171228,5
34606691,20171229,8
34703148,20171230,7
34799134,20171231,4
8127,20180101,4
104418,20180102,10
201876,20180103,7
299548,20180104,7
398042,20180105,5
495672,20180106,3
591574,20180107,7
687790,20180108,6
785077,20180109,11
881588,20180110,6
978274,20180111,8
1074697,20180112,6
1170601,20180113,6
1266177,20180114,9
1362386,20180115,8
1461386,20180116,7
1560225,20180117,8
1659127,20180118,7
1757488,20180119,6
1854677,20180120,13
1950282,20180121,6
2046956,20180122,7
2144775,20180123,7
2240864,20180124,7
2337147,20180125,16
2434582,20180126,8
2531303,20180127,7
2625995,20180128,9
2720033,20180129,8
2817212,20180130,7
2914636,20180131,6
3011954,20180201,5
3109982,20180202,5
3206801,20180203,5
3302290,20180204,6
3398565,20180205,6
3497168,20180206,4
3595835,20180207,5
3693581,20180208,5
3790799,20180209,5
3888989,20180210,6
3984818,20180211,9
4080887,20180212,17
4178148,20180213,8
4274525,20180214,13
4370831,20180215,5
4466758,20180216,4
4562801,20180217,6
4657020,20180218,17
4752684,20180219,27
4849651,20180220,6
4947156,20180221,9
5043056,20180222,10
5139435,20180223,13
5236821,20180224,5
5331899,20180225,4
5426620,20180226,11
5523428,20180227,15
5619936,20180228,5
5715596,20180301,14
5811165,20180302,16
5907162,20180303,18
6002615,20180304,24
6097628,20180305,7
6190414,20180306,7
6282289,20180307,7
6374243,20180308,6
6466250,20180309,7
6557646,20180310,6
6647500,20180311,4
6736709,20180312,6
6828306,20180313,6
6920268,20180314,17
7012500,20180315,17
7104144,20180316,7
7195412,20180317,14
7284893,20180318,9
7374319,20180319,4
7466753,20180320,5
7557891,20180321,4
7649626,20180322,7
7741602,20180323,13
7832565,20180324,13
7922248,20180325,20
8011774,20180326,8
8103980,20180327,7
8195164,20180328,10
8285399,20180329,6
8375786,20180330,7
8464770,20180331,6
8553635,20180401,8
8643810,20180402,11
8736630,20180403,7
8828612,20180404,7
8919642,20180405,5
9011053,20180406,4
9102590,20180407,3
9192808,20180408,6
9281884,20180409,6
9374206,20180410,6
9464905,20180411,10
9555499,20180412,23
9647084,20180413,12
9738821,20180414,11
9828396,20180415,7
9918175,20180416,19
10009919,20180417,21
10101728,20180418,7
10193458,20180419,23
10284988,20180420,9
10376284,20180421,13
10466444,20180422,6
10555771,20180423,8
10647059,20180424,7
10737794,20180425,7
10828543,20180426,7
10918666,20180427,8
11008527,20180428,9
11096949,20180429,24
11185996,20180430,25
11277067,20180501,25
11367421,20180502,7
11458088,20180503,4
11548592,20180504,4
11637750,20180505,6
11725538,20180506,7
11813231,20180507,9
11903169,20180508,7
11993725,20180509,8
12083808,20180510,16
12173609,20180511,32
12263029,20180512,36
12351257,20180513,22
12439559,20180514,14
12531020,20180515,15
12626556,20180516,13
12721237,20180517,17
12816132,20180518,7
12910566,20180519,7
13003067,20180520,9
13095950,20180521,14
13190890,20180522,10
13285943,20180523,15
13380808,20180524,8
13476391,20180525,15
13571391,20180526,19
13664264,20180527,15
13756827,20180528,6
13850655,20180529,6
13944975,20180530,6
14040063,20180531,22
14133992,20180601,11
14228441,20180602,8
14322108,20180603,11
14415622,20180604,8
14510151,20180605,10
14605609,20180606,13
14700971,20180607,15
14796533,20180608,8
14891827,20180609,20
14985402,20180610,17
15078579,20180611,8
15173498,20180612,8
15268119,20180613,9
15362753,20180614,10
15457243,20180615,9
15551563,20180616,8
15644307,20180617,5
15737761,20180618,17
15833813,20180619,7
15928890,20180620,6
16023921,20180621,9
16117963,20180622,9
16211682,20180623,9
16304093,20180624,8
16397438,20180625,9
16492500,20180626,8
16587404,20180627,8
16682105,20180628,15
16776710,20180629,7
16871207,20180630,7
16964923,20180701,8
17059050,20180702,8
17155000,20180703,7
17250737,20180704,6
17345788,20180705,10
17441515,20180706,8
17535942,20180707,6
17628502,20180708,6
17720858,20180709,6
17816988,20180710,6
17912631,20180711,6
18008046,20180712,4
18103500,20180713,5
18198712,20180714,5
18292482,20180715,5
18386131,20180716,6
18481310,20180717,5
18575849,20180718,6
18670268,20180719,6
18765286,20180720,6
18859423,20180721,8
18951729,20180722,7
19043815,20180723,7
19137830,20180724,5
19231607,20180725,6
19325605,20180726,6
19419788,20180727,9
19513335,20180728,6
19605626,20180729,6
19698388,20180730,8
19793197,20180731,7
19886741,20180801,7
19980020,20180802,5
20073362,20180803,4
20166467,20180804,5
20258317,20180805,8
20350797,20180806,9
20446117,20180807,8
20540794,20180808,8
20634569,20180809,8
20728244,20180810,9
20821926,20180811,6
20913947,20180812,8
21006161,20180813,7
21100573,20180814,6
21195020,20180815,6
21288691,20180816,6
21381871,20180817,4
21475387,20180818,5
21567310,20180819,7
21659560,20180820,7
21753703,20180821,8
21846807,20180822,3
21939504,20180823,5
22033613,20180824,5
22127946,20180825,8
22220684,20180826,6
22313451,20180827,8
22408660,20180828,8
22503667,20180829,7
22598295,20180830,6
22692111,20180831,6
22785486,20180901,9
22877641,20180902,5
22968934,20180903,5
23062892,20180904,5
23157605,20180905,6
23252083,20180906,7
23346000,20180907,7
23438938,20180908,6
23530429,20180909,6
23622068,20180910,7
23715923,20180911,11
23809204,20180912,18
23902453,20180913,12
23995855,20180914,13
24088833,20180915,7
24180290,20180916,8
24271267,20180917,7
24358154,20180918,8
24448983,20180919,5
24543053,20180920,5
24636897,20180921,9
24730472,20180922,6
24821845,20180923,7
24913227,20180924,6
25000940,20180925,8
25093812,20180926,7
25186754,20180927,8
25279314,20180928,9
25372086,20180929,8
25463675,20180930,10
25555637,20181001,6
25650314,20181002,6
25744427,20181003,6
25838339,20181004,14
25932409,20181005,4
26025745,20181006,12
26117583,20181007,9
26209416,20181008,4
26302945,20181009,2
26396884,20181010,5
26490787,20181011,5
26583657,20181012,2
26676917,20181013,4
26768431,20181014,4
26861068,20181015,5
26956477,20181016,8
27050389,20181017,13
27144528,20181018,8
27239171,20181019,6
27332465,20181020,6
27423809,20181021,5
27516105,20181022,9
27611239,20181023,4
27704069,20181024,3
27797418,20181025,5
27891391,20181026,6
27983417,20181027,6
28074660,20181028,7
28166446,20181029,7
28260579,20181030,4
28354409,20181031,4
28448380,20181101,13
28541621,20181102,5
28633949,20181103,8
28724804,20181104,4
28816605,20181105,8
28910121,20181106,7
29002886,20181107,5
29096690,20181108,7
29191144,20181109,6
29285946,20181110,5
29378634,20181111,7
29472701,20181112,7
29568343,20181113,9
29663438,20181114,5
29757871,20181115,7
29853050,20181116,6
29947726,20181117,7
30033678,20181118,5
30119601,20181119,6
30206209,20181120,7
30292113,20181121,7
30377709,20181122,7
30462167,20181123,4
30554949,20181124,7
30646708,20181125,7
30740398,20181126,9
30836512,20181127,6
30931807,20181128,5
31027440,20181129,10
31122970,20181130,4
31216916,20181201,3
31309528,20181202,4
31402965,20181203,3
31499164,20181204,5
31594960,20181205,4
31690972,20181206,4
31786660,20181207,4
31881286,20181208,5
31974472,20181209,7
32068365,20181210,7
32164854,20181211,6
32260702,20181212,8
32356420,20181213,10
32451561,20181214,7
32545113,20181215,7
32637208,20181216,6
32729771,20181217,4
32825877,20181218,6
32921458,20181219,11
33016444,20181220,7
33109722,20181221,5
33202382,20181222,5
33294103,20181223,5
33385912,20181224,2
33477474,20181225,12
33568204,20181226,4
33661125,20181227,3
33754631,20181228,4
33847153,20181229,7
33939075,20181230,5
34030513,20181231,4
7937,20190101,6
101315,20190102,5
195778,20190103,9
289473,20190104,7
382656,20190105,11
474726,20190106,8
568231,20190107,3
663427,20190108,5
757767,20190109,4
852366,20190110,3
947163,20190111,8
1041635,20190112,3
1136329,20190113,6
1230818,20190114,4
1326659,20190115,6
1421874,20190116,3
1516833,20190117,6
1611188,20190118,8
1705723,20190119,6
1799263,20190120,5
1892499,20190121,12
1986792,20190122,8
2082394,20190123,8
2176891,20190124,6
2270390,20190125,13
2364220,20190126,11
2457598,20190127,6
2551387,20190128,8
2647368,20190129,7
2742225,20190130,8
2837131,20190131,7
2931877,20190201,6
3026251,20190202,7
3119363,20190203,12
3212116,20190204,18
3307429,20190205,28
3402173,20190206,15
3496741,20190207,4
3591617,20190208,11
3685307,20190209,11
3777942,20190210,15
3870718,20190211,10
3965879,20190212,7
4059374,20190213,6
4153273,20190214,1
4247253,20190215,7
4341081,20190216,8
4433091,20190217,6
4525156,20190218,9
4619144,20190219,1
4713837,20190220,5
4809125,20190221,10
4903115,20190222,7
4996556,20190223,6
5088726,20190224,6
5180468,20190225,4
5274854,20190226,5
5368840,20190227,5
5462603,20190228,4
5555923,20190301,6
5649023,20190302,6
5741111,20190303,3
5834083,20190304,3
5929287,20190305,5
6023375,20190306,11
6117279,20190307,9
6211565,20190308,20
6304955,20190309,5
6396521,20190310,11
6488113,20190311,10
6582003,20190312,4
6674739,20190313,4
6766777,20190314,6
6860574,20190315,4
6953184,20190316,4
7043505,20190317,6
7135113,20190318,6
7229170,20190319,6
7322411,20190320,9
7415100,20190321,12
7507382,20190322,4
7599674,20190323,4
7691364,20190324,6
7782760,20190325,6
7876389,20190326,14
7968314,20190327,14
8060918,20190328,8
8152931,20190329,6
8244856,20190330,5
8335825,20190331,6
8425336,20190401,7
8511403,20190402,9
8597326,20190403,4
8682898,20190404,8
8767989,20190405,13
8851754,20190406,6
8934809,20190407,6
9018443,20190408,6
9103309,20190409,19
9187863,20190410,16
9272625,20190411,8
9358453,20190412,6
9442767,20190413,6
9525712,20190414,8
9608350,20190415,11
9692924,20190416,17
9777350,20190417,8
9861852,20190418,11
9945613,20190419,7
10028149,20190420,13
10109296,20190421,14
10190742,20190422,9
10274839,20190423,4
10358675,20190424,5
10441741,20190425,6
10524336,20190426,6
10605891,20190427,8
10687074,20190428,11
10769320,20190429,8
10853177,20190430,6
10936064,20190501,4
11009372,20190502,4
11081497,20190503,7
11153094,20190504,6
11223077,20190505,6
11293350,20190506,14
11365608,20190507,9
11438241,20190508,3
11510589,20190509,4
11583069,20190510,3
11653431,20190511,6
11722467,20190512,6
11791782,20190513,6
11862067,20190514,7
11932555,20190515,12
12000735,20190516,22
12059957,20190517,10
12119150,20190518,4
12177569,20190519,14
12237065,20190520,5
12305530,20190521,4
12374713,20190522,10
12443009,20190523,17
12509520,20190524,12
12576048,20190525,19
12641942,20190526,15
12708151,20190527,17
12775068,20190528,4
12842787,20190529,2
12909980,20190530,6
12975114,20190531,7
