,date,data_value
8661,20100101,-139
114912,20100102,-157
222287,20100103,-160
330515,20100104,-155
440612,20100105,-108
550385,20100106,-78
661062,20100107,-173
772014,20100108,-184
882216,20100109,-128
990109,20100110,-114
1097705,20100111,-103
1207508,20100112,-106
1317381,20100113,-104
1426983,20100114,-112
1536341,20100115,-132
1645746,20100116,-99
1753503,20100117,-110
1861011,20100118,-129
1970190,20100119,-107
2080968,20100120,-140
2190852,20100121,-94
2299669,20100122,-87
2408327,20100123,-113
2515633,20100124,-199
2622732,20100125,-188
2731264,20100126,-140
2840299,20100127,-103
2949949,20100128,-93
3059930,20100129,-134
3169284,20100130,-112
3277163,20100131,-134
3385299,20100201,-174
3495904,20100202,-163
3605365,20100203,-138
3715432,20100204,-111
3825825,20100205,-100
3934870,20100206,-78
4043133,20100207,-86
4151712,20100208,-128
4263386,20100209,-113
4374374,20100210,-176
4484390,20100211,-191
4594113,20100212,-168
4703526,20100213,-144
4811981,20100214,-141
4920775,20100215,-164
5030628,20100216,-144
5140334,20100217,-136
5249999,20100218,-135
5359444,20100219,-108
5469201,20100220,-64
5577626,20100221,-98
5686686,20100222,-215
5797086,20100223,-220
5906422,20100224,-157
6015839,20100225,-155
6125026,20100226,-178
6234376,20100227,-117
6341729,20100228,-113
6449232,20100301,-147
6559722,20100302,-141
6669257,20100303,-102
6779094,20100304,-104
6888603,20100305,-141
6998312,20100306,-146
7106871,20100307,-37
7215368,20100308,-118
7325978,20100309,-126
7435795,20100310,-106
7545703,20100311,-155
7655403,20100312,-155
7764019,20100313,-118
7870687,20100314,-118
7978244,20100315,-134
8087810,20100316,-124
8196871,20100317,-99
8306348,20100318,-75
8415418,20100319,-106
8525573,20100320,-179
8634717,20100321,-155
8742445,20100322,-85
8851176,20100323,-100
8959830,20100324,-124
9069697,20100325,-143
9178357,20100326,-83
9286011,20100327,-148
9393458,20100328,-155
9500625,20100329,-98
9609277,20100330,-44
9718295,20100331,-19
9827614,20100401,-129
9937368,20100402,-147
10046990,20100403,-76
10155035,20100404,-33
10262730,20100405,-55
10372634,20100406,-99
10482578,20100407,-116
10592911,20100408,-144
10701580,20100409,-80
10809519,20100410,-53
10917252,20100411,-40
11024926,20100412,-15
11134702,20100413,-72
11244276,20100414,-80
11354029,20100415,-42
11464015,20100416,-31
11573274,20100417,-12
11680303,20100418,-24
11787737,20100419,-23
11897213,20100420,-13
12006679,20100421,-38
12116044,20100422,-66
12225482,20100423,-51
12334506,20100424,-60
12441639,20100425,-61
12548513,20100426,-41
12656802,20100427,-62
12765233,20100428,8
12873468,20100429,-140
12982927,20100430,-145
13092122,20100501,-134
13199566,20100502,-84
13307192,20100503,-108
13416165,20100504,-39
13525219,20100505,-25
13635039,20100506,-35
13744874,20100507,-85
13854852,20100508,-29
13962458,20100509,-10
14070604,20100510,-13
14181670,20100511,-89
14291179,20100512,-104
14401951,20100513,-24
14512155,20100514,-22
14621465,20100515,-28
14729270,20100516,-41
14837235,20100517,-9
14946357,20100518,-7
15054925,20100519,-3
15164108,20100520,-21
15273529,20100521,23
15382294,20100522,56
15489932,20100523,40
15598062,20100524,-53
15709134,20100525,-13
15819516,20100526,-2
15929248,20100527,24
16039003,20100528,65
16148034,20100529,-10
16255298,20100530,-27
16363025,20100531,-2
16471636,20100601,11
16581199,20100602,17
16691011,20100603,17
16799954,20100604,31
16909069,20100605,52
17016708,20100606,56
17124046,20100607,68
17233208,20100608,59
17343272,20100609,59
17452125,20100610,48
17559893,20100611,29
17669317,20100612,16
17777872,20100613,-6
17885866,20100614,0
17995564,20100615,-10
18105163,20100616,33
18214228,20100617,22
18323250,20100618,24
18432253,20100619,26
18540330,20100620,34
18648586,20100621,21
18759129,20100622,27
18869285,20100623,12
18979565,20100624,48
19088963,20100625,70
19198244,20100626,54
19306070,20100627,45
19414071,20100628,41
19523338,20100629,44
19631711,20100630,53
19740204,20100701,49
19848955,20100702,79
19956869,20100703,54
20063741,20100704,27
20171863,20100705,15
20280892,20100706,27
20391211,20100707,39
20501182,20100708,44
20610741,20100709,35
20719562,20100710,50
20826961,20100711,48
20935114,20100712,45
21044809,20100713,70
21154009,20100714,74
21262915,20100715,57
21372730,20100716,69
21482312,20100717,89
21590507,20100718,83
21698718,20100719,85
21808313,20100720,90
21917411,20100721,64
22026669,20100722,67
22135444,20100723,63
22244048,20100724,57
22351272,20100725,71
22458513,20100726,57
22567567,20100727,68
22676466,20100728,102
22785454,20100729,97
22893264,20100730,90
23000937,20100731,86
23107740,20100801,92
23215462,20100802,94
23325719,20100803,63
23435959,20100804,62
23546477,20100805,50
23656209,20100806,52
23765189,20100807,71
23873043,20100808,69
23981535,20100809,44
24091759,20100810,44
24201883,20100811,38
24312507,20100812,49
24422672,20100813,33
24532156,20100814,28
24640013,20100815,41
24747555,20100816,49
24857076,20100817,51
24966767,20100818,56
25075862,20100819,33
25185693,20100820,15
25295180,20100821,48
25403309,20100822,65
25511183,20100823,70
25621578,20100824,62
25731419,20100825,52
25840727,20100826,46
25950558,20100827,49
26059895,20100828,55
26168132,20100829,58
26276292,20100830,52
26386101,20100831,29
26495564,20100901,19
26605846,20100902,17
26716123,20100903,30
26825415,20100904,34
26932691,20100905,46
27040578,20100906,21
27149477,20100907,14
27258957,20100908,68
27368004,20100909,18
27476630,20100910,-15
27585768,20100911,-28
27693294,20100912,5
27800189,20100913,43
27910096,20100914,27
28020064,20100915,33
28130147,20100916,25
28239413,20100917,17
28347966,20100918,39
28455673,20100919,36
28563356,20100920,50
28673144,20100921,35
28782707,20100922,16
28892255,20100923,-7
29000755,20100924,-8
29109021,20100925,-1
29215799,20100926,38
29322298,20100927,34
29430592,20100928,50
29538952,20100929,47
29647695,20100930,55
29756355,20101001,34
29864440,20101002,6
29971450,20101003,21
30078759,20101004,24
30188028,20101005,36
30297005,20101006,44
30406062,20101007,31
30514950,20101008,-21
30623513,20101009,-35
30731188,20101010,-22
30839129,20101011,-27
30948667,20101012,-13
31057675,20101013,-20
31166502,20101014,-12
31275393,20101015,-8
31383320,20101016,-4
31490688,20101017,-12
31598417,20101018,-11
31708372,20101019,-22
31817543,20101020,-14
31927004,20101021,-1
32035908,20101022,-11
32144330,20101023,1
32251698,20101024,5
32358988,20101025,-92
32468113,20101026,-127
32576508,20101027,-109
32684813,20101028,-113
32793039,20101029,-25
32900942,20101030,-19
33008000,20101031,-54
33115231,20101101,-52
33224839,20101102,-42
33334077,20101103,-12
33443192,20101104,-16
33551365,20101105,-18
33659078,20101106,-12
33766411,20101107,-19
33874446,20101108,-21
33984544,20101109,-132
34094953,20101110,-147
34205322,20101111,-153
34315240,20101112,-163
34425000,20101113,-139
34533013,20101114,-139
34640927,20101115,-89
34750899,20101116,-119
34859891,20101117,-124
34968614,20101118,-100
35077390,20101119,-72
35187083,20101120,-30
35295885,20101121,-97
35405148,20101122,-177
35515903,20101123,-177
35625190,20101124,-249
35733550,20101125,-267
35839958,20101126,-152
35945806,20101127,-114
36051956,20101128,-117
36158965,20101129,-177
36269144,20101130,-222
36377460,20101201,-73
36486148,20101202,-76
36595182,20101203,-46
36705074,20101204,-39
36814015,20101205,-61
36922859,20101206,-67
37033454,20101207,-102
37143610,20101208,-112
37253473,20101209,-45
37363242,20101210,-46
37473087,20101211,-93
37581502,20101212,-80
37689586,20101213,-62
37799544,20101214,-58
37909372,20101215,-48
38019183,20101216,-57
38128912,20101217,-84
38238376,20101218,-62
38346316,20101219,-14
38453815,20101220,-16
38563657,20101221,-28
38673251,20101222,-20
38781675,20101223,-60
38889627,20101224,-106
38996254,20101225,-117
39102078,20101226,-121
39209083,20101227,-144
39317725,20101228,-148
39425963,20101229,-130
39534657,20101230,-179
39642654,20101231,-273
8224,20110101,-283
109504,20110102,-225
210122,20110103,-113
313077,20110104,-172
416673,20110105,-177
520011,20110106,-125
623027,20110107,-100
727473,20110108,-104
831005,20110109,-138
935259,20110110,-268
1044406,20110111,-259
1151410,20110112,-123
1257630,20110113,-117
1362648,20110114,-104
1466811,20110115,-107
1568985,20110116,-103
1671068,20110117,-34
1774934,20110118,-110
1879095,20110119,-122
1982940,20110120,-183
2089006,20110121,-128
2193778,20110122,-155
2296273,20110123,-187
2398574,20110124,-182
2503277,20110125,-174
2606051,20110126,-157
2709608,20110127,-120
2813498,20110128,-104
2916657,20110129,-99
3018103,20110130,-113
3119935,20110131,-123
3224385,20110201,-203
3330408,20110202,-301
3435148,20110203,-286
3538646,20110204,-157
3641960,20110205,-106
3743970,20110206,-151
3846737,20110207,-156
3951822,20110208,-231
4056498,20110209,-243
4161361,20110210,-241
4265827,20110211,-168
4368527,20110212,-147
4469755,20110213,-92
4570849,20110214,-68
4674463,20110215,-97
4777025,20110216,-34
4880030,20110217,-92
4983144,20110218,-93
5085373,20110219,-68
5186171,20110220,-136
5287711,20110221,-193
5391047,20110222,-183
5493995,20110223,-162
5596848,20110224,-85
5700589,20110225,-67
5804550,20110226,-100
5906700,20110227,-124
6008934,20110228,-153
6112138,20110301,-131
6213421,20110302,-73
6315522,20110303,-57
6417710,20110304,-174
6519714,20110305,-152
6619291,20110306,-90
6719688,20110307,-54
6823698,20110308,-141
6927243,20110309,-150
7029634,20110310,-122
7131070,20110311,-68
7232246,20110312,-60
7332407,20110313,-76
7432962,20110314,-78
7535758,20110315,-74
7636640,20110316,-52
7737736,20110317,-3
7838410,20110318,-58
7939904,20110319,-6
8039580,20110320,-41
8139536,20110321,-53
8242691,20110322,-109
8345285,20110323,-160
8448550,20110324,-60
8550614,20110325,-61
8652402,20110326,-150
8752766,20110327,-51
8853516,20110328,-44
8956173,20110329,-109
9057995,20110330,-33
9158650,20110331,-18
9259478,20110401,-27
9360938,20110402,-24
9460453,20110403,-100
9561168,20110404,-140
9664476,20110405,-71
9765314,20110406,-21
9866512,20110407,-22
9968383,20110408,-13
10070537,20110409,-98
10170694,20110410,-118
10270886,20110411,-135
10373001,20110412,-38
10473325,20110413,-60
10574318,20110414,-55
10676176,20110415,-107
10778059,20110416,-36
10877246,20110417,-31
10976309,20110418,0
11078811,20110419,-23
11181161,20110420,-13
11282980,20110421,-20
11384188,20110422,-9
11484242,20110423,-2
11583023,20110424,-28
11681888,20110425,-29
11783118,20110426,-83
11883902,20110427,-106
11984167,20110428,-129
12083553,20110429,-96
12182336,20110430,-139
12281095,20110501,-145
12380468,20110502,-135
12481593,20110503,-114
12581800,20110504,-32
12681787,20110505,-56
12782014,20110506,-34
12882176,20110507,-5
12980212,20110508,0
13078955,20110509,-51
13181178,20110510,-62
13283026,20110511,-30
13384926,20110512,-23
13486302,20110513,-47
13586556,20110514,-5
13684507,20110515,1
13781960,20110516,-13
13881694,20110517,-10
13981604,20110518,-47
14082000,20110519,-36
14182568,20110520,-23
14283081,20110521,-17
14381776,20110522,-14
14480943,20110523,-4
14581958,20110524,-12
14682804,20110525,-27
14783824,20110526,-4
14884267,20110527,8
14983888,20110528,26
15081994,20110529,38
15180481,20110530,-32
15280324,20110531,-52
15380975,20110601,28
15482759,20110602,12
15584189,20110603,-3
15684854,20110604,16
15784776,20110605,20
15884497,20110606,45
15986872,20110607,-1
16088998,20110608,5
16191425,20110609,1
16293058,20110610,3
16393505,20110611,21
16492399,20110612,14
16591295,20110613,22
16691677,20110614,24
16792663,20110615,16
16893600,20110616,42
16994227,20110617,30
17094612,20110618,37
17193522,20110619,12
17292381,20110620,10
17393947,20110621,22
17495073,20110622,7
17595349,20110623,43
17694919,20110624,46
17793821,20110625,32
17892107,20110626,47
17990974,20110627,38
18091618,20110628,64
18191383,20110629,92
18291164,20110630,24
18390655,20110701,12
18490185,20110702,46
18589082,20110703,81
18688151,20110704,76
18787638,20110705,93
18888244,20110706,66
18989240,20110707,78
19089710,20110708,59
19189189,20110709,63
19287136,20110710,82
19386093,20110711,69
19487370,20110712,51
19587601,20110713,40
19687695,20110714,47
19787239,20110715,40
19886900,20110716,71
19985007,20110717,102
20083799,20110718,96
20184737,20110719,75
20284899,20110720,62
20384819,20110721,66
20485301,20110722,54
20585373,20110723,61
20683934,20110724,73
20782441,20110725,83
20882720,20110726,84
20982809,20110727,73
21082879,20110728,49
21182916,20110729,72
21282722,20110730,68
21380445,20110731,84
21478327,20110801,81
21578781,20110802,66
21679481,20110803,58
21780004,20110804,70
21880087,20110805,54
21980114,20110806,48
22078431,20110807,49
22176594,20110808,42
22277551,20110809,44
22377687,20110810,49
22477686,20110811,55
22577850,20110812,54
22678260,20110813,62
22777127,20110814,97
22875253,20110815,66
22975719,20110816,55
23076199,20110817,65
23176552,20110818,66
23277557,20110819,68
23377718,20110820,61
23476175,20110821,57
23574567,20110822,63
23674781,20110823,60
23774911,20110824,76
23874981,20110825,62
23974584,20110826,78
24073479,20110827,71
24170969,20110828,75
24268585,20110829,64
24368448,20110830,49
24468481,20110831,62
24567671,20110901,59
24668567,20110902,51
24768741,20110903,46
24867527,20110904,51
24965505,20110905,46
25063487,20110906,48
25162773,20110907,23
25261864,20110908,25
25361254,20110909,31
25460667,20110910,30
25558627,20110911,31
25657099,20110912,24
25757766,20110913,17
25858267,20110914,15
25958726,20110915,31
26057754,20110916,15
26156325,20110917,4
26253840,20110918,-7
26351485,20110919,2
26451590,20110920,12
26551022,20110921,15
26650150,20110922,-1
26748901,20110923,-11
26847290,20110924,18
26944527,20110925,10
27042014,20110926,8
27141549,20110927,17
27240501,20110928,21
27339407,20110929,33
27438662,20110930,18
27536821,20111001,15
27633770,20111002,20
27731177,20111003,14
27830774,20111004,17
27930264,20111005,14
28029578,20111006,-80
28129461,20111007,-105
28229198,20111008,-79
28327337,20111009,-81
28425506,20111010,-55
28525359,20111011,-5
28624439,20111012,-22
28723421,20111013,-26
28821088,20111014,0
28918343,20111015,2
29015108,20111016,4
29112651,20111017,-24
29212502,20111018,-28
29311946,20111019,-24
29409775,20111020,-23
29507667,20111021,-27
29605863,20111022,-13
29703477,20111023,-23
29801627,20111024,-18
29901690,20111025,0
30001136,20111026,-50
30101532,20111027,-84
30200637,20111028,-102
30298984,20111029,-78
30396012,20111030,-50
30494482,20111031,-35
30594281,20111101,-48
30695161,20111102,-106
30797800,20111103,-114
30898737,20111104,-39
30997749,20111105,-87
31096687,20111106,-106
31196163,20111107,-110
31297052,20111108,-147
31397642,20111109,-172
31497992,20111110,-131
31597819,20111111,-92
31696633,20111112,-40
31795462,20111113,-86
31894447,20111114,-117
31995116,20111115,-116
32095121,20111116,-131
32194894,20111117,-133
32294577,20111118,-89
32395225,20111119,-32
32495530,20111120,-45
32594644,20111121,-49
32695004,20111122,-91
32794703,20111123,-87
32893365,20111124,-53
32991013,20111125,-68
33089695,20111126,-110
33187727,20111127,-89
33285195,20111128,-55
33385251,20111129,-61
33484775,20111130,-86
33585114,20111201,-46
33687625,20111202,-70
33789337,20111203,-117
33889756,20111204,-137
33990713,20111205,-240
34093627,20111206,-252
34195369,20111207,-122
34296886,20111208,-154
34398769,20111209,-153
34502114,20111210,-118
34602484,20111211,-121
34702622,20111212,-96
34804887,20111213,-52
34906589,20111214,-166
35008456,20111215,-169
35109316,20111216,-164
35208790,20111217,-117
35308431,20111218,-57
35409073,20111219,-72
35511340,20111220,-140
35613268,20111221,-162
35714310,20111222,-180
35815390,20111223,-205
35915282,20111224,-151
36013443,20111225,-107
36110646,20111226,-86
36208721,20111227,-105
36308297,20111228,-93
36407455,20111229,-40
36508079,20111230,-51
36608156,20111231,-118
7983,20120101,-109
105949,20120102,-76
205595,20120103,-74
307186,20120104,-109
408260,20120105,-72
509064,20120106,-85
609795,20120107,-136
708879,20120108,-157
808275,20120109,-131
908511,20120110,-80
1008867,20120111,-172
1109757,20120112,-200
1211710,20120113,-156
1314374,20120114,-131
1414772,20120115,-108
1515286,20120116,-107
1616789,20120117,-174
1719139,20120118,-103
1820284,20120119,-82
1922174,20120120,-96
2024578,20120121,-101
2125104,20120122,-145
2225812,20120123,-136
2328325,20120124,-139
2429444,20120125,-149
2530334,20120126,-94
2630489,20120127,-190
2730212,20120128,-199
2829018,20120129,-113
2928117,20120130,-105
3029368,20120131,-117
3129664,20120201,-152
3230022,20120202,-89
3330531,20120203,-124
3432301,20120204,-145
3532098,20120205,-93
3631072,20120206,-171
3732562,20120207,-193
3834351,20120208,-145
3935958,20120209,-143
4037334,20120210,-158
4138154,20120211,-112
4238182,20120212,-56
4338481,20120213,-82
4442902,20120214,-131
4545909,20120215,-130
4647477,20120216,-140
4747648,20120217,-165
4846823,20120218,-183
4945017,20120219,-140
5042721,20120220,-162
5143718,20120221,-108
5245113,20120222,-90
5345960,20120223,-200
5446857,20120224,-213
5547992,20120225,-120
5646475,20120226,-140
5745135,20120227,-88
5854297,20120228,-88
5854298,20120229,-154
6043987,20120301,-155
6145193,20120302,-155
6246473,20120303,-209
6344795,20120304,-129
6443468,20120305,-97
6546503,20120306,-77
6648057,20120307,-119
6748985,20120308,-118
6849378,20120309,-132
6947866,20120310,-83
7045519,20120311,-77
7143569,20120312,-89
7243382,20120313,-66
7343026,20120314,-80
7443237,20120315,-62
7543309,20120316,-47
7642559,20120317,-30
7740372,20120318,-101
7838445,20120319,-111
7939491,20120320,-151
8039901,20120321,-97
8139889,20120322,-95
8239709,20120323,-51
8338768,20120324,-35
8435663,20120325,-7
8532695,20120326,-30
8632409,20120327,-46
8732139,20120328,-43
8832122,20120329,-26
8931008,20120330,-36
9029906,20120331,-18
9126678,20120401,-32
9224546,20120402,-79
9324495,20120403,-62
9424940,20120404,-67
9524498,20120405,-39
9623784,20120406,-78
9722225,20120407,-102
9820214,20120408,-51
9917593,20120409,-12
10017510,20120410,-14
10118212,20120411,-8
10218189,20120412,-82
10317800,20120413,-93
10417424,20120414,-85
10515102,20120415,-75
10613548,20120416,-83
10713453,20120417,-84
10812492,20120418,-48
10911880,20120419,-2
11010980,20120420,-19
11109638,20120421,-20
11206116,20120422,-14
11303071,20120423,-2
11402630,20120424,10
11501973,20120425,16
11600896,20120426,-6
11699782,20120427,-32
11797922,20120428,-32
11895076,20120429,-34
11992329,20120430,-38
12091969,20120501,0
12189948,20120502,-4
12288011,20120503,-3
12386255,20120504,3
12483961,20120505,-5
12580233,20120506,-11
12677135,20120507,-28
12775294,20120508,-40
12872586,20120509,-20
12969955,20120510,-5
13066843,20120511,3
13164549,20120512,-6
13260512,20120513,-13
13356523,20120514,-26
13454886,20120515,-5
13552373,20120516,11
13650257,20120517,15
13748481,20120518,2
13846383,20120519,-17
13942884,20120520,-14
14039936,20120521,6
14138011,20120522,22
14235829,20120523,3
14334035,20120524,-6
14432528,20120525,59
14530627,20120526,-25
14627418,20120527,-48
14724088,20120528,-38
14821601,20120529,-12
14919729,20120530,0
15016821,20120531,8
15114202,20120601,33
15210821,20120602,40
15306256,20120603,34
15402771,20120604,44
15500979,20120605,64
15598231,20120606,23
15696009,20120607,19
15793904,20120608,32
15891371,20120609,46
15987382,20120610,-11
16083906,20120611,-17
16182362,20120612,19
16280015,20120613,16
16377873,20120614,36
16476391,20120615,32
16575021,20120616,36
16672194,20120617,36
16768645,20120618,43
16867602,20120619,44
16966072,20120620,37
17065088,20120621,43
17163525,20120622,111
17261439,20120623,78
17357981,20120624,72
17454708,20120625,90
17553133,20120626,77
17651277,20120627,78
17749434,20120628,75
17847949,20120629,73
17946117,20120630,69
18042469,20120701,72
18140198,20120702,67
18238545,20120703,57
18337163,20120704,74
18434701,20120705,80
18533645,20120706,65
18632167,20120707,84
18729684,20120708,64
18827145,20120709,50
18926369,20120710,58
19024947,20120711,62
19123348,20120712,64
19221636,20120713,73
19319607,20120714,68
19415596,20120715,61
19511986,20120716,53
19610471,20120717,46
19709270,20120718,51
19807881,20120719,70
19905443,20120720,67
20002691,20120721,71
20098870,20120722,62
20195559,20120723,80
20294427,20120724,51
20392708,20120725,48
20490969,20120726,58
20589995,20120727,77
20687652,20120728,90
20783358,20120729,85
20879699,20120730,73
20978669,20120731,72
21077320,20120801,69
21176412,20120802,57
21275893,20120803,61
21375011,20120804,45
21472769,20120805,65
21569641,20120806,66
21668137,20120807,60
21767161,20120808,65
21866678,20120809,64
21965642,20120810,50
22063657,20120811,72
22160018,20120812,64
22256970,20120813,79
22356148,20120814,60
22454880,20120815,49
22553800,20120816,55
22653130,20120817,71
22751056,20120818,57
22847783,20120819,55
22944876,20120820,50
23044274,20120821,32
23143381,20120822,70
23242870,20120823,67
23342182,20120824,52
23441493,20120825,40
23539586,20120826,49
23637655,20120827,70
23737130,20120828,62
23835639,20120829,62
23934331,20120830,62
24033485,20120831,59
24131796,20120901,66
24229662,20120902,51
24326646,20120903,58
24424482,20120904,44
24524029,20120905,20
24623355,20120906,31
24722557,20120907,34
24821769,20120908,25
24918629,20120909,28
25015349,20120910,36
25115610,20120911,47
25215866,20120912,25
25315963,20120913,-4
25416593,20120914,6
25515406,20120915,-7
25612590,20120916,1
25710724,20120917,5
25810379,20120918,-3
25908444,20120919,-15
26007016,20120920,-6
26106945,20120921,20
26206598,20120922,23
26303510,20120923,26
26401097,20120924,16
26501662,20120925,4
26601580,20120926,-3
26700612,20120927,-5
26799296,20120928,-7
26897781,20120929,5
26994080,20120930,-4
27090833,20121001,1
27190352,20121002,-4
27289923,20121003,11
27389712,20121004,9
27489565,20121005,15
27589608,20121006,-29
27687575,20121007,-55
27785372,20121008,-45
27884653,20121009,-20
27984798,20121010,-5
28084909,20121011,-6
28185160,20121012,-10
28284445,20121013,-20
28382417,20121014,-32
28480354,20121015,-24
28580089,20121016,-25
28679786,20121017,-28
28780186,20121018,-41
28879583,20121019,-24
28978367,20121020,-14
29075859,20121021,-10
29174541,20121022,-16
29275893,20121023,20
29376317,20121024,-73
29476873,20121025,-104
29578933,20121026,-137
29678632,20121027,-79
29776783,20121028,-30
29875153,20121029,-34
29975178,20121030,-39
30075271,20121031,-30
30174732,20121101,-32
30275630,20121102,-37
30376448,20121103,-51
30476350,20121104,-45
30575732,20121105,-37
30677287,20121106,-34
30777130,20121107,-30
30877385,20121108,-30
30979040,20121109,-1
31081051,20121110,-158
31181553,20121111,-210
31282507,20121112,-192
31383235,20121113,-118
31484142,20121114,-102
31585088,20121115,-102
31686532,20121116,-54
31787802,20121117,-26
31887757,20121118,-51
31987254,20121119,-66
32088599,20121120,-79
32189972,20121121,-59
32291194,20121122,-62
32390114,20121123,-60
32489307,20121124,-66
32588271,20121125,-69
32688755,20121126,-96
32791826,20121127,-93
32893485,20121128,-80
32995065,20121129,-56
33096614,20121130,-67
33198036,20121201,-52
33298751,20121202,-69
33398958,20121203,-96
33500295,20121204,-103
33601161,20121205,-43
33701218,20121206,-36
33802333,20121207,-92
33903120,20121208,-91
34002769,20121209,-214
34103221,20121210,-212
34205780,20121211,-155
34307277,20121212,-150
34409030,20121213,-101
34510560,20121214,-64
34612187,20121215,-86
34711738,20121216,-146
34811334,20121217,-117
34913367,20121218,-93
35014898,20121219,-221
35117556,20121220,-212
35220360,20121221,-136
35321556,20121222,-124
35421314,20121223,-99
35520749,20121224,-104
35619951,20121225,-176
35719043,20121226,-136
35820629,20121227,-180
35923279,20121228,-221
36025288,20121229,-202
36125607,20121230,-123
36226399,20121231,-199
8320,20130101,-214
108864,20130102,-220
210434,20130103,-222
311527,20130104,-162
412321,20130105,-140
511555,20130106,-114
610742,20130107,-125
712092,20130108,-125
813230,20130109,-97
913708,20130110,-80
1013734,20130111,-228
1113859,20130112,-279
1212648,20130113,-249
1311772,20130114,-268
1413018,20130115,-286
1513559,20130116,-122
1614517,20130117,-108
1714709,20130118,-127
1815048,20130119,-144
1913928,20130120,-118
2013210,20130121,-115
2114136,20130122,-90
2215472,20130123,-92
2316682,20130124,-47
2417907,20130125,-13
2518572,20130126,-8
2617824,20130127,-24
2716930,20130128,-105
2818654,20130129,-188
2920686,20130130,-155
3021761,20130131,-130
3122287,20130201,-140
3224193,20130202,-149
3324586,20130203,-115
3425296,20130204,-140
3528069,20130205,-124
3629392,20130206,-96
3730679,20130207,-159
3831195,20130208,-59
3930590,20130209,-117
4029812,20130210,-121
4129365,20130211,-209
4230206,20130212,-227
4329848,20130213,-161
4429490,20130214,-162
4529737,20130215,-146
4630137,20130216,-152
4728850,20130217,-127
4827971,20130218,-171
4928655,20130219,-170
5028694,20130220,-121
5128518,20130221,-125
5231276,20130222,-208
5333560,20130223,-204
5432214,20130224,-237
5531777,20130225,-221
5634692,20130226,-212
5735411,20130227,-231
5835934,20130228,-210
5936674,20130301,-68
6037317,20130302,-94
6136569,20130303,-54
6236110,20130304,-151
6338328,20130305,-161
6439480,20130306,-85
6540306,20130307,-74
6640943,20130308,-51
6741575,20130309,-101
6840342,20130310,-153
6939511,20130311,-124
7040426,20130312,-98
7139984,20130313,-87
7240055,20130314,-59
7340258,20130315,-28
7440039,20130316,-58
7538566,20130317,-72
7637019,20130318,-77
7738272,20130319,-98
7838369,20130320,-108
7938508,20130321,-124
8038816,20130322,-134
8139471,20130323,-225
8237961,20130324,-228
8337436,20130325,-217
8440267,20130326,-90
8541430,20130327,-43
8641966,20130328,-30
8741565,20130329,-33
8840269,20130330,-53
8937698,20130331,-57
9034662,20130401,-27
9133618,20130402,-80
9233406,20130403,-93
9332855,20130404,-101
9431115,20130405,-16
9529155,20130406,-35
9626297,20130407,-35
9723978,20130408,-39
9824507,20130409,-95
9923889,20130410,-114
10024929,20130411,-79
10124103,20130412,-95
10222107,20130413,-75
10318843,20130414,-28
10416602,20130415,10
10516506,20130416,-1
10616621,20130417,-131
10716425,20130418,-146
10816094,20130419,-150
10913335,20130420,-72
11009087,20130421,-88
11106526,20130422,-22
11207478,20130423,-92
11308276,20130424,-81
11407342,20130425,-26
11505071,20130426,-42
11603049,20130427,-45
11699339,20130428,-37
11794839,20130429,-4
11892737,20130430,4
11990602,20130501,-46
12089513,20130502,-73
12188338,20130503,-61
12285159,20130504,-39
12379946,20130505,29
12475073,20130506,3
12572331,20130507,-8
12669614,20130508,-25
12766939,20130509,-22
12863636,20130510,-44
12958923,20130511,-30
13052332,20130512,-4
13146218,20130513,3
13244536,20130514,17
13342376,20130515,18
13439562,20130516,3
13535515,20130517,17
13631485,20130518,-8
13725596,20130519,-27
13819860,20130520,-32
13916313,20130521,-21
14012135,20130522,-6
14107744,20130523,18
14202778,20130524,13
14297892,20130525,1
14392052,20130526,13
14485866,20130527,0
14581350,20130528,-6
14678117,20130529,-1
14774041,20130530,1
14869429,20130531,-7
14964427,20130601,-28
15058619,20130602,0
15152690,20130603,34
15249108,20130604,28
15345783,20130605,24
15443030,20130606,20
15538653,20130607,23
15633663,20130608,35
15727527,20130609,32
15822227,20130610,60
15917641,20130611,50
16013445,20130612,46
16110034,20130613,72
16206702,20130614,44
16302076,20130615,35
16396648,20130616,36
16491232,20130617,39
16587574,20130618,31
16682588,20130619,41
16777965,20130620,38
16874598,20130621,43
16971049,20130622,32
17066189,20130623,25
17161058,20130624,39
17257822,20130625,35
17353599,20130626,43
17448977,20130627,61
17543946,20130628,79
17638601,20130629,73
17731145,20130630,66
17823248,20130701,58
17918610,20130702,75
18013660,20130703,52
18107690,20130704,86
18201778,20130705,101
18296756,20130706,75
18390275,20130707,74
18484375,20130708,80
18580370,20130709,75
18676298,20130710,87
18772250,20130711,77
18867431,20130712,71
18962121,20130713,68
19055613,20130714,81
19149237,20130715,68
19244741,20130716,54
19340561,20130717,79
19436664,20130718,71
19532637,20130719,62
19628581,20130720,60
19722542,20130721,71
19816056,20130722,60
19911942,20130723,57
20007347,20130724,91
20103314,20130725,70
20198873,20130726,78
20294300,20130727,77
20387062,20130728,74
20479953,20130729,49
20575986,20130730,46
20671981,20130731,54
20767105,20130801,83
20861786,20130802,54
20956573,20130803,57
21049807,20130804,55
21143512,20130805,75
21239802,20130806,61
21335234,20130807,70
21430670,20130808,28
21525372,20130809,28
21619827,20130810,25
21712048,20130811,22
21805668,20130812,43
21902324,20130813,33
21997419,20130814,43
22092875,20130815,47
22188675,20130816,38
22284378,20130817,66
22378579,20130818,64
22472584,20130819,64
22568668,20130820,68
22665024,20130821,62
22761189,20130822,71
22855789,20130823,73
22950108,20130824,79
23043790,20130825,85
23137988,20130826,72
23234205,20130827,68
23330056,20130828,66
23426503,20130829,71
23522224,20130830,74
23617798,20130831,65
23711450,20130901,62
23805466,20130902,73
23899718,20130903,65
23995983,20130904,89
24092352,20130905,75
24188935,20130906,59
24285302,20130907,59
24380080,20130908,66
24474652,20130909,71
24572077,20130910,76
24668591,20130911,41
24765088,20130912,42
24861309,20130913,33
24955774,20130914,52
25049658,20130915,38
25144023,20130916,41
25239836,20130917,46
25335657,20130918,43
25431743,20130919,10
25527723,20130920,-5
25622650,20130921,41
25715684,20130922,4
25808836,20130923,-16
25905197,20130924,-35
26001701,20130925,15
26097644,20130926,38
26193583,20130927,-58
26289633,20130928,-71
26383965,20130929,-31
26477765,20130930,1
26573808,20131001,-9
26671052,20131002,-8
26768468,20131003,-30
26865452,20131004,-98
26962363,20131005,-58
27056811,20131006,-47
27150976,20131007,-14
27246043,20131008,-6
27341851,20131009,-3
27438614,20131010,-28
27535336,20131011,-80
27631348,20131012,-74
27725210,20131013,13
27818985,20131014,-77
27915220,20131015,-85
28011648,20131016,-93
28107170,20131017,-93
28202427,20131018,-75
28297995,20131019,-84
28391287,20131020,-58
28484676,20131021,-55
28582139,20131022,-48
28678537,20131023,-31
28774490,20131024,-18
28871609,20131025,-14
28968500,20131026,-24
29063653,20131027,-39
29158540,20131028,-2
29255575,20131029,-49
29352358,20131030,-64
29448930,20131031,-84
29543684,20131101,-75
29638403,20131102,-81
29732294,20131103,-73
29827091,20131104,-85
29924905,20131105,-151
30021984,20131106,-158
30118957,20131107,-77
30214289,20131108,-61
30310711,20131109,-50
30406414,20131110,-41
30502140,20131111,-59
30600380,20131112,-45
30699846,20131113,-44
30798533,20131114,-66
30897170,20131115,-65
30994907,20131116,-34
31089534,20131117,-90
31184720,20131118,-114
31281512,20131119,-73
31379198,20131120,-67
31477643,20131121,-25
31576128,20131122,-18
31673419,20131123,-32
31768475,20131124,-51
31865582,20131125,-112
31964816,20131126,-117
32062441,20131127,-108
32159312,20131128,-85
32254693,20131129,-97
32351053,20131130,-95
32446592,20131201,-116
32543538,20131202,-70
32642612,20131203,-47
32741560,20131204,-223
32841086,20131205,-242
32939776,20131206,-212
33038369,20131207,-145
33135780,20131208,-262
33233339,20131209,-275
33334380,20131210,-204
33433901,20131211,-154
33533807,20131212,-126
33633600,20131213,-136
33732403,20131214,-173
33829798,20131215,-96
33927275,20131216,-84
34027692,20131217,-100
34127490,20131218,-50
34226715,20131219,-42
34325836,20131220,-143
34424228,20131221,-150
34519849,20131222,-169
34616049,20131223,-177
34713539,20131224,-157
34809022,20131225,-150
34903903,20131226,-122
35000610,20131227,-101
35097005,20131228,-108
35192116,20131229,-136
35286967,20131230,-121
35383606,20131231,-93
7979,20140101,-112
104297,20140102,-117
203032,20140103,-93
301233,20140104,-192
398676,20140105,-223
495866,20140106,-158
594300,20140107,-118
692022,20140108,-79
789548,20140109,-127
887003,20140110,-94
983531,20140111,-107
1077826,20140112,-112
1172351,20140113,-167
1269898,20140114,-135
1366354,20140115,-47
1462971,20140116,-99
1560783,20140117,-107
1658591,20140118,-100
1754861,20140119,-93
1851149,20140120,-117
1948612,20140121,-130
2047012,20140122,-111
2145906,20140123,-135
2244803,20140124,-168
2342249,20140125,-88
2438058,20140126,-91
2534275,20140127,-113
2632363,20140128,-120
2730055,20140129,-102
2828334,20140130,-19
2925488,20140131,-93
3023379,20140201,-204
3119923,20140202,-216
3215477,20140203,-99
3312875,20140204,-157
3410813,20140205,-205
3509304,20140206,-117
3607257,20140207,-86
3704402,20140208,-62
3799790,20140209,-25
3895689,20140210,-127
3994272,20140211,-159
4091174,20140212,-140
4286252,20140214,-14
4383712,20140215,-36
4478237,20140216,-42
4573833,20140217,-129
4670742,20140218,-87
4767681,20140219,-112
4863918,20140220,-174
4960436,20140221,-163
5055911,20140222,-106
5149383,20140223,-118
5244312,20140224,-96
5341598,20140225,-88
5438261,20140226,-80
5533901,20140227,-63
5629250,20140228,-81
5724655,20140301,-46
5819220,20140302,-85
5914986,20140303,-95
6013276,20140304,-104
6109960,20140305,-125
6206896,20140306,-94
6303066,20140307,-114
6398721,20140308,-127
6493321,20140309,-129
6587315,20140310,-64
6684332,20140311,-129
6780922,20140312,-148
6877054,20140313,-111
6972594,20140314,-94
7068224,20140315,-128
7161743,20140316,-123
7255003,20140317,-88
7351576,20140318,-155
7447561,20140319,-174
7543452,20140320,-120
7638769,20140321,-86
7734608,20140322,-113
7829131,20140323,-133
7923629,20140324,-104
8019928,20140325,-83
8116171,20140326,-38
8212146,20140327,-55
8307028,20140328,-115
8401192,20140329,-125
8492788,20140330,-64
8585615,20140331,-138
8682234,20140401,-25
8778192,20140402,-73
8874594,20140403,-134
8971138,20140404,-142
9065929,20140405,-86
9158916,20140406,-111
9252209,20140407,-47
9347362,20140408,-63
9440924,20140409,-46
9535295,20140410,-31
9631087,20140411,-32
9726495,20140412,-19
9820473,20140413,-89
9915361,20140414,-132
10012719,20140415,-109
10108165,20140416,-66
10203899,20140417,-79
10299959,20140418,-31
10394244,20140419,-3
10486985,20140420,-24
10579320,20140421,-27
10674703,20140422,-2
10769177,20140423,-59
10863712,20140424,-89
10958997,20140425,-45
11052959,20140426,-50
11145118,20140427,-48
11237926,20140428,-74
11333146,20140429,-87
11427653,20140430,-117
11521660,20140501,-114
11615225,20140502,-32
11708729,20140503,-22
11800823,20140504,-2
11893561,20140505,7
11988830,20140506,5
12083723,20140507,-27
12179387,20140508,-48
12274475,20140509,-50
12367151,20140510,-21
12457475,20140511,-59
12548932,20140512,-73
12645337,20140513,-101
12739599,20140514,-117
12832789,20140515,-47
12925714,20140516,-12
13018166,20140517,9
13109291,20140518,23
13201416,20140519,46
13296369,20140520,2
13390938,20140521,13
13485645,20140522,1
13580245,20140523,5
13673009,20140524,-19
13764609,20140525,5
13855443,20140526,-12
13947906,20140527,12
14041308,20140528,21
14133763,20140529,61
14226420,20140530,26
14319035,20140531,22
14410178,20140601,20
14502566,20140602,8
14597191,20140603,28
14691239,20140604,9
14785475,20140605,13
14878905,20140606,22
14972045,20140607,19
15064196,20140608,33
15155763,20140609,-1
15248908,20140610,15
15341741,20140611,35
15434065,20140612,16
15525675,20140613,62
15616988,20140614,-3
15707913,20140615,-11
15800310,20140616,18
15895267,20140617,54
15989708,20140618,5
16083746,20140619,-4
16177030,20140620,9
16269793,20140621,48
16361494,20140622,41
16452946,20140623,47
16546894,20140624,35
16639281,20140625,43
16731864,20140626,43
16824123,20140627,31
16916627,20140628,46
17007013,20140629,42
17097574,20140630,70
17191317,20140701,39
17285687,20140702,43
17379809,20140703,68
17473305,20140704,59
17565287,20140705,51
17657454,20140706,54
17750096,20140707,67
17844907,20140708,64
17938091,20140709,53
18031436,20140710,55
18125221,20140711,66
18218384,20140712,66
18308537,20140713,68
18399715,20140714,75
18492708,20140715,78
18585173,20140716,64
18677787,20140717,51
18771279,20140718,53
18864606,20140719,68
18956261,20140720,65
19048267,20140721,68
19142224,20140722,59
19236192,20140723,113
19329757,20140724,89
19422361,20140725,71
19515061,20140726,71
19606279,20140727,82
19697400,20140728,80
19790615,20140729,63
19884201,20140730,64
19977526,20140731,54
20070769,20140801,50
20163586,20140802,49
20254631,20140803,82
20346362,20140804,75
20440840,20140805,50
20534442,20140806,44
20628712,20140807,43
20722131,20140808,30
20815505,20140809,37
20907454,20140810,36
20999162,20140811,55
21092824,20140812,58
21185083,20140813,72
21277839,20140814,55
21371526,20140815,40
21465100,20140816,39
21557325,20140817,58
21649504,20140818,54
21744137,20140819,73
21837977,20140820,35
21931467,20140821,24
22025131,20140822,40
22118297,20140823,61
22210312,20140824,52
22302600,20140825,47
22397794,20140826,48
22492216,20140827,17
22586445,20140828,14
22681027,20140829,5
22774391,20140830,28
22865280,20140831,54
22955777,20140901,25
23048671,20140902,40
23143992,20140903,50
23238279,20140904,40
23333142,20140905,22
23427154,20140906,37
23519237,20140907,40
23611171,20140908,68
23705772,20140909,38
23799771,20140910,10
23894211,20140911,-8
23988052,20140912,10
24081362,20140913,4
24172497,20140914,18
24264498,20140915,34
24359332,20140916,37
24452578,20140917,38
24546464,20140918,30
24640765,20140919,35
24734573,20140920,51
24827014,20140921,64
24919222,20140922,33
25012922,20140923,17
25107278,20140924,28
25201883,20140925,49
25295806,20140926,39
25389362,20140927,43
25481400,20140928,16
25574027,20140929,-11
25668228,20140930,-13
25761744,20141001,-14
25857556,20141002,-35
25953600,20141003,-19
26047901,20141004,-16
26139712,20141005,-18
26233194,20141006,-8
26329008,20141007,-6
26423697,20141008,23
26518400,20141009,20
26613591,20141010,4
26707787,20141011,-3
26799684,20141012,-16
26891964,20141013,-59
26985791,20141014,-28
27079574,20141015,-3
27173427,20141016,-1
27267303,20141017,-7
27361464,20141018,24
27454530,20141019,8
27547846,20141020,0
27643667,20141021,9
27738348,20141022,-4
27832868,20141023,-13
27927773,20141024,-5
28022779,20141025,-2
28116724,20141026,20
28210715,20141027,-37
28307081,20141028,-34
28402472,20141029,-39
28497146,20141030,-15
28591387,20141031,13
28685565,20141101,26
28778538,20141102,-32
28871921,20141103,-89
28968244,20141104,-109
29063037,20141105,-80
29157671,20141106,-28
29251679,20141107,-35
29345563,20141108,-43
29439416,20141109,-32
29533587,20141110,-53
29630356,20141111,-80
29727341,20141112,-14
29823774,20141113,-18
29921064,20141114,-27
30017823,20141115,-75
30113638,20141116,-170
30210376,20141117,-202
30308601,20141118,-177
30405803,20141119,-130
30503593,20141120,-100
30600849,20141121,-99
30697024,20141122,-103
30790452,20141123,-146
30883365,20141124,-178
30978807,20141125,-190
31074578,20141126,-72
31170064,20141127,-83
31264223,20141128,-61
31359179,20141129,-59
31453467,20141130,-54
31548204,20141201,-86
31645228,20141202,-95
31741602,20141203,-23
31838028,20141204,-18
31933572,20141205,-61
32028408,20141206,-51
32121887,20141207,-73
32215564,20141208,-72
32313202,20141209,-72
32409528,20141210,-79
32506031,20141211,-65
32603148,20141212,-43
32699632,20141213,-58
32794741,20141214,-146
32890696,20141215,-174
32988800,20141216,-78
33084928,20141217,-64
33180136,20141218,-147
33276865,20141219,-173
33372257,20141220,-123
33465847,20141221,-80
33559726,20141222,-101
33654760,20141223,-192
33748912,20141224,-142
33841155,20141225,-156
33931754,20141226,-196
34025831,20141227,-224
34119218,20141228,-180
34211556,20141229,-199
34306367,20141230,-214
34402156,20141231,-137
7810,20150101,-193
102874,20150102,-198
198771,20150103,-156
293383,20150104,-160
389283,20150105,-108
486767,20150106,-41
585540,20150107,-43
684716,20150108,-59
783405,20150109,-70
881298,20150110,-84
976688,20150111,-104
1071928,20150112,-113
1168798,20150113,-96
1265077,20150114,-123
1362150,20150115,-139
1458646,20150116,-107
1554671,20150117,-92
1649301,20150118,-117
1743460,20150119,-89
1839276,20150120,-123
1936662,20150121,-183
2034411,20150122,-184
2132128,20150123,-136
2227729,20150124,-122
2322407,20150125,-54
2417254,20150126,-43
2514859,20150127,-32
2612719,20150128,-51
2709917,20150129,-65
2806745,20150130,-29
2903251,20150131,-59
2998285,20150201,-85
3094166,20150202,-95
3191516,20150203,-95
3288060,20150204,-65
3385751,20150205,-61
3482144,20150206,-79
3577855,20150207,-66
3672367,20150208,-63
3767378,20150209,-49
3864332,20150210,-68
3960045,20150211,-80
4056972,20150212,-108
4153672,20150213,-50
4249648,20150214,-40
4344447,20150215,-46
4439862,20150216,-164
4537992,20150217,-180
4636342,20150218,-107
4733641,20150219,-75
4830801,20150220,-73
4927445,20150221,-78
5022960,20150222,-72
5118946,20150223,-70
5216299,20150224,-111
5312648,20150225,-105
5409094,20150226,-172
5507129,20150227,-114
5603910,20150228,-116
5698655,20150301,-51
5794664,20150302,-66
5892245,20150303,-92
5988856,20150304,-195
6085200,20150305,-202
6181885,20150306,-135
6277872,20150307,-96
6372720,20150308,-102
6467213,20150309,-94
6563557,20150310,-114
6658941,20150311,-70
6754132,20150312,-31
6849270,20150313,-38
6944114,20150314,-47
7036621,20150315,-51
7130092,20150316,-37
7227226,20150317,-29
7323217,20150318,-3
7418478,20150319,-49
7513018,20150320,-52
7607168,20150321,-72
7700328,20150322,-47
7793535,20150323,-17
7889639,20150324,-61
7985810,20150325,-84
8081907,20150326,-72
8176543,20150327,-34
8270711,20150328,-30
8363738,20150329,-16
8457738,20150330,-27
8553370,20150331,-23
8649485,20150401,-10
8748374,20150402,-62
8847185,20150403,-103
8945136,20150404,-91
9040947,20150405,-31
9137703,20150406,-32
9236604,20150407,-28
9334041,20150408,-63
9422982,20150409,-105
9512362,20150410,-37
9600672,20150411,-42
9686731,20150412,-39
9773821,20150413,-52
9862979,20150414,-31
9950201,20150415,-97
10038245,20150416,-89
10127082,20150417,-83
10215745,20150418,-110
10302784,20150419,-84
10389644,20150420,-38
10478157,20150421,-47
10565693,20150422,-33
10653785,20150423,-24
10741808,20150424,-32
10829825,20150425,-8
10915446,20150426,-38
11001189,20150427,-63
11089774,20150428,-4
11178568,20150429,-12
11275705,20150430,-14
11372656,20150501,4
11469610,20150502,-1
11565628,20150503,2
11662102,20150504,-6
11760168,20150505,15
11857674,20150506,-1
11955106,20150507,-9
12052605,20150508,-34
12149457,20150509,-44
12244305,20150510,-39
12340819,20150511,-83
12438435,20150512,-1
12534398,20150513,-5
12630640,20150514,2
12727439,20150515,-18
12822883,20150516,-18
12916204,20150517,-8
13010273,20150518,-13
13106850,20150519,-19
13203125,20150520,-41
13299786,20150521,8
13395139,20150522,-16
13490498,20150523,-32
13584983,20150524,-19
13679737,20150525,-2
13774834,20150526,-17
13870633,20150527,2
13966209,20150528,1
14062522,20150529,-8
14158464,20150530,-6
14252785,20150531,16
14346174,20150601,28
14436149,20150602,29
14526321,20150603,9
14623089,20150604,5
14720015,20150605,38
14817161,20150606,17
14912373,20150607,12
15008002,20150608,-1
15105048,20150609,21
15201170,20150610,61
15297617,20150611,21
15394731,20150612,12
15491204,20150613,24
15585416,20150614,19
15680201,20150615,26
15777163,20150616,60
15872657,20150617,52
15968657,20150618,43
16064818,20150619,49
16160155,20150620,53
16254385,20150621,67
16348785,20150622,62
16446049,20150623,62
16542553,20150624,52
16639066,20150625,42
16735437,20150626,54
16830926,20150627,86
16924136,20150628,62
17017600,20150629,68
17113091,20150630,81
17208858,20150701,107
17304522,20150702,89
17400320,20150703,52
17495228,20150704,55
17589326,20150705,62
17684104,20150706,50
17781394,20150707,69
17878080,20150708,47
17973800,20150709,29
18069422,20150710,38
18165321,20150711,41
18260675,20150712,59
18355788,20150713,58
18453213,20150714,67
18549370,20150715,47
18645373,20150716,42
18741783,20150717,43
18838000,20150718,52
18932976,20150719,59
19027374,20150720,44
19124355,20150721,51
19220145,20150722,41
19315721,20150723,60
19411447,20150724,72
19506738,20150725,46
19601333,20150726,60
19696058,20150727,59
19792644,20150728,42
19888903,20150729,53
19984998,20150730,49
20080517,20150731,87
20175593,20150801,81
20271113,20150802,83
20366673,20150803,45
20463992,20150804,42
20561066,20150805,50
20658259,20150806,55
20754954,20150807,70
20850754,20150808,51
20946114,20150809,38
21041252,20150810,49
21138480,20150811,87
21234412,20150812,66
21330575,20150813,59
21427396,20150814,68
21524043,20150815,77
21618841,20150816,73
21714085,20150817,67
21811912,20150818,34
21908830,20150819,37
22100664,20150821,47
22196426,20150822,55
22291470,20150823,54
22386568,20150824,49
22483465,20150825,76
22580448,20150826,65
22677532,20150827,54
22774496,20150828,33
22871087,20150829,62
22965883,20150830,66
23060479,20150831,61
23157179,20150901,50
23254933,20150902,57
23352533,20150903,53
23449692,20150904,53
23546233,20150905,62
23640408,20150906,43
23734585,20150907,49
23830434,20150908,37
23927668,20150909,20
24024159,20150910,12
24120058,20150911,26
24215543,20150912,30
24309289,20150913,32
24403093,20150914,52
24499811,20150915,59
24596753,20150916,55
24693579,20150917,31
24790185,20150918,5
24886120,20150919,4
24980938,20150920,-3
25075818,20150921,15
25173437,20150922,53
25270507,20150923,33
25368012,20150924,26
25465330,20150925,22
25561712,20150926,37
25656211,20150927,22
25750478,20150928,26
25846874,20150929,24
25941836,20150930,45
26036368,20151001,53
26132341,20151002,34
26228220,20151003,-5
26322426,20151004,5
26416464,20151005,20
26513418,20151006,6
26610606,20151007,2
26708306,20151008,-3
26806171,20151009,14
26903348,20151010,10
26998107,20151011,19
27094007,20151012,-4
27192362,20151013,-5
27289770,20151014,3
27387650,20151015,1
27485722,20151016,40
27582703,20151017,16
27678523,20151018,34
27774891,20151019,15
27873174,20151020,-1
27970700,20151021,0
28067774,20151022,7
28165069,20151023,-23
28262194,20151024,-32
28357127,20151025,-12
28451595,20151026,-37
28548267,20151027,-37
28644163,20151028,-63
28739261,20151029,-22
28834392,20151030,-46
28929728,20151031,-29
29024552,20151101,-35
29119182,20151102,-25
29216895,20151103,6
29314684,20151104,-74
29412651,20151105,-79
29510451,20151106,-128
29606508,20151107,-126
29701183,20151108,-107
29796128,20151109,-95
29893677,20151110,-72
29990637,20151111,-132
30088222,20151112,-127
30185803,20151113,-107
30282642,20151114,-100
30378701,20151115,-77
30474742,20151116,-80
30573351,20151117,-97
30672295,20151118,-117
30769867,20151119,-121
30866770,20151120,-121
31061360,20151122,-120
31157600,20151123,-93
31256269,20151124,-79
31354665,20151125,-40
31452372,20151126,-47
31547679,20151127,-59
31643795,20151128,-117
31738903,20151129,-123
31834032,20151130,-189
32030967,20151202,-161
32129169,20151203,-104
32227231,20151204,-80
32325611,20151205,-136
32423001,20151206,-105
32620186,20151208,-44
32718962,20151209,-47
32817625,20151210,-57
32916088,20151211,-33
33014413,20151212,-124
33111436,20151213,-136
33209309,20151214,-114
33308100,20151215,-182
33406563,20151216,-212
33506118,20151217,-156
33604168,20151218,-136
33702009,20151219,-94
33799215,20151220,-88
33896472,20151221,-77
33994709,20151222,-57
34091747,20151223,-193
34188119,20151224,-237
34283406,20151225,-177
34377164,20151226,-239
34472944,20151227,-177
34568134,20151228,-168
34665678,20151229,-173
34763502,20151230,-135
34860962,20151231,-184
8082,20160101,-192
104896,20160102,-162
202185,20160103,-110
300079,20160104,-63
400596,20160105,-53
500749,20160106,-57
600067,20160107,-103
699470,20160108,-167
798139,20160109,-193
895290,20160110,-216
992751,20160111,-201
1093151,20160112,-158
1193704,20160113,-116
1294004,20160114,-165
1393685,20160115,-146
1492395,20160116,-111
1588720,20160117,-112
1685825,20160118,-111
1785135,20160119,-102
1885239,20160120,-161
1985830,20160121,-181
2086440,20160122,-108
2185825,20160123,-92
2284491,20160124,-91
2382965,20160125,-204
2484094,20160126,-219
2583626,20160127,-114
2681588,20160128,-95
2780028,20160129,-76
2877656,20160130,-38
2974736,20160131,-41
3072818,20160201,-123
3173013,20160202,-230
3271967,20160203,-263
3370703,20160204,-236
3468705,20160205,-159
3566988,20160206,-162
3663573,20160207,-102
3760322,20160208,-74
3860127,20160209,-108
3960238,20160210,-82
4060130,20160211,-90
4159100,20160212,-65
4257925,20160213,-62
4355101,20160214,-111
4452024,20160215,-60
4550596,20160216,-78
4649043,20160217,-59
4746713,20160218,-23
4843801,20160219,-60
4941302,20160220,-74
5035174,20160221,-84
5129108,20160222,-111
5227059,20160223,-164
5324525,20160224,-170
5421675,20160225,-108
5519372,20160226,-109
5617042,20160227,-66
5720762,20160228,-53
5720763,20160229,-56
5906492,20160301,-64
6005441,20160302,-48
6103495,20160303,-81
6202421,20160304,-46
6301092,20160305,-42
6398428,20160306,-22
6495500,20160307,-126
6595147,20160308,-149
6693441,20160309,-141
6791589,20160310,-107
6889421,20160311,-48
6986578,20160312,-57
7082440,20160313,-77
7178015,20160314,-51
7275829,20160315,-86
7374018,20160316,-95
7472520,20160317,-117
7571395,20160318,-81
7670295,20160319,-73
7767000,20160320,-90
7863496,20160321,-45
7962632,20160322,-72
8061349,20160323,-109
8158258,20160324,-122
8257271,20160325,-87
8354163,20160326,-153
8450547,20160327,-173
8546229,20160328,-27
8643387,20160329,-89
8741936,20160330,-149
8840619,20160331,-152
8938641,20160401,-147
9036081,20160402,-126
9132308,20160403,-70
9229839,20160404,-46
9329550,20160405,-30
9428798,20160406,-74
9527978,20160407,-42
9625396,20160408,13
9722953,20160409,-10
9820081,20160410,-22
9916984,20160411,-45
10015245,20160412,-30
10112281,20160413,-41
10209568,20160414,10
10307198,20160415,-43
10405069,20160416,-39
10502149,20160417,-92
10599923,20160418,-101
10699553,20160419,-120
10798219,20160420,-30
10896561,20160421,-40
10993954,20160422,-11
11090052,20160423,-35
11184491,20160424,-51
11280165,20160425,-48
11378395,20160426,-58
11476646,20160427,-67
11574372,20160428,-25
11671434,20160429,-52
11768213,20160430,-36
11863549,20160501,-40
11958733,20160502,-45
12055641,20160503,-61
12151839,20160504,-23
12248005,20160505,-5
12343890,20160506,-1
12439796,20160507,-31
12534361,20160508,-52
12629159,20160509,-5
12726239,20160510,-4
12822707,20160511,-42
12919135,20160512,-61
13015866,20160513,-21
13111496,20160514,5
13205127,20160515,15
13299033,20160516,-3
13395724,20160517,-23
13491174,20160518,-8
13585921,20160519,-11
13681451,20160520,7
13776262,20160521,17
13869393,20160522,-8
13962920,20160523,-18
14059442,20160524,-14
14155539,20160525,-12
14251927,20160526,3
14348221,20160527,-11
14442972,20160528,-19
14536260,20160529,-2
14629214,20160530,-3
14723282,20160531,-6
14819227,20160601,4
14915697,20160602,15
15011670,20160603,27
15107535,20160604,31
15201442,20160605,44
15295427,20160606,49
15391326,20160607,43
15487444,20160608,42
15584087,20160609,40
15680765,20160610,42
15777137,20160611,42
15872155,20160612,39
15967267,20160613,12
16064362,20160614,2
16160820,20160615,24
16256679,20160616,17
16352354,20160617,25
16448158,20160618,32
16542672,20160619,53
16637503,20160620,75
16735079,20160621,89
16831235,20160622,75
16927536,20160623,73
17023387,20160624,63
17118701,20160625,65
17212830,20160626,52
17307699,20160627,61
17404285,20160628,57
17500398,20160629,50
17595916,20160630,70
17691815,20160701,83
17787194,20160702,55
17881056,20160703,34
17975173,20160704,36
18070014,20160705,64
18166136,20160706,56
18262347,20160707,53
18358638,20160708,39
18453767,20160709,51
18547465,20160710,70
18642113,20160711,43
18739144,20160712,45
18835917,20160713,39
18931665,20160714,72
19027324,20160715,53
19122766,20160716,63
19216950,20160717,66
19311440,20160718,89
19407974,20160719,71
19503624,20160720,72
19599500,20160721,69
19695793,20160722,63
19791549,20160723,60
19886045,20160724,68
19980647,20160725,64
20077561,20160726,72
20173563,20160727,62
20269688,20160728,68
20365845,20160729,73
20461041,20160730,83
20554664,20160731,81
20648755,20160801,83
20745045,20160802,77
20841429,20160803,64
20937755,20160804,80
21034238,20160805,86
21129778,20160806,54
21223896,20160807,49
21318452,20160808,58
21415635,20160809,62
21511908,20160810,59
21608011,20160811,49
21704103,20160812,29
21799921,20160813,37
21893876,20160814,34
21988169,20160815,37
22084685,20160816,49
22180845,20160817,48
22276510,20160818,40
22372661,20160819,25
22468188,20160820,41
22561852,20160821,44
22655661,20160822,29
22752102,20160823,27
22849165,20160824,28
22946015,20160825,18
23042536,20160826,27
23138634,20160827,26
23233015,20160828,25
23327807,20160829,22
23424997,20160830,28
23521692,20160831,40
23617944,20160901,65
23714066,20160902,73
23809233,20160903,65
23903376,20160904,42
23998127,20160905,20
24094289,20160906,36
24191351,20160907,28
24288082,20160908,4
24384076,20160909,33
24480124,20160910,24
24574696,20160911,39
24669101,20160912,25
24766637,20160913,25
24863179,20160914,27
24959459,20160915,-12
25055616,20160916,-16
25152246,20160917,-4
25246313,20160918,-6
25340698,20160919,21
25437368,20160920,44
25533586,20160921,61
25630298,20160922,79
25726540,20160923,-45
25821931,20160924,-23
25915818,20160925,-34
26010566,20160926,-3
26106741,20160927,13
26201708,20160928,15
26297149,20160929,49
26391977,20160930,14
26486669,20161001,6
26580238,20161002,4
26674408,20161003,-47
26771218,20161004,-60
26868442,20161005,-26
26965699,20161006,-53
27062477,20161007,-69
27158380,20161008,-19
27252351,20161009,-3
27346471,20161010,-6
27443056,20161011,19
27540584,20161012,-6
27637617,20161013,2
27733945,20161014,-6
27830244,20161015,7
27924855,20161016,18
28020122,20161017,11
28117741,20161018,-3
28215110,20161019,-57
28312485,20161020,-57
28409383,20161021,-21
28505289,20161022,-6
28599432,20161023,-1
28694625,20161024,-7
28792360,20161025,-6
28889498,20161026,-27
28986652,20161027,-7
29083445,20161028,16
29179867,20161029,5
29274603,20161030,5
29369800,20161031,24
29467451,20161101,-1
29565622,20161102,-28
29663491,20161103,-25
29760639,20161104,-1
29857108,20161105,14
29953041,20161106,-20
30049004,20161107,-26
30147206,20161108,-21
30244458,20161109,-14
30340883,20161110,-20
30437806,20161111,-30
30534980,20161112,-29
30630726,20161113,-42
30726913,20161114,-48
30825018,20161115,-19
30922637,20161116,-4
31020344,20161117,-143
31118684,20161118,-155
31217795,20161119,-82
31313364,20161120,-16
31409537,20161121,-33
31507646,20161122,-113
31604819,20161123,-121
31700148,20161124,-123
31793906,20161125,-126
31888522,20161126,-136
31983056,20161127,-77
32078993,20161128,-96
32176201,20161129,-195
32272680,20161130,-217
32369305,20161201,-149
32466020,20161202,-137
32563567,20161203,-151
32659532,20161204,-141
32755175,20161205,-121
32853898,20161206,-129
32951077,20161207,-206
33049045,20161208,-207
33148030,20161209,-71
33247019,20161210,-76
33343740,20161211,-55
33441570,20161212,-54
33540625,20161213,-91
33638392,20161214,-45
33736362,20161215,-58
33834810,20161216,-28
33933064,20161217,-221
34030678,20161218,-231
34127939,20161219,-187
34225839,20161220,-119
34323391,20161221,-105
34420562,20161222,-27
34517598,20161223,-42
34613397,20161224,-63
34706824,20161225,-150
34799834,20161226,-201
34894594,20161227,-159
34989587,20161228,-123
35085236,20161229,-141
35181060,20161230,-112
35276925,20161231,-86
7870,20170101,-99
102124,20170102,-71
198031,20170103,-125
295544,20170104,-74
392759,20170105,-84
492696,20170106,-209
593639,20170107,-188
691965,20170108,-47
790478,20170109,-49
890529,20170110,-53
989315,20170111,-51
1086934,20170112,-67
1184082,20170113,-53
1280662,20170114,-34
1375958,20170115,-29
1471581,20170116,-54
1569613,20170117,-118
1667403,20170118,-145
1764094,20170119,-144
1860981,20170120,-82
1957457,20170121,-85
2052110,20170122,-180
2146994,20170123,-93
2244477,20170124,-146
2342123,20170125,-187
2439864,20170126,-244
2536662,20170127,-273
2633989,20170128,-121
2729888,20170129,-136
2825769,20170130,-121
2924814,20170131,-80
3023331,20170201,-89
3123133,20170202,-88
3221900,20170203,-117
3319735,20170204,-90
3415732,20170205,-104
3511688,20170206,-50
3610998,20170207,-21
3708879,20170208,-58
3806850,20170209,-66
3905244,20170210,-23
4003485,20170211,0
4099783,20170212,-19
4195948,20170213,-67
4294728,20170214,-111
4392500,20170215,-114
4489577,20170216,-102
4586663,20170217,-82
4683315,20170218,-49
4778092,20170219,-43
4873016,20170220,-114
4969985,20170221,-26
5066766,20170222,-23
5163089,20170223,-162
5260322,20170224,-192
5358234,20170225,-225
5453603,20170226,-167
5548128,20170227,-88
5640433,20170228,-166
5731881,20170301,-226
5823579,20170302,-184
5914555,20170303,-125
6006761,20170304,-95
6103274,20170305,-37
6199613,20170306,-201
6298073,20170307,-210
6395415,20170308,-101
6492208,20170309,-81
6590024,20170310,-53
6687352,20170311,-45
6783288,20170312,-43
6879396,20170313,-51
6978506,20170314,-45
7076097,20170315,-42
7174399,20170316,-30
7271892,20170317,-21
7369120,20170318,-17
7464368,20170319,-21
7559926,20170320,-21
7658477,20170321,-17
7755778,20170322,-3
7853040,20170323,-26
7950535,20170324,-68
8047390,20170325,-75
8142068,20170326,-45
8236336,20170327,-70
8333116,20170328,-55
8429338,20170329,-70
8526078,20170330,-75
8622643,20170331,-60
8717973,20170401,-88
8813628,20170402,-49
8909634,20170403,-41
9007445,20170404,-141
9104345,20170405,-158
9201714,20170406,-72
9297937,20170407,-25
9394797,20170408,4
9490452,20170409,-107
9586653,20170410,-119
9685412,20170411,-78
9782725,20170412,-7
9879730,20170413,-20
9976500,20170414,-24
10072622,20170415,-32
10167505,20170416,-35
10262540,20170417,-28
10358860,20170418,2
10454996,20170419,-22
10551470,20170420,-45
10647639,20170421,-53
10743356,20170422,-81
10837631,20170423,-33
10931974,20170424,2
11028971,20170425,-44
11125482,20170426,-75
11221764,20170427,-55
11317584,20170428,-101
11413254,20170429,-72
11508558,20170430,-91
11603781,20170501,-19
11700413,20170502,-40
11795567,20170503,-23
11891844,20170504,-26
11987912,20170505,2
12082678,20170506,8
12175832,20170507,30
12269931,20170508,5
12367035,20170509,-1
12463535,20170510,-42
12560074,20170511,-13
12655557,20170512,-13
12750574,20170513,24
12843782,20170514,1
12937670,20170515,3
13034490,20170516,-29
13131077,20170517,-50
13227550,20170518,-95
13324149,20170519,-114
13420094,20170520,-51
13513889,20170521,-51
13607195,20170522,-28
13702266,20170523,21
13796824,20170524,19
13891101,20170525,20
13985289,20170526,-3
14079378,20170527,-9
14172745,20170528,-26
14265990,20170529,-11
14359878,20170530,-4
14454632,20170531,11
14548938,20170601,18
14643951,20170602,15
14738687,20170603,3
14832350,20170604,30
14926042,20170605,33
15021138,20170606,32
15115569,20170607,35
15210802,20170608,36
15306022,20170609,28
15401415,20170610,40
15495506,20170611,32
15590211,20170612,4
15687064,20170613,-19
15783482,20170614,-3
15879038,20170615,16
15974224,20170616,29
16068520,20170617,55
16161105,20170618,66
16254169,20170619,49
16349596,20170620,55
16443635,20170621,79
16538293,20170622,72
16633100,20170623,44
16727258,20170624,41
16819650,20170625,26
16912678,20170626,42
17008318,20170627,55
17103411,20170628,41
17199113,20170629,31
17294383,20170630,30
17388173,20170701,15
17481078,20170702,53
17574406,20170703,45
17669918,20170704,40
17764426,20170705,60
17859973,20170706,81
17955081,20170707,71
18049902,20170708,60
18143245,20170709,69
18236896,20170710,76
18333166,20170711,70
18428752,20170712,75
18524134,20170713,61
18619299,20170714,81
18713876,20170715,62
18807416,20170716,59
18901125,20170717,55
18997411,20170718,72
19092847,20170719,83
19188397,20170720,66
19283774,20170721,62
19378743,20170722,67
19472318,20170723,54
19565579,20170724,77
19660415,20170725,79
19755351,20170726,75
19850792,20170727,72
19945899,20170728,94
20040366,20170729,92
20133323,20170730,75
20226980,20170731,62
20323510,20170801,55
20419743,20170802,53
20515803,20170803,53
20611119,20170804,49
20705584,20170805,46
20798403,20170806,37
20891887,20170807,51
20987004,20170808,47
21080962,20170809,54
21176190,20170810,58
21271453,20170811,59
21365850,20170812,39
21458365,20170813,59
21551663,20170814,47
21647082,20170815,28
21741101,20170816,13
21836251,20170817,25
21931150,20170818,37
22025146,20170819,50
22118276,20170820,56
22211949,20170821,53
22307182,20170822,48
22402633,20170823,38
22497506,20170824,34
22592378,20170825,32
22687135,20170826,54
22780650,20170827,46
22874285,20170828,51
22969761,20170829,58
23064278,20170830,86
23159150,20170831,57
23254097,20170901,51
23348146,20170902,55
23441006,20170903,65
23533856,20170904,55
23628720,20170905,55
23724440,20170906,47
23818786,20170907,56
23912778,20170908,43
24007079,20170909,57
24100153,20170910,57
24193690,20170911,40
24289150,20170912,36
24383494,20170913,42
24477771,20170914,39
24572003,20170915,24
24666158,20170916,4
24759464,20170917,10
24853095,20170918,7
24948505,20170919,-2
25043119,20170920,-4
25137584,20170921,31
25232503,20170922,60
25327327,20170923,-5
25420581,20170924,-53
25514275,20170925,-70
25610497,20170926,-40
25706003,20170927,15
25800719,20170928,6
25895053,20170929,8
25988969,20170930,26
26080886,20171001,4
26174741,20171002,5
26271388,20171003,-7
26367655,20171004,38
26463305,20171005,26
26558731,20171006,-26
26653798,20171007,-34
26747172,20171008,-14
26839531,20171009,-69
26934961,20171010,-76
27030479,20171011,-34
27125601,20171012,10
27220663,20171013,-9
27315633,20171014,-46
27409457,20171015,-43
27503312,20171016,-24
27598625,20171017,-25
27694375,20171018,-21
27790748,20171019,0
27887242,20171020,4
27982949,20171021,-62
28076764,20171022,-35
28170309,20171023,-15
28265682,20171024,-35
28360213,20171025,-24
28455634,20171026,-28
28551755,20171027,-52
28648127,20171028,-23
28742176,20171029,-26
28835366,20171030,-21
28931160,20171031,-11
29026988,20171101,-36
29123921,20171102,-33
29220180,20171103,-15
29316354,20171104,19
29410921,20171105,-15
29505383,20171106,-9
29601915,20171107,-28
29698634,20171108,-108
29794645,20171109,-58
29890227,20171110,-44
29985437,20171111,-59
30080679,20171112,-63
30175291,20171113,-19
30271633,20171114,-44
30368164,20171115,-64
30464610,20171116,-43
30560268,20171117,-85
30656815,20171118,-146
30751732,20171119,-98
30845752,20171120,-82
30943459,20171121,-23
31040381,20171122,-28
31135170,20171123,-23
31228650,20171124,-23
31323405,20171125,-30
31417783,20171126,-21
31512986,20171127,-21
31610546,20171128,-31
31707679,20171129,-53
31804488,20171130,-51
31900834,20171201,-28
31996529,20171202,-17
32091947,20171203,-31
32187939,20171204,-136
32286349,20171205,-154
32382809,20171206,-158
32478795,20171207,-190
32575985,20171208,-82
32673513,20171209,-96
32770242,20171210,-92
32867859,20171211,-74
32966783,20171212,-59
33064811,20171213,-70
33162700,20171214,-77
33261906,20171215,-119
33359398,20171216,-68
33456045,20171217,-104
33551383,20171218,-110
33648374,20171219,-89
33745186,20171220,-86
33841742,20171221,-154
33938888,20171222,-174
34035823,20171223,-117
34130427,20171224,-143
34224705,20171225,-99
34319224,20171226,-108
34415059,20171227,-118
34510678,20171228,-63
34606686,20171229,-83
34703143,20171230,-44
34799129,20171231,-68
8122,20180101,-89
104413,20180102,-96
201871,20180103,-104
299543,20180104,-97
398037,20180105,-63
495667,20180106,-50
591569,20180107,-72
687785,20180108,-80
785072,20180109,-11
881583,20180110,-67
978269,20180111,-132
1074692,20180112,-134
1170596,20180113,-146
1266172,20180114,-130
1362381,20180115,-122
1461381,20180116,-138
1560220,20180117,-140
1659122,20180118,-108
1757483,20180119,-60
1854672,20180120,-79
1950277,20180121,-136
2046951,20180122,-196
2144770,20180123,-181
2240859,20180124,-143
2337142,20180125,-101
2434577,20180126,-195
2531298,20180127,-193
2625990,20180128,-108
2720028,20180129,-93
2817207,20180130,-63
2914631,20180131,-72
3011949,20180201,-43
3109977,20180202,-36
3206796,20180203,-61
3302285,20180204,-86
3398560,20180205,-32
3497163,20180206,-131
3595830,20180207,-146
3693576,20180208,-95
3790794,20180209,-67
3888984,20180210,-129
3984813,20180211,-192
4080882,20180212,-80
4178143,20180213,-61
4274520,20180214,-46
4370826,20180215,-89
4466753,20180216,-159
4562796,20180217,-144
4657015,20180218,-114
4752679,20180219,-128
4849646,20180220,-213
4947151,20180221,-217
5043051,20180222,-105
5139430,20180223,-162
5236816,20180224,-206
5331894,20180225,-182
5426615,20180226,-187
5523423,20180227,-107
5619931,20180228,-137
5715591,20180301,-150
5811160,20180302,-87
5907157,20180303,-69
6002610,20180304,-167
6097623,20180305,-201
6190409,20180306,-200
6282284,20180307,-136
6374238,20180308,-65
6466245,20180309,-73
6557641,20180310,-47
6647495,20180311,-46
6736704,20180312,-55
6828301,20180313,-75
6920263,20180314,-23
7012495,20180315,-63
7104139,20180316,-88
7195407,20180317,-80
7284888,20180318,-131
7374314,20180319,-165
7466748,20180320,-159
7557886,20180321,-109
7649621,20180322,-46
7741597,20180323,-79
7832560,20180324,-93
7922243,20180325,-50
8011769,20180326,-86
8103975,20180327,-98
8195159,20180328,-103
8285394,20180329,-84
8375781,20180330,-89
8464765,20180331,-15
8553630,20180401,-15
8643805,20180402,-31
8736625,20180403,-47
8828607,20180404,-61
8919637,20180405,-38
9011048,20180406,1
9102585,20180407,15
9192803,20180408,-17
9281879,20180409,-52
9374201,20180410,-70
9464900,20180411,-13
9555494,20180412,-70
9647079,20180413,-103
9738816,20180414,-80
9828391,20180415,-63
9918170,20180416,3
10009914,20180417,-103
10101723,20180418,-117
10193453,20180419,-5
10284983,20180420,-49
10376279,20180421,-32
10466439,20180422,-38
10555766,20180423,-18
10647054,20180424,-18
10737789,20180425,-57
10828538,20180426,-13
10918661,20180427,-13
11008522,20180428,-3
11096944,20180429,4
11185991,20180430,17
11277062,20180501,-12
11367416,20180502,-47
11458083,20180503,-49
11548587,20180504,-61
11637745,20180505,-22
11725533,20180506,0
11813226,20180507,11
11903164,20180508,10
11993720,20180509,3
12083803,20180510,19
12173604,20180511,72
12263024,20180512,60
12351252,20180513,-7
12439554,20180514,-23
12531015,20180515,-4
12626551,20180516,-5
12721232,20180517,5
12816127,20180518,-8
12910561,20180519,-11
13003062,20180520,-7
13095945,20180521,11
13190885,20180522,5
13285938,20180523,-9
13380803,20180524,2
13476386,20180525,10
13571386,20180526,3
13664259,20180527,-5
13756822,20180528,-6
13850650,20180529,0
13944970,20180530,13
14040058,20180531,14
14133987,20180601,10
14228436,20180602,-2
14322103,20180603,19
14415617,20180604,15
14510146,20180605,39
14605604,20180606,37
14700966,20180607,35
14796528,20180608,27
14891822,20180609,33
14985397,20180610,43
15078574,20180611,17
15173493,20180612,38
15268114,20180613,59
15362748,20180614,56
15457238,20180615,48
15551558,20180616,79
15644302,20180617,48
15737756,20180618,37
15833808,20180619,22
15928885,20180620,19
16023916,20180621,31
16117958,20180622,48
16211677,20180623,30
16304088,20180624,22
16397433,20180625,16
16492495,20180626,49
16587399,20180627,72
16682100,20180628,67
16776705,20180629,52
16871202,20180630,37
16964918,20180701,35
17059045,20180702,36
17154995,20180703,56
17250732,20180704,43
17345783,20180705,85
17441510,20180706,54
17535937,20180707,50
17628497,20180708,59
17720853,20180709,51
17816983,20180710,62
17912626,20180711,56
18008041,20180712,71
18103495,20180713,76
18198707,20180714,89
18292477,20180715,73
18386126,20180716,76
18481305,20180717,73
18575844,20180718,68
18670263,20180719,82
18765281,20180720,89
18859418,20180721,78
18951724,20180722,80
19043810,20180723,83
19137825,20180724,77
19231602,20180725,72
19325600,20180726,56
19419783,20180727,52
19513330,20180728,46
19605621,20180729,56
19698383,20180730,60
19793192,20180731,43
19886736,20180801,58
19980015,20180802,70
20073357,20180803,63
20166462,20180804,50
20258312,20180805,86
20350792,20180806,63
20446112,20180807,51
20540789,20180808,60
20634564,20180809,66
20728239,20180810,61
20821921,20180811,42
20913942,20180812,50
21006156,20180813,54
21100568,20180814,62
21195015,20180815,76
21288686,20180816,58
21381866,20180817,75
21475382,20180818,60
21567305,20180819,35
21659555,20180820,20
21753698,20180821,72
21846802,20180822,64
21939499,20180823,45
22033608,20180824,22
22127941,20180825,55
22220679,20180826,48
22313446,20180827,56
22408655,20180828,23
22503662,20180829,31
22598290,20180830,48
22692106,20180831,53
22785481,20180901,40
22877636,20180902,32
22968929,20180903,27
23062887,20180904,24
23157600,20180905,37
23252078,20180906,32
23345995,20180907,31
23438933,20180908,29
23530424,20180909,44
23622063,20180910,42
23715918,20180911,47
23809199,20180912,35
23902448,20180913,33
23995850,20180914,20
24088828,20180915,37
24180285,20180916,49
24271262,20180917,49
24358149,20180918,50
24448978,20180919,47
24543048,20180920,15
24636892,20180921,4
24730467,20180922,15
24821840,20180923,17
24913222,20180924,35
25000935,20180925,6
25093807,20180926,-1
25186749,20180927,-11
25279309,20180928,5
25372081,20180929,27
25463670,20180930,17
25555632,20181001,61
25650309,20181002,71
25744422,20181003,51
25838334,20181004,18
25932404,20181005,-7
26025740,20181006,-2
26117578,20181007,-13
26209411,20181008,-44
26302940,20181009,-40
26396879,20181010,-20
26490782,20181011,-7
26583652,20181012,-30
26676912,20181013,-45
26768426,20181014,-107
26861063,20181015,-129
26956472,20181016,-74
27050384,20181017,-2
27144523,20181018,-44
27239166,20181019,-72
27332460,20181020,-29
27423804,20181021,-13
27516100,20181022,-14
27611234,20181023,14
27704064,20181024,-16
27797413,20181025,-27
27891386,20181026,-42
27983412,20181027,-31
28074655,20181028,-17
28166441,20181029,-12
28260574,20181030,-33
28354404,20181031,-86
28448375,20181101,-70
28541616,20181102,-68
28633944,20181103,-73
28724799,20181104,-84
28816600,20181105,-78
28910116,20181106,-86
29002881,20181107,-117
29096685,20181108,-124
29191139,20181109,-135
29285941,20181110,-117
29378629,20181111,-133
29472696,20181112,-178
29568338,20181113,-162
29663433,20181114,-97
29757866,20181115,-80
29853045,20181116,-62
29947721,20181117,-71
30033673,20181118,-110
30119596,20181119,-113
30206204,20181120,-76
30292108,20181121,-79
30377704,20181122,-65
30462162,20181123,-98
30554944,20181124,-145
30646703,20181125,-195
30740393,20181126,-168
30836507,20181127,-120
30931802,20181128,-45
31027435,20181129,-31
31122965,20181130,-85
31216911,20181201,-160
31309523,20181202,-154
31402960,20181203,-201
31499159,20181204,-223
31594955,20181205,-98
31690967,20181206,-72
31786655,20181207,-102
31881281,20181208,-139
31974467,20181209,-158
32068360,20181210,-156
32164849,20181211,-107
32260697,20181212,-114
32356415,20181213,-174
32451556,20181214,-114
32545108,20181215,-90
32637203,20181216,-92
32729766,20181217,-82
32825872,20181218,-98
32921453,20181219,-50
33016439,20181220,-89
33109717,20181221,-78
33202377,20181222,-154
33294098,20181223,-153
33385907,20181224,-99
33477469,20181225,-85
33568199,20181226,-146
33661120,20181227,-177
33754626,20181228,-183
33847148,20181229,-219
33939070,20181230,-136
34030508,20181231,-109
7932,20190101,-224
101310,20190102,-244
195773,20190103,-156
289468,20190104,-84
382651,20190105,-96
474721,20190106,-77
568226,20190107,-114
663422,20190108,-117
757762,20190109,-76
852361,20190110,-82
947158,20190111,-95
1041630,20190112,-125
1136324,20190113,-136
1230813,20190114,-136
1326654,20190115,-89
1421869,20190116,-51
1516828,20190117,-95
1611183,20190118,-147
1705718,20190119,-165
1799258,20190120,-93
1892494,20190121,-79
1986787,20190122,-201
2082389,20190123,-170
2176886,20190124,-160
2270385,20190125,-160
2364215,20190126,-176
2457593,20190127,-107
2551382,20190128,-183
2647363,20190129,-168
2742220,20190130,-199
2837126,20190131,-143
2931872,20190201,-117
3026246,20190202,-99
3119358,20190203,-38
3212111,20190204,-50
3307424,20190205,-53
3402168,20190206,-142
3496736,20190207,-231
3591612,20190208,-216
3685302,20190209,-148
3777937,20190210,-194
3870713,20190211,-204
3965874,20190212,-187
4059369,20190213,-129
4153268,20190214,-37
4247248,20190215,-114
4341076,20190216,-209
4433086,20190217,-219
4525151,20190218,-185
4619139,20190219,-208
4713832,20190220,-209
4809120,20190221,-122
4903110,20190222,-99
4996551,20190223,-197
5088721,20190224,-190
5180463,20190225,-145
5274849,20190226,-130
5368835,20190227,-113
5462598,20190228,-89
5555918,20190301,-24
5649018,20190302,-17
5741106,20190303,-32
5834078,20190304,-140
5929282,20190305,-157
6023370,20190306,-19
6117274,20190307,-37
6211560,20190308,-70
6304950,20190309,-110
6396516,20190310,-100
6488108,20190311,-44
6581998,20190312,-32
6674734,20190313,-115
6766772,20190314,-165
6860569,20190315,-177
6953179,20190316,-148
7043500,20190317,-105
7135108,20190318,-96
7229165,20190319,-129
7322406,20190320,-154
7415095,20190321,-44
7507377,20190322,-59
7599669,20190323,-53
7691359,20190324,-82
7782755,20190325,-103
7876384,20190326,-90
7968309,20190327,-25
8060913,20190328,-29
8152926,20190329,-118
8244851,20190330,-133
8335820,20190331,-111
8425331,20190401,-135
8511398,20190402,-77
8597321,20190403,-68
8682893,20190404,-84
8767984,20190405,-54
8851749,20190406,-51
8934804,20190407,-55
9018438,20190408,-13
9103304,20190409,-14
9187858,20190410,-64
9272620,20190411,-106
9358448,20190412,-160
9442762,20190413,-121
9525707,20190414,-101
9608345,20190415,-45
9692919,20190416,-16
9777345,20190417,-47
9861847,20190418,-21
9945608,20190419,-28
10028144,20190420,-22
10109291,20190421,-18
10190737,20190422,-36
10274834,20190423,-3
10358670,20190424,-23
10441736,20190425,-11
10524331,20190426,-9
10605886,20190427,-2
10687069,20190428,-6
10769315,20190429,-5
10853172,20190430,-9
10936059,20190501,-50
11009367,20190502,-41
11081492,20190503,-78
11153089,20190504,-48
11223072,20190505,-20
11293345,20190506,-13
11365603,20190507,-6
11438236,20190508,-30
11510584,20190509,-33
11583064,20190510,-32
11653426,20190511,-56
11722462,20190512,-34
11791777,20190513,-20
11862062,20190514,-2
11932551,20190515,5
12000730,20190516,35
12059952,20190517,-40
12119145,20190518,-51
12177564,20190519,-52
12237060,20190520,-57
12305525,20190521,-53
12374708,20190522,-34
12443004,20190523,-49
12509515,20190524,-83
12576043,20190525,-45
12641937,20190526,-6
12708146,20190527,-30
12775063,20190528,-46
12842782,20190529,-52
12909975,20190530,-47
12975109,20190531,-19
